2022-09-22_13-58-35 13070069
2022-09-22_13-58-35 13069000
2022-09-22_13-58-35 13073399
2022-09-22_13-58-35 13073399
2022-09-22_13-58-35 13070928
2022-09-22_13-58-35 13070928
2022-09-22_13-58-36 13072170
2022-09-22_13-58-36 13072170
2022-09-22_13-58-36 13066845
2022-09-22_13-58-36 13073044
2022-09-22_13-58-36 13073044
2022-09-22_13-58-36 13073636
2022-09-22_13-58-36 13073636
2022-09-22_13-58-36 13074423
2022-09-22_13-58-36 13074423
2022-09-22_13-58-36 13073494
2022-09-22_13-58-37 13073582
2022-09-22_13-58-37 13073582
2022-09-22_13-58-37 13072622
2022-09-22_13-58-37 13072622
2022-09-22_13-58-37 13069425
2022-09-22_13-58-37 13073946
2022-09-22_13-58-37 13073946
2022-09-22_13-58-37 13075781
2022-09-22_13-58-37 13075781
2022-09-22_13-58-37 13072855
2022-09-22_13-58-38 13072855
2022-09-22_13-58-38 13073793
2022-09-22_13-58-38 13074362
2022-09-22_13-58-38 13074362
2022-09-22_13-58-38 13073571
2022-09-22_13-58-38 13073571
2022-09-22_13-58-38 13072739
2022-09-22_13-58-38 13072739
2022-09-22_13-58-38 13074118
2022-09-22_13-58-38 13074546
2022-09-22_13-58-39 13074546
2022-09-22_13-58-39 13073511
2022-09-22_13-58-39 13073511
2022-09-22_13-58-39 13073274
2022-09-22_13-58-39 13073274
2022-09-22_13-58-39 13074648
2022-09-22_13-58-39 13072397
2022-09-22_13-58-39 13072397
2022-09-22_13-58-39 13074569
2022-09-22_13-58-39 13074569
2022-09-22_13-58-40 13074211
2022-09-22_13-58-40 13070220
2022-09-22_13-58-40 13070220
2022-09-22_13-58-40 13072468
2022-09-22_13-58-40 13072468
2022-09-22_13-58-40 13075034
2022-09-22_13-58-40 13075034
2022-09-22_13-58-40 13074228
2022-09-22_13-58-40 13071918
2022-09-22_13-58-40 13071918
2022-09-22_13-58-41 13073656
2022-09-22_13-58-41 13073656
2022-09-22_13-58-41 13073512
2022-09-22_13-58-41 13073512
2022-09-22_13-58-41 13071981
2022-09-22_13-58-41 13073634
2022-09-22_13-58-41 13073634
2022-09-22_13-58-41 13072790
2022-09-22_13-58-41 13072790
2022-09-22_13-58-41 13073104
2022-09-22_13-58-42 13074432
2022-09-22_13-58-42 13074432
2022-09-22_13-58-42 13073577
2022-09-22_13-58-42 13073577
2022-09-22_13-58-42 13074687
2022-09-22_13-58-42 13074687
2022-09-22_13-58-42 13074466
2022-09-22_13-58-42 13073615
2022-09-22_13-58-42 13073615
2022-09-22_13-58-42 13073828
2022-09-22_13-58-43 13073828
2022-09-22_13-58-43 13069388
2022-09-22_13-58-43 13069388
2022-09-22_13-58-43 13072962
2022-09-22_13-58-43 13073651
2022-09-22_13-58-43 13073651
2022-09-22_13-58-43 13072427
2022-09-22_13-58-43 13072427
2022-09-22_13-58-43 13074380
2022-09-22_13-58-43 13074380
2022-09-22_13-58-44 13069841
2022-09-22_13-58-44 13066581
2022-09-22_13-58-44 13066581
2022-09-22_13-58-44 13071109
2022-09-22_13-58-44 13071109
2022-09-22_13-58-44 13072552
2022-09-22_13-58-44 13071668
2022-09-22_13-58-44 13071668
2022-09-22_13-58-44 13072216
2022-09-22_13-58-44 13072216
2022-09-22_13-58-45 13071300
2022-09-22_13-58-45 13071300
2022-09-22_13-58-45 13073834
2022-09-22_13-58-45 13074553
2022-09-22_13-58-45 13074553
2022-09-22_13-58-45 13075851
2022-09-22_13-58-45 13075851
2022-09-22_13-58-45 13071453
2022-09-22_13-58-45 13071453
2022-09-22_13-58-46 13071074
2022-09-22_13-58-46 13071501
2022-09-22_13-58-46 13071501
2022-09-22_13-58-46 13074255
2022-09-22_13-58-46 13074255
2022-09-22_13-58-46 13072538
2022-09-22_13-58-46 13072538
2022-09-22_13-58-46 13068803
2022-09-22_13-58-46 13071621
2022-09-22_13-58-46 13071621
2022-09-22_13-58-47 13073068
2022-09-22_13-58-47 13073068
2022-09-22_13-58-47 13072302
2022-09-22_13-58-47 13074156
2022-09-22_13-58-47 13074156
2022-09-22_13-58-47 13072585
2022-09-22_13-58-47 13072585
2022-09-22_13-58-47 13071302
2022-09-22_13-58-47 13071302
2022-09-22_13-58-47 13072378
2022-09-22_13-58-48 13075754
2022-09-22_13-58-48 13075754
2022-09-22_13-58-48 13076088
2022-09-22_13-58-48 13076088
2022-09-22_13-58-48 13074556
2022-09-22_13-58-48 13074556
2022-09-22_13-58-48 13072700
2022-09-22_13-58-48 13072419
2022-09-22_13-58-48 13072419
2022-09-22_13-58-48 13073030
2022-09-22_13-58-49 13073030
2022-09-22_13-58-49 13070009
2022-09-22_13-58-49 13070009
2022-09-22_13-58-49 13068230
2022-09-22_13-58-49 13073806
2022-09-22_13-58-49 13073806
2022-09-22_13-58-49 13073911
2022-09-22_13-58-49 13073911
2022-09-22_13-58-49 13069173
2022-09-22_13-58-49 13070823
2022-09-22_13-58-50 13070823
2022-09-22_13-58-50 13074020
2022-09-22_13-58-50 13074020
2022-09-22_13-58-50 13072043
2022-09-22_13-58-50 13072043
2022-09-22_13-58-50 13072416
2022-09-22_13-58-50 13070579
2022-09-22_13-58-50 13070579
2022-09-22_13-58-50 13074146
2022-09-22_13-58-50 13074146
2022-09-22_13-58-51 13074848
2022-09-22_13-58-51 13074848
2022-09-22_13-58-51 13074415
2022-09-22_13-58-51 13074166
2022-09-22_13-58-51 13074166
2022-09-22_13-58-51 13073802
2022-09-22_13-58-51 13073802
2022-09-22_13-58-51 13073811
2022-09-22_13-58-51 13073811
2022-09-22_13-58-51 13072037
2022-09-22_13-58-52 13071944
2022-09-22_13-58-52 13071944
2022-09-22_13-58-52 13073979
2022-09-22_13-58-52 13073979
2022-09-22_13-58-52 13069116
2022-09-22_13-58-52 13070185
2022-09-22_13-58-52 13070185
2022-09-22_13-58-52 13068064
2022-09-22_13-58-52 13068064
2022-09-22_13-58-52 13070806
2022-09-22_13-58-53 13070806
2022-09-22_13-58-53 13073649
2022-09-22_13-58-53 13074907
2022-09-22_13-58-53 13074907
2022-09-22_13-58-53 13074255
2022-09-22_13-58-53 13074255
2022-09-22_13-58-53 13074347
2022-09-22_13-58-53 13074347
2022-09-22_13-58-53 13071341
2022-09-22_13-58-53 13069424
2022-09-22_13-58-54 13069424
2022-09-22_13-58-54 13069323
2022-09-22_13-58-54 13069323
2022-09-22_13-58-54 13069923
2022-09-22_13-58-54 13070428
2022-09-22_13-58-54 13070428
2022-09-22_13-58-54 13071931
2022-09-22_13-58-54 13071931
2022-09-22_13-58-54 13071451
2022-09-22_13-58-54 13071451
2022-09-22_13-58-55 13067364
2022-09-22_13-58-55 13073015
2022-09-22_13-58-55 13073015
2022-09-22_13-58-55 13075982
2022-09-22_13-58-55 13075982
2022-09-22_13-58-55 13071833
2022-09-22_13-58-55 13071833
2022-09-22_13-58-55 13070387
2022-09-22_13-58-55 13070629
2022-09-22_13-58-55 13070629
2022-09-22_13-58-56 13071927
2022-09-22_13-58-56 13071927
2022-09-22_13-58-56 13073006
2022-09-22_13-58-56 13073006
2022-09-22_13-58-56 13075428
2022-09-22_13-58-56 13075984
2022-09-22_13-58-56 13075984
2022-09-22_13-58-56 13075770
2022-09-22_13-58-56 13075770
2022-09-22_13-58-57 13075974
2022-09-22_13-58-57 13075670
2022-09-22_13-58-57 13075670
2022-09-22_13-58-57 13079169
2022-09-22_13-58-57 13079169
2022-09-22_13-58-57 13076507
2022-09-22_13-58-57 13076507
2022-09-22_13-58-57 13075857
2022-09-22_13-58-57 13074992
2022-09-22_13-58-57 13074992
2022-09-22_13-58-58 13072858
2022-09-22_13-58-58 13072858
2022-09-22_13-58-58 13074514
2022-09-22_13-58-58 13074514
2022-09-22_13-58-58 13076414
2022-09-22_13-58-58 13076274
2022-09-22_13-58-58 13076274
2022-09-22_13-58-58 13077058
2022-09-22_13-58-58 13077058
2022-09-22_13-58-58 13075862
2022-09-22_13-58-59 13075862
2022-09-22_13-58-59 13077818
2022-09-22_13-58-59 13075289
2022-09-22_13-58-59 13075289
2022-09-22_13-58-59 13077643
2022-09-22_13-58-59 13077643
2022-09-22_13-58-59 13076585
2022-09-22_13-58-59 13078719
2022-09-22_13-58-59 13078719
2022-09-22_13-58-59 13076774
2022-09-22_13-59-00 13076774
2022-09-22_13-59-00 13072525
2022-09-22_13-59-00 13072525
2022-09-22_13-59-00 13075885
2022-09-22_13-59-00 13075342
2022-09-22_13-59-00 13075342
2022-09-22_13-59-00 13077768
2022-09-22_13-59-00 13077768
2022-09-22_13-59-00 13078939
2022-09-22_13-59-00 13078939
2022-09-22_13-59-01 13079071
2022-09-22_13-59-01 13077014
2022-09-22_13-59-01 13077014
2022-09-22_13-59-01 13076340
2022-09-22_13-59-01 13076340
2022-09-22_13-59-01 13074953
2022-09-22_13-59-01 13074953
2022-09-22_13-59-01 13078507
2022-09-22_13-59-01 13077443
2022-09-22_13-59-01 13077443
2022-09-22_13-59-02 13075084
2022-09-22_13-59-02 13075084
2022-09-22_13-59-02 13074210
2022-09-22_13-59-02 13076185
2022-09-22_13-59-02 13076185
2022-09-22_13-59-02 13073847
2022-09-22_13-59-02 13073847
2022-09-22_13-59-02 13074573
2022-09-22_13-59-02 13074573
2022-09-22_13-59-02 13075481
2022-09-22_13-59-03 13073989
2022-09-22_13-59-03 13073989
2022-09-22_13-59-03 13073191
2022-09-22_13-59-03 13073191
2022-09-22_13-59-03 13072967
2022-09-22_13-59-03 13072967
2022-09-22_13-59-03 13074109
2022-09-22_13-59-03 13075779
2022-09-22_13-59-03 13075779
2022-09-22_13-59-03 13075065
2022-09-22_13-59-04 13075065
2022-09-22_13-59-04 13078584
2022-09-22_13-59-04 13073472
2022-09-22_13-59-04 13073472
2022-09-22_13-59-04 13074780
2022-09-22_13-59-04 13074780
2022-09-22_13-59-04 13075552
2022-09-22_13-59-04 13075552
2022-09-22_13-59-04 13072547
2022-09-22_13-59-04 13075598
2022-09-22_13-59-05 13075598
2022-09-22_13-59-05 13076600
2022-09-22_13-59-05 13076600
2022-09-22_13-59-05 13075991
2022-09-22_13-59-05 13075991
2022-09-22_13-59-05 13076294
2022-09-22_13-59-05 13076808
2022-09-22_13-59-05 13076808
2022-09-22_13-59-05 13075253
2022-09-22_13-59-05 13075253
2022-09-22_13-59-06 13074072
2022-09-22_13-59-06 13074072
2022-09-22_13-59-06 13071379
2022-09-22_13-59-06 13069480
2022-09-22_13-59-06 13069480
2022-09-22_13-59-06 13071076
2022-09-22_13-59-06 13071076
2022-09-22_13-59-06 13072139
2022-09-22_13-59-06 13072139
2022-09-22_13-59-06 13074589
2022-09-22_13-59-07 13071399
2022-09-22_13-59-07 13071399
2022-09-22_13-59-07 13073700
2022-09-22_13-59-07 13074457
2022-09-22_13-59-07 13074457
2022-09-22_13-59-07 13074844
2022-09-22_13-59-07 13074844
2022-09-22_13-59-07 13077011
2022-09-22_13-59-07 13074059
2022-09-22_13-59-08 13074059
2022-09-22_13-59-08 13075035
2022-09-22_13-59-08 13075035
2022-09-22_13-59-08 13070112
2022-09-22_13-59-08 13075696
2022-09-22_13-59-08 13075696
2022-09-22_13-59-08 13075057
2022-09-22_13-59-08 13075057
2022-09-22_13-59-08 13074726
2022-09-22_13-59-08 13074726
2022-09-22_13-59-09 13072973
2022-09-22_13-59-09 13073624
2022-09-22_13-59-09 13073624
2022-09-22_13-59-09 13073473
2022-09-22_13-59-09 13073473
2022-09-22_13-59-09 13076179
2022-09-22_13-59-09 13076179
2022-09-22_13-59-09 13076260
2022-09-22_13-59-09 13073373
2022-09-22_13-59-09 13073373
2022-09-22_13-59-10 13069679
2022-09-22_13-59-10 13069679
2022-09-22_13-59-10 13071633
2022-09-22_13-59-10 13071633
2022-09-22_13-59-10 13073229
2022-09-22_13-59-10 13076153
2022-09-22_13-59-10 13076153
2022-09-22_13-59-10 13071728
2022-09-22_13-59-10 13071728
2022-09-22_13-59-10 13076764
2022-09-22_13-59-11 13075121
2022-09-22_13-59-11 13075121
2022-09-22_13-59-11 13077203
2022-09-22_13-59-11 13077203
2022-09-22_13-59-11 13076160
2022-09-22_13-59-11 13076160
2022-09-22_13-59-11 13071360
2022-09-22_13-59-11 13073393
2022-09-22_13-59-11 13073393
2022-09-22_13-59-11 13076580
2022-09-22_13-59-12 13076580
2022-09-22_13-59-12 13077547
2022-09-22_13-59-12 13077547
2022-09-22_13-59-12 13076656
2022-09-22_13-59-12 13074421
2022-09-22_13-59-12 13074421
2022-09-22_13-59-12 13075062
2022-09-22_13-59-12 13075062
2022-09-22_13-59-12 13070114
2022-09-22_13-59-12 13070114
2022-09-22_13-59-13 13073313
2022-09-22_13-59-13 13075854
2022-09-22_13-59-13 13075854
2022-09-22_13-59-13 13075844
2022-09-22_13-59-13 13075844
2022-09-22_13-59-13 13075901
2022-09-22_13-59-13 13075901
2022-09-22_13-59-13 13076207
2022-09-22_13-59-13 13075725
2022-09-22_13-59-13 13075725
2022-09-22_13-59-14 13075713
2022-09-22_13-59-14 13075713
2022-09-22_13-59-14 13074828
2022-09-22_13-59-14 13074828
2022-09-22_13-59-14 13071588
2022-09-22_13-59-14 13076325
2022-09-22_13-59-14 13076325
2022-09-22_13-59-14 13073614
2022-09-22_13-59-14 13073614
2022-09-22_13-59-14 13072984
2022-09-22_13-59-15 13072984
2022-09-22_13-59-15 13073156
2022-09-22_13-59-15 13074360
2022-09-22_13-59-15 13074360
2022-09-22_13-59-15 13074465
2022-09-22_13-59-15 13074465
2022-09-22_13-59-15 13073003
2022-09-22_13-59-15 13073003
2022-09-22_13-59-15 13073700
2022-09-22_13-59-15 13073157
2022-09-22_13-59-16 13073157
2022-09-22_13-59-16 13074191
2022-09-22_13-59-16 13074191
2022-09-22_13-59-16 13076507
2022-09-22_13-59-16 13076507
2022-09-22_13-59-16 13076182
2022-09-22_13-59-16 13076868
2022-09-22_13-59-16 13076868
2022-09-22_13-59-16 13075396
2022-09-22_13-59-16 13075396
2022-09-22_13-59-17 13073622
2022-09-22_13-59-17 13073622
2022-09-22_13-59-17 13070181
2022-09-22_13-59-17 13068703
2022-09-22_13-59-17 13068703
2022-09-22_13-59-17 13074334
2022-09-22_13-59-17 13074334
2022-09-22_13-59-17 13074528
2022-09-22_13-59-17 13074348
2022-09-22_13-59-17 13074348
2022-09-22_13-59-18 13073501
2022-09-22_13-59-18 13073501
2022-09-22_13-59-18 13077052
2022-09-22_13-59-18 13077052
2022-09-22_13-59-18 13076396
2022-09-22_13-59-18 13071869
2022-09-22_13-59-18 13071869
2022-09-22_13-59-18 13065856
2022-09-22_13-59-18 13065856
2022-09-22_13-59-19 13069686
2022-09-22_13-59-19 13069686
2022-09-22_13-59-19 13068909
2022-09-22_13-59-19 13071433
2022-09-22_13-59-19 13071433
2022-09-22_13-59-19 13069338
2022-09-22_13-59-19 13069338
2022-09-22_13-59-19 13075105
2022-09-22_13-59-19 13075105
2022-09-22_13-59-19 13073842
2022-09-22_13-59-20 13073925
2022-09-22_13-59-20 13073925
2022-09-22_13-59-20 13072633
2022-09-22_13-59-20 13072633
2022-09-22_13-59-20 13075579
2022-09-22_13-59-20 13075579
2022-09-22_13-59-20 13077182
2022-09-22_13-59-20 13073399
2022-09-22_13-59-20 13073399
2022-09-22_13-59-20 13074566
2022-09-22_13-59-21 13074566
2022-09-22_13-59-21 13074116
2022-09-22_13-59-21 13074116
2022-09-22_13-59-21 13073141
2022-09-22_13-59-21 13070241
2022-09-22_13-59-21 13070241
2022-09-22_13-59-21 13073212
2022-09-22_13-59-21 13073212
2022-09-22_13-59-21 13072304
2022-09-22_13-59-21 13072304
2022-09-22_13-59-22 13071417
2022-09-22_13-59-22 13073388
2022-09-22_13-59-22 13073388
2022-09-22_13-59-22 13073703
2022-09-22_13-59-22 13073703
2022-09-22_13-59-22 13071681
2022-09-22_13-59-22 13071681
2022-09-22_13-59-22 13073127
2022-09-22_13-59-22 13072823
2022-09-22_13-59-22 13072823
2022-09-22_13-59-23 13071660
2022-09-22_13-59-23 13071660
2022-09-22_13-59-23 13066350
2022-09-22_13-59-23 13066350
2022-09-22_13-59-23 13073693
2022-09-22_13-59-23 13074315
2022-09-22_13-59-23 13074315
2022-09-22_13-59-23 13074811
2022-09-22_13-59-23 13074811
2022-09-22_13-59-23 13073377
2022-09-22_13-59-24 13071151
2022-09-22_13-59-24 13071151
2022-09-22_13-59-24 13071501
2022-09-22_13-59-24 13071501
2022-09-22_13-59-24 13073014
2022-09-22_13-59-24 13073014
2022-09-22_13-59-24 13071510
2022-09-22_13-59-24 13072794
2022-09-22_13-59-24 13072794
2022-09-22_13-59-24 13076629
2022-09-22_13-59-25 13076629
2022-09-22_13-59-25 13075570
2022-09-22_13-59-25 13075570
2022-09-22_13-59-25 13074324
2022-09-22_13-59-25 13070166
2022-09-22_13-59-25 13070166
2022-09-22_13-59-25 13070600
2022-09-22_13-59-25 13070600
2022-09-22_13-59-25 13072885
2022-09-22_13-59-25 13072885
2022-09-22_13-59-26 13072330
2022-09-22_13-59-26 13072417
2022-09-22_13-59-26 13072417
2022-09-22_13-59-26 13067998
2022-09-22_13-59-26 13067998
2022-09-22_13-59-26 13072448
2022-09-22_13-59-26 13072448
2022-09-22_13-59-26 13073630
2022-09-22_13-59-26 13072702
2022-09-22_13-59-26 13072702
2022-09-22_13-59-27 13070969
2022-09-22_13-59-27 13070969
2022-09-22_13-59-27 13074736
2022-09-22_13-59-27 13074736
2022-09-22_13-59-27 13073792
2022-09-22_13-59-27 13072638
2022-09-22_13-59-27 13072638
2022-09-22_13-59-27 13072235
2022-09-22_13-59-27 13072235
2022-09-22_13-59-27 13071559
2022-09-22_13-59-28 13071559
2022-09-22_13-59-28 13068379
2022-09-22_13-59-28 13071649
2022-09-22_13-59-28 13071649
2022-09-22_13-59-28 13071225
2022-09-22_13-59-28 13071225
2022-09-22_13-59-28 13071182
2022-09-22_13-59-28 13071182
2022-09-22_13-59-28 13073039
2022-09-22_13-59-28 13072346
2022-09-22_13-59-29 13072346
2022-09-22_13-59-29 13075159
2022-09-22_13-59-29 13075159
2022-09-22_13-59-29 13074140
2022-09-22_13-59-29 13066296
2022-09-22_13-59-29 13066296
2022-09-22_13-59-29 13070427
2022-09-22_13-59-29 13070427
2022-09-22_13-59-29 13073161
2022-09-22_13-59-29 13073161
2022-09-22_13-59-30 13071440
2022-09-22_13-59-30 13072944
2022-09-22_13-59-30 13072944
2022-09-22_13-59-30 13073706
2022-09-22_13-59-30 13073706
2022-09-22_13-59-30 13074026
2022-09-22_13-59-30 13074026
2022-09-22_13-59-30 13074771
2022-09-22_13-59-30 13071771
2022-09-22_13-59-30 13071771
2022-09-22_13-59-31 13069653
2022-09-22_13-59-31 13069653
2022-09-22_13-59-31 13073141
2022-09-22_13-59-31 13073141
2022-09-22_13-59-31 13072382
2022-09-22_13-59-31 13069824
2022-09-22_13-59-31 13069824
2022-09-22_13-59-31 13071740
2022-09-22_13-59-31 13071740
2022-09-22_13-59-31 13073851
2022-09-22_13-59-32 13073851
2022-09-22_13-59-32 13071603
2022-09-22_13-59-32 13069897
2022-09-22_13-59-32 13069897
2022-09-22_13-59-32 13068574
2022-09-22_13-59-32 13068574
2022-09-22_13-59-32 13072482
2022-09-22_13-59-32 13072482
2022-09-22_13-59-32 13074146
2022-09-22_13-59-32 13075504
2022-09-22_13-59-33 13075504
2022-09-22_13-59-33 13072992
2022-09-22_13-59-33 13072992
2022-09-22_13-59-33 13073962
2022-09-22_13-59-33 13073962
2022-09-22_13-59-33 13073356
2022-09-22_13-59-33 13072921
2022-09-22_13-59-33 13072921
2022-09-22_13-59-33 13074968
2022-09-22_13-59-33 13074968
2022-09-22_13-59-34 13071769
2022-09-22_13-59-34 13071769
2022-09-22_13-59-34 13071623
2022-09-22_13-59-34 13071296
2022-09-22_13-59-34 13071296
2022-09-22_13-59-34 13073580
2022-09-22_13-59-34 13073580
2022-09-22_13-59-34 13073956
2022-09-22_13-59-34 13073956
2022-09-22_13-59-34 13070741
2022-09-22_13-59-35 13070531
2022-09-22_13-59-35 13070531
2022-09-22_13-59-35 13068084
2022-09-22_13-59-35 13068084
2022-09-22_13-59-35 13068185
2022-09-22_13-59-35 13069796
2022-09-22_13-59-35 13068950
2022-09-22_13-59-35 13068950
2022-09-22_13-59-35 13070607
2022-09-22_13-59-36 13070607
2022-09-22_13-59-36 13073317
2022-09-22_13-59-36 13070903
2022-09-22_13-59-36 13070903
2022-09-22_13-59-36 13071129
2022-09-22_13-59-36 13071129
2022-09-22_13-59-36 13072570
2022-09-22_13-59-36 13072570
2022-09-22_13-59-36 13073317
2022-09-22_13-59-36 13072520
2022-09-22_13-59-37 13072520
2022-09-22_13-59-37 13070142
2022-09-22_13-59-37 13070142
2022-09-22_13-59-37 13072335
2022-09-22_13-59-37 13072335
2022-09-22_13-59-37 13070890
2022-09-22_13-59-37 13067827
2022-09-22_13-59-37 13067827
2022-09-22_13-59-37 13072300
2022-09-22_13-59-37 13072300
2022-09-22_13-59-38 13071771
2022-09-22_13-59-38 13071294
2022-09-22_13-59-38 13071294
2022-09-22_13-59-38 13066839
2022-09-22_13-59-38 13066839
2022-09-22_13-59-38 13067980
2022-09-22_13-59-38 13067980
2022-09-22_13-59-38 13071857
2022-09-22_13-59-38 13073061
2022-09-22_13-59-38 13073061
2022-09-22_13-59-39 13070040
2022-09-22_13-59-39 13070040
2022-09-22_13-59-39 13068081
2022-09-22_13-59-39 13068081
2022-09-22_13-59-39 13070450
2022-09-22_13-59-39 13072674
2022-09-22_13-59-39 13072674
2022-09-22_13-59-39 13074378
2022-09-22_13-59-39 13074378
2022-09-22_13-59-39 13073300
2022-09-22_13-59-40 13073300
2022-09-22_13-59-40 13070922
2022-09-22_13-59-40 13072954
2022-09-22_13-59-40 13072954
2022-09-22_13-59-40 13074516
2022-09-22_13-59-40 13074516
2022-09-22_13-59-40 13069931
2022-09-22_13-59-40 13066920
2022-09-22_13-59-40 13066920
2022-09-22_13-59-40 13071028
2022-09-22_13-59-41 13071028
2022-09-22_13-59-41 13067927
2022-09-22_13-59-41 13067927
2022-09-22_13-59-41 13070499
2022-09-22_13-59-41 13070700
2022-09-22_13-59-41 13070700
2022-09-22_13-59-41 13072175
2022-09-22_13-59-41 13072175
2022-09-22_13-59-41 13075845
2022-09-22_13-59-42 13075845
2022-09-22_13-59-42 13071119
2022-09-22_13-59-42 13074559
2022-09-22_13-59-42 13074559
2022-09-22_13-59-42 13071475
2022-09-22_13-59-42 13071475
2022-09-22_13-59-42 13072037
2022-09-22_13-59-42 13072037
2022-09-22_13-59-42 13069655
2022-09-22_13-59-42 13070523
2022-09-22_13-59-43 13070523
2022-09-22_13-59-43 13070980
2022-09-22_13-59-43 13070980
2022-09-22_13-59-43 13072401
2022-09-22_13-59-43 13071516
2022-09-22_13-59-43 13071516
2022-09-22_13-59-43 13071722
2022-09-22_13-59-43 13071722
2022-09-22_13-59-43 13073407
2022-09-22_13-59-43 13073407
2022-09-22_13-59-44 13071604
2022-09-22_13-59-44 13074110
2022-09-22_13-59-44 13074110
2022-09-22_13-59-44 13075158
2022-09-22_13-59-44 13075158
2022-09-22_13-59-44 13071941
2022-09-22_13-59-44 13071941
2022-09-22_13-59-44 13071008
2022-09-22_13-59-44 13072069
2022-09-22_13-59-44 13072069
2022-09-22_13-59-45 13071823
2022-09-22_13-59-45 13071823
2022-09-22_13-59-45 13070022
2022-09-22_13-59-45 13070022
2022-09-22_13-59-45 13075163
2022-09-22_13-59-45 13075953
2022-09-22_13-59-45 13075953
2022-09-22_13-59-45 13073489
2022-09-22_13-59-45 13073489
2022-09-22_13-59-45 13074572
2022-09-22_13-59-46 13074399
2022-09-22_13-59-46 13074399
2022-09-22_13-59-46 13072594
2022-09-22_13-59-46 13072594
2022-09-22_13-59-46 13068875
2022-09-22_13-59-46 13068875
2022-09-22_13-59-46 13070898
2022-09-22_13-59-46 13072356
2022-09-22_13-59-46 13072356
2022-09-22_13-59-46 13072831
2022-09-22_13-59-47 13072831
2022-09-22_13-59-47 13074124
2022-09-22_13-59-47 13074124
2022-09-22_13-59-47 13074053
2022-09-22_13-59-47 13072892
2022-09-22_13-59-47 13072892
2022-09-22_13-59-47 13073533
2022-09-22_13-59-47 13073533
2022-09-22_13-59-47 13073722
2022-09-22_13-59-47 13072024
2022-09-22_13-59-48 13072024
2022-09-22_13-59-48 13074169
2022-09-22_13-59-48 13074169
2022-09-22_13-59-48 13075191
2022-09-22_13-59-48 13075191
2022-09-22_13-59-48 13073394
2022-09-22_13-59-48 13074435
2022-09-22_13-59-48 13074435
2022-09-22_13-59-48 13075595
2022-09-22_13-59-48 13075595
2022-09-22_13-59-49 13075629
2022-09-22_13-59-49 13075629
2022-09-22_13-59-49 13075678
2022-09-22_13-59-49 13073640
2022-09-22_13-59-49 13073640
2022-09-22_13-59-49 13073132
2022-09-22_13-59-49 13073132
2022-09-22_13-59-49 13072762
2022-09-22_13-59-49 13072762
2022-09-22_13-59-49 13070285
2022-09-22_13-59-50 13070177
2022-09-22_13-59-50 13070177
2022-09-22_13-59-50 13074720
2022-09-22_13-59-50 13074720
2022-09-22_13-59-50 13069948
2022-09-22_13-59-50 13070579
2022-09-22_13-59-50 13070579
2022-09-22_13-59-50 13071645
2022-09-22_13-59-50 13071645
2022-09-22_13-59-50 13074190
2022-09-22_13-59-51 13074190
2022-09-22_13-59-51 13069938
2022-09-22_13-59-51 13072912
2022-09-22_13-59-51 13072912
2022-09-22_13-59-51 13073641
2022-09-22_13-59-51 13073641
2022-09-22_13-59-51 13072307
2022-09-22_13-59-51 13072307
2022-09-22_13-59-51 13074334
2022-09-22_13-59-51 13070253
2022-09-22_13-59-52 13070253
2022-09-22_13-59-52 13066329
2022-09-22_13-59-52 13066329
2022-09-22_13-59-52 13069779
2022-09-22_13-59-52 13069779
2022-09-22_13-59-52 13074064
2022-09-22_13-59-52 13072981
2022-09-22_13-59-52 13072981
2022-09-22_13-59-52 13072771
2022-09-22_13-59-52 13072771
2022-09-22_13-59-53 13070992
2022-09-22_13-59-53 13069409
2022-09-22_13-59-53 13069409
2022-09-22_13-59-53 13068583
2022-09-22_13-59-53 13068583
2022-09-22_13-59-53 13069622
2022-09-22_13-59-53 13069622
2022-09-22_13-59-53 13070942
2022-09-22_13-59-53 13070046
2022-09-22_13-59-54 13070046
2022-09-22_13-59-54 13071303
2022-09-22_13-59-54 13071303
2022-09-22_13-59-54 13073720
2022-09-22_13-59-54 13073720
2022-09-22_13-59-54 13072836
2022-09-22_13-59-54 13071739
2022-09-22_13-59-54 13071739
2022-09-22_13-59-54 13071628
2022-09-22_13-59-54 13071628
2022-09-22_13-59-55 13065824
2022-09-22_13-59-55 13065824
2022-09-22_13-59-55 13069856
2022-09-22_13-59-55 13067740
2022-09-22_13-59-55 13067740
2022-09-22_13-59-55 13066333
2022-09-22_13-59-55 13066333
2022-09-22_13-59-55 13068031
2022-09-22_13-59-55 13070467
2022-09-22_13-59-55 13070467
2022-09-22_13-59-56 13066458
2022-09-22_13-59-56 13066458
2022-09-22_13-59-56 13068610
2022-09-22_13-59-56 13068610
2022-09-22_13-59-56 13072349
2022-09-22_13-59-56 13070120
2022-09-22_13-59-56 13070120
2022-09-22_13-59-56 13071869
2022-09-22_13-59-56 13071869
2022-09-22_13-59-56 13071930
2022-09-22_13-59-57 13071930
2022-09-22_13-59-57 13068998
2022-09-22_13-59-57 13069979
2022-09-22_13-59-57 13069979
2022-09-22_13-59-57 13066635
2022-09-22_13-59-57 13066635
2022-09-22_13-59-57 13068780
2022-09-22_13-59-57 13068780
2022-09-22_13-59-57 13071005
2022-09-22_13-59-57 13071680
2022-09-22_13-59-58 13071680
2022-09-22_13-59-58 13071921
2022-09-22_13-59-58 13071921
2022-09-22_13-59-58 13070534
2022-09-22_13-59-58 13070944
2022-09-22_13-59-58 13070944
2022-09-22_13-59-58 13074064
2022-09-22_13-59-58 13074064
2022-09-22_13-59-58 13072397
2022-09-22_13-59-58 13072397
2022-09-22_13-59-59 13066020
2022-09-22_13-59-59 13068448
2022-09-22_13-59-59 13068448
2022-09-22_13-59-59 13071416
2022-09-22_13-59-59 13071416
2022-09-22_13-59-59 13067687
2022-09-22_13-59-59 13067687
2022-09-22_13-59-59 13070175
2022-09-22_13-59-59 13071467
2022-09-22_13-59-59 13071467
2022-09-22_14-00-00 13069631
2022-09-22_14-00-00 13069631
2022-09-22_14-00-00 13069368
2022-09-22_14-00-00 13071208
2022-09-22_14-00-00 13071208
2022-09-22_14-00-00 13071135
2022-09-22_14-00-00 13071135
2022-09-22_14-00-00 13071359
2022-09-22_14-00-00 13071359
2022-09-22_14-00-00 13071219
2022-09-22_14-00-01 13072254
2022-09-22_14-00-01 13072254
2022-09-22_14-00-01 13069608
2022-09-22_14-00-01 13069608
2022-09-22_14-00-01 13072369
2022-09-22_14-00-01 13072369
2022-09-22_14-00-01 13071295
2022-09-22_14-00-01 13071281
2022-09-22_14-00-01 13071281
2022-09-22_14-00-01 13069797
2022-09-22_14-00-02 13069797
2022-09-22_14-00-02 13074678
2022-09-22_14-00-02 13074678
2022-09-22_14-00-02 13072258
2022-09-22_14-00-02 13070113
2022-09-22_14-00-02 13070113
2022-09-22_14-00-02 13073422
2022-09-22_14-00-02 13073422
2022-09-22_14-00-02 13070467
2022-09-22_14-00-02 13072667
2022-09-22_14-00-03 13072667
2022-09-22_14-00-03 13072251
2022-09-22_14-00-03 13072251
2022-09-22_14-00-03 13070305
2022-09-22_14-00-03 13070305
2022-09-22_14-00-03 13073584
2022-09-22_14-00-03 13073175
2022-09-22_14-00-03 13073175
2022-09-22_14-00-03 13073727
2022-09-22_14-00-03 13073727
2022-09-22_14-00-04 13073864
2022-09-22_14-00-04 13073864
2022-09-22_14-00-04 13070722
2022-09-22_14-00-04 13072912
2022-09-22_14-00-04 13072912
2022-09-22_14-00-04 13071597
2022-09-22_14-00-04 13071597
2022-09-22_14-00-04 13076103
2022-09-22_14-00-04 13076103
2022-09-22_14-00-05 13068859
2022-09-22_14-00-05 13070029
2022-09-22_14-00-05 13070029
2022-09-22_14-00-05 13069552
2022-09-22_14-00-05 13069552
2022-09-22_14-00-05 13070050
2022-09-22_14-00-05 13070559
2022-09-22_14-00-05 13070559
2022-09-22_14-00-05 13072174
2022-09-22_14-00-05 13072174
2022-09-22_14-00-06 13071326
2022-09-22_14-00-06 13071326
2022-09-22_14-00-06 13066518
2022-09-22_14-00-06 13071939
2022-09-22_14-00-06 13071939
2022-09-22_14-00-06 13072235
2022-09-22_14-00-06 13072235
2022-09-22_14-00-06 13073092
2022-09-22_14-00-06 13073092
2022-09-22_14-00-06 13072265
2022-09-22_14-00-07 13073206
2022-09-22_14-00-07 13073206
2022-09-22_14-00-07 13070845
2022-09-22_14-00-07 13070845
2022-09-22_14-00-07 13070293
2022-09-22_14-00-07 13070293
2022-09-22_14-00-07 13074670
2022-09-22_14-00-07 13067466
2022-09-22_14-00-07 13067466
2022-09-22_14-00-07 13066380
2022-09-22_14-00-08 13066380
2022-09-22_14-00-08 13068683
2022-09-22_14-00-08 13068741
2022-09-22_14-00-08 13068741
2022-09-22_14-00-08 13067589
2022-09-22_14-00-08 13067589
2022-09-22_14-00-08 13074581
2022-09-22_14-00-08 13074581
2022-09-22_14-00-08 13072610
2022-09-22_14-00-08 13070928
2022-09-22_14-00-09 13070928
2022-09-22_14-00-09 13067572
2022-09-22_14-00-09 13067572
2022-09-22_14-00-09 13069961
2022-09-22_14-00-09 13069961
2022-09-22_14-00-09 13070939
2022-09-22_14-00-09 13066225
2022-09-22_14-00-09 13066225
2022-09-22_14-00-09 13071205
2022-09-22_14-00-09 13071205
2022-09-22_14-00-10 13072471
2022-09-22_14-00-10 13069472
2022-09-22_14-00-10 13069472
2022-09-22_14-00-10 13070884
2022-09-22_14-00-10 13070884
2022-09-22_14-00-10 13073540
2022-09-22_14-00-10 13073540
2022-09-22_14-00-10 13070444
2022-09-22_14-00-10 13076081
2022-09-22_14-00-10 13076081
2022-09-22_14-00-11 13071480
2022-09-22_14-00-11 13071480
2022-09-22_14-00-11 13071574
2022-09-22_14-00-11 13071574
2022-09-22_14-00-11 13073785
2022-09-22_14-00-11 13071868
2022-09-22_14-00-11 13071868
2022-09-22_14-00-11 13071657
2022-09-22_14-00-11 13071657
2022-09-22_14-00-11 13071854
2022-09-22_14-00-12 13071854
2022-09-22_14-00-12 13074233
2022-09-22_14-00-12 13070232
2022-09-22_14-00-12 13070232
2022-09-22_14-00-12 13069967
2022-09-22_14-00-12 13069967
2022-09-22_14-00-12 13070822
2022-09-22_14-00-12 13072301
2022-09-22_14-00-12 13072301
2022-09-22_14-00-12 13074486
2022-09-22_14-00-13 13074486
2022-09-22_14-00-13 13074341
2022-09-22_14-00-13 13074341
2022-09-22_14-00-13 13072498
2022-09-22_14-00-13 13072912
2022-09-22_14-00-13 13072912
2022-09-22_14-00-13 13075050
2022-09-22_14-00-13 13075050
2022-09-22_14-00-13 13071803
2022-09-22_14-00-13 13071803
2022-09-22_14-00-14 13068523
2022-09-22_14-00-14 13068467
2022-09-22_14-00-14 13068467
2022-09-22_14-00-14 13071528
2022-09-22_14-00-14 13071528
2022-09-22_14-00-14 13071310
2022-09-22_14-00-14 13071310
2022-09-22_14-00-14 13072489
2022-09-22_14-00-14 13071719
2022-09-22_14-00-14 13071719
2022-09-22_14-00-15 13070778
2022-09-22_14-00-15 13070778
2022-09-22_14-00-15 13072576
2022-09-22_14-00-15 13068833
2022-09-22_14-00-15 13068833
2022-09-22_14-00-15 13067690
2022-09-22_14-00-15 13067690
2022-09-22_14-00-15 13069865
2022-09-22_14-00-15 13069865
2022-09-22_14-00-16 13071358
2022-09-22_14-00-16 13068968
2022-09-22_14-00-16 13068968
2022-09-22_14-00-16 13067973
2022-09-22_14-00-16 13067973
2022-09-22_14-00-16 13068348
2022-09-22_14-00-16 13068348
2022-09-22_14-00-16 13069395
2022-09-22_14-00-16 13064986
2022-09-22_14-00-16 13064986
2022-09-22_14-00-17 13065481
2022-09-22_14-00-17 13065481
2022-09-22_14-00-17 13069077
2022-09-22_14-00-17 13069077
2022-09-22_14-00-17 13070749
2022-09-22_14-00-17 13067343
2022-09-22_14-00-17 13067343
2022-09-22_14-00-17 13068580
2022-09-22_14-00-17 13068580
2022-09-22_14-00-17 13067692
2022-09-22_14-00-18 13068042
2022-09-22_14-00-18 13068042
2022-09-22_14-00-18 13072063
2022-09-22_14-00-18 13072063
2022-09-22_14-00-18 13070202
2022-09-22_14-00-18 13070202
2022-09-22_14-00-18 13069492
2022-09-22_14-00-18 13070770
2022-09-22_14-00-18 13070770
2022-09-22_14-00-18 13071192
2022-09-22_14-00-19 13071192
2022-09-22_14-00-19 13067747
2022-09-22_14-00-19 13067747
2022-09-22_14-00-19 13066436
2022-09-22_14-00-19 13068154
2022-09-22_14-00-19 13068154
2022-09-22_14-00-19 13073580
2022-09-22_14-00-19 13073580
2022-09-22_14-00-19 13069634
2022-09-22_14-00-19 13069634
2022-09-22_14-00-20 13069709
2022-09-22_14-00-20 13067621
2022-09-22_14-00-20 13067621
2022-09-22_14-00-20 13067672
2022-09-22_14-00-20 13067672
2022-09-22_14-00-20 13072064
2022-09-22_14-00-20 13073535
2022-09-22_14-00-20 13073535
2022-09-22_14-00-20 13073205
2022-09-22_14-00-20 13073205
2022-09-22_14-00-21 13070288
2022-09-22_14-00-21 13070288
2022-09-22_14-00-21 13070997
2022-09-22_14-00-21 13071315
2022-09-22_14-00-21 13071315
2022-09-22_14-00-21 13074269
2022-09-22_14-00-21 13074269
2022-09-22_14-00-21 13072736
2022-09-22_14-00-21 13072736
2022-09-22_14-00-21 13074930
2022-09-22_14-00-22 13074626
2022-09-22_14-00-22 13074626
2022-09-22_14-00-22 13072484
2022-09-22_14-00-22 13072484
2022-09-22_14-00-22 13072193
2022-09-22_14-00-22 13072890
2022-09-22_14-00-22 13072890
2022-09-22_14-00-22 13074886
2022-09-22_14-00-22 13074886
2022-09-22_14-00-22 13067963
2022-09-22_14-00-23 13067963
2022-09-22_14-00-23 13074511
2022-09-22_14-00-23 13074153
2022-09-22_14-00-23 13074153
2022-09-22_14-00-23 13072481
2022-09-22_14-00-23 13072481
2022-09-22_14-00-23 13067958
2022-09-22_14-00-23 13067958
2022-09-22_14-00-23 13070905
2022-09-22_14-00-23 13072209
2022-09-22_14-00-24 13072209
2022-09-22_14-00-24 13071574
2022-09-22_14-00-24 13071574
2022-09-22_14-00-24 13072959
2022-09-22_14-00-24 13072959
2022-09-22_14-00-24 13066821
2022-09-22_14-00-24 13068516
2022-09-22_14-00-24 13068516
2022-09-22_14-00-24 13074324
2022-09-22_14-00-24 13074324
2022-09-22_14-00-25 13070532
2022-09-22_14-00-25 13071481
2022-09-22_14-00-25 13071481
2022-09-22_14-00-25 13074301
2022-09-22_14-00-25 13074301
2022-09-22_14-00-25 13072180
2022-09-22_14-00-25 13072180
2022-09-22_14-00-25 13072255
2022-09-22_14-00-25 13072780
2022-09-22_14-00-25 13072780
2022-09-22_14-00-26 13072387
2022-09-22_14-00-26 13072387
2022-09-22_14-00-26 13067369
2022-09-22_14-00-26 13067369
2022-09-22_14-00-26 13066878
2022-09-22_14-00-26 13069202
2022-09-22_14-00-26 13069202
2022-09-22_14-00-26 13071938
2022-09-22_14-00-26 13071938
2022-09-22_14-00-26 13071559
2022-09-22_14-00-27 13071559
2022-09-22_14-00-27 13070255
2022-09-22_14-00-27 13069903
2022-09-22_14-00-27 13069903
2022-09-22_14-00-27 13073778
2022-09-22_14-00-27 13073778
2022-09-22_14-00-27 13069279
2022-09-22_14-00-27 13070416
2022-09-22_14-00-27 13070416
2022-09-22_14-00-28 13072008
2022-09-22_14-00-28 13072008
2022-09-22_14-00-28 13068697
2022-09-22_14-00-28 13068697
2022-09-22_14-00-28 13072494
2022-09-22_14-00-28 13070509
2022-09-22_14-00-28 13070509
2022-09-22_14-00-28 13069210
2022-09-22_14-00-28 13069210
2022-09-22_14-00-28 13072777
2022-09-22_14-00-29 13072777
2022-09-22_14-00-29 13072573
2022-09-22_14-00-29 13070128
2022-09-22_14-00-29 13070128
2022-09-22_14-00-29 13071116
2022-09-22_14-00-29 13071116
2022-09-22_14-00-29 13070895
2022-09-22_14-00-29 13070895
2022-09-22_14-00-29 13071958
2022-09-22_14-00-29 13069775
2022-09-22_14-00-30 13069775
2022-09-22_14-00-30 13070250
2022-09-22_14-00-30 13070250
2022-09-22_14-00-30 13070122
2022-09-22_14-00-30 13070478
2022-09-22_14-00-30 13070478
2022-09-22_14-00-30 13070587
2022-09-22_14-00-30 13070587
2022-09-22_14-00-30 13069826
2022-09-22_14-00-30 13069826
2022-09-22_14-00-31 13068495
2022-09-22_14-00-31 13066720
2022-09-22_14-00-31 13066720
2022-09-22_14-00-31 13071893
2022-09-22_14-00-31 13071893
2022-09-22_14-00-31 13069812
2022-09-22_14-00-31 13069812
2022-09-22_14-00-31 13068785
2022-09-22_14-00-31 13068610
2022-09-22_14-00-31 13068610
2022-09-22_14-00-32 13068134
2022-09-22_14-00-32 13068134
2022-09-22_14-00-32 13068353
2022-09-22_14-00-32 13072598
2022-09-22_14-00-32 13072598
2022-09-22_14-00-32 13072723
2022-09-22_14-00-32 13072723
2022-09-22_14-00-32 13072699
2022-09-22_14-00-32 13072699
2022-09-22_14-00-32 13072468
2022-09-22_14-00-33 13066807
2022-09-22_14-00-33 13066807
2022-09-22_14-00-33 13070414
2022-09-22_14-00-33 13070414
2022-09-22_14-00-33 13071793
2022-09-22_14-00-33 13071793
2022-09-22_14-00-33 13071579
2022-09-22_14-00-33 13075154
2022-09-22_14-00-33 13075154
2022-09-22_14-00-33 13072574
2022-09-22_14-00-34 13072574
2022-09-22_14-00-34 13073097
2022-09-22_14-00-34 13073097
2022-09-22_14-00-34 13073646
2022-09-22_14-00-34 13073132
2022-09-22_14-00-34 13073132
2022-09-22_14-00-34 13070947
2022-09-22_14-00-34 13070947
2022-09-22_14-00-34 13072384
2022-09-22_14-00-34 13074296
2022-09-22_14-00-35 13074296
2022-09-22_14-00-35 13074492
2022-09-22_14-00-35 13074492
2022-09-22_14-00-35 13071148
2022-09-22_14-00-35 13071148
2022-09-22_14-00-35 13068737
2022-09-22_14-00-35 13068436
2022-09-22_14-00-35 13068436
2022-09-22_14-00-35 13074181
2022-09-22_14-00-35 13074181
2022-09-22_14-00-36 13075019
2022-09-22_14-00-36 13075019
2022-09-22_14-00-36 13074419
2022-09-22_14-00-36 13074212
2022-09-22_14-00-36 13074212
2022-09-22_14-00-36 13072371
2022-09-22_14-00-36 13072371
2022-09-22_14-00-36 13075766
2022-09-22_14-00-36 13075766
2022-09-22_14-00-36 13071457
2022-09-22_14-00-37 13073767
2022-09-22_14-00-37 13073767
2022-09-22_14-00-37 13074184
2022-09-22_14-00-37 13074184
2022-09-22_14-00-37 13074106
2022-09-22_14-00-37 13074106
2022-09-22_14-00-37 13071999
2022-09-22_14-00-37 13074655
2022-09-22_14-00-37 13074655
2022-09-22_14-00-37 13072424
2022-09-22_14-00-38 13072424
2022-09-22_14-00-38 13073003
2022-09-22_14-00-38 13071521
2022-09-22_14-00-38 13071521
2022-09-22_14-00-38 13070315
2022-09-22_14-00-38 13070315
2022-09-22_14-00-38 13070581
2022-09-22_14-00-38 13070581
2022-09-22_14-00-38 13068114
2022-09-22_14-00-38 13067879
2022-09-22_14-00-39 13067879
2022-09-22_14-00-39 13069806
2022-09-22_14-00-39 13069806
2022-09-22_14-00-39 13068635
2022-09-22_14-00-39 13068635
2022-09-22_14-00-39 13074133
2022-09-22_14-00-39 13072616
2022-09-22_14-00-39 13072616
2022-09-22_14-00-39 13072258
2022-09-22_14-00-39 13072258
2022-09-22_14-00-40 13069907
2022-09-22_14-00-40 13069907
2022-09-22_14-00-40 13068788
2022-09-22_14-00-40 13074243
2022-09-22_14-00-40 13074243
2022-09-22_14-00-40 13072405
2022-09-22_14-00-40 13072405
2022-09-22_14-00-40 13072462
2022-09-22_14-00-40 13072462
2022-09-22_14-00-41 13072166
2022-09-22_14-00-41 13073219
2022-09-22_14-00-41 13073219
2022-09-22_14-00-41 13073201
2022-09-22_14-00-41 13073201
2022-09-22_14-00-41 13072107
2022-09-22_14-00-41 13072107
2022-09-22_14-00-41 13072948
2022-09-22_14-00-41 13072256
2022-09-22_14-00-41 13072256
2022-09-22_14-00-42 13070706
2022-09-22_14-00-42 13070706
2022-09-22_14-00-42 13073143
2022-09-22_14-00-42 13073143
2022-09-22_14-00-42 13070267
2022-09-22_14-00-42 13069606
2022-09-22_14-00-42 13069606
2022-09-22_14-00-42 13071610
2022-09-22_14-00-42 13071610
2022-09-22_14-00-42 13073374
2022-09-22_14-00-43 13074209
2022-09-22_14-00-43 13074209
2022-09-22_14-00-43 13071551
2022-09-22_14-00-43 13071551
2022-09-22_14-00-43 13071274
2022-09-22_14-00-43 13071274
2022-09-22_14-00-43 13068438
2022-09-22_14-00-43 13070231
2022-09-22_14-00-43 13070231
2022-09-22_14-00-43 13070038
2022-09-22_14-00-44 13070038
2022-09-22_14-00-44 13072443
2022-09-22_14-00-44 13072443
2022-09-22_14-00-44 13068773
2022-09-22_14-00-44 13074322
2022-09-22_14-00-44 13074322
2022-09-22_14-00-44 13074351
2022-09-22_14-00-44 13074351
2022-09-22_14-00-44 13072905
2022-09-22_14-00-44 13072905
2022-09-22_14-00-45 13075326
2022-09-22_14-00-45 13073602
2022-09-22_14-00-45 13073602
2022-09-22_14-00-45 13073806
2022-09-22_14-00-45 13073806
2022-09-22_14-00-45 13073704
2022-09-22_14-00-45 13073704
2022-09-22_14-00-45 13073188
2022-09-22_14-00-45 13068343
2022-09-22_14-00-45 13068343
2022-09-22_14-00-46 13067743
2022-09-22_14-00-46 13067743
2022-09-22_14-00-46 13075277
2022-09-22_14-00-46 13075277
2022-09-22_14-00-46 13073786
2022-09-22_14-00-46 13072193
2022-09-22_14-00-46 13072193
2022-09-22_14-00-46 13072210
2022-09-22_14-00-46 13072210
2022-09-22_14-00-46 13069807
2022-09-22_14-00-47 13069807
2022-09-22_14-00-47 13069751
2022-09-22_14-00-47 13073216
2022-09-22_14-00-47 13073216
2022-09-22_14-00-47 13075306
2022-09-22_14-00-47 13075306
2022-09-22_14-00-47 13071749
2022-09-22_14-00-47 13071749
2022-09-22_14-00-47 13075121
2022-09-22_14-00-47 13074387
2022-09-22_14-00-48 13074387
2022-09-22_14-00-48 13076570
2022-09-22_14-00-48 13076570
2022-09-22_14-00-48 13073082
2022-09-22_14-00-48 13073082
2022-09-22_14-00-48 13073606
2022-09-22_14-00-48 13074298
2022-09-22_14-00-48 13074298
2022-09-22_14-00-48 13072758
2022-09-22_14-00-48 13072758
2022-09-22_14-00-49 13070809
2022-09-22_14-00-49 13075073
2022-09-22_14-00-49 13075073
2022-09-22_14-00-49 13071050
2022-09-22_14-00-49 13071050
2022-09-22_14-00-49 13074128
2022-09-22_14-00-49 13074128
2022-09-22_14-00-49 13070916
2022-09-22_14-00-49 13071871
2022-09-22_14-00-49 13071871
2022-09-22_14-00-50 13072698
2022-09-22_14-00-50 13072698
2022-09-22_14-00-50 13072094
2022-09-22_14-00-50 13072094
2022-09-22_14-00-50 13068417
2022-09-22_14-00-50 13070760
2022-09-22_14-00-50 13070760
2022-09-22_14-00-50 13067133
2022-09-22_14-00-50 13067133
2022-09-22_14-00-50 13071555
2022-09-22_14-00-51 13071555
2022-09-22_14-00-51 13072118
2022-09-22_14-00-51 13074135
2022-09-22_14-00-51 13074135
2022-09-22_14-00-51 13071290
2022-09-22_14-00-51 13071290
2022-09-22_14-00-51 13070405
2022-09-22_14-00-51 13070405
2022-09-22_14-00-51 13072388
2022-09-22_14-00-51 13072118
2022-09-22_14-00-52 13072118
2022-09-22_14-00-52 13070300
2022-09-22_14-00-52 13070300
2022-09-22_14-00-52 13069017
2022-09-22_14-00-52 13069017
2022-09-22_14-00-52 13072791
2022-09-22_14-00-52 13072498
2022-09-22_14-00-52 13072498
2022-09-22_14-00-52 13074228
2022-09-22_14-00-52 13074228
2022-09-22_14-00-53 13072350
2022-09-22_14-00-53 13072350
2022-09-22_14-00-53 13073237
2022-09-22_14-00-53 13072698
2022-09-22_14-00-53 13072698
2022-09-22_14-00-53 13069220
2022-09-22_14-00-53 13069220
2022-09-22_14-00-53 13071089
2022-09-22_14-00-53 13071089
2022-09-22_14-00-53 13069426
2022-09-22_14-00-54 13067300
2022-09-22_14-00-54 13067300
2022-09-22_14-00-54 13071564
2022-09-22_14-00-54 13071564
2022-09-22_14-00-54 13070872
2022-09-22_14-00-54 13070872
2022-09-22_14-00-54 13071335
2022-09-22_14-00-54 13071840
2022-09-22_14-00-54 13071840
2022-09-22_14-00-54 13068545
2022-09-22_14-00-55 13068545
2022-09-22_14-00-55 13070026
2022-09-22_14-00-55 13073184
2022-09-22_14-00-55 13073184
2022-09-22_14-00-55 13072428
2022-09-22_14-00-55 13072428
2022-09-22_14-00-55 13073682
2022-09-22_14-00-55 13073682
2022-09-22_14-00-55 13076361
2022-09-22_14-00-55 13075076
2022-09-22_14-00-56 13075076
2022-09-22_14-00-56 13074973
2022-09-22_14-00-56 13074973
2022-09-22_14-00-56 13074555
2022-09-22_14-00-56 13074555
2022-09-22_14-00-56 13072120
2022-09-22_14-00-56 13072794
2022-09-22_14-00-56 13072794
2022-09-22_14-00-56 13070704
2022-09-22_14-00-56 13070704
2022-09-22_14-00-57 13071792
2022-09-22_14-00-57 13071792
2022-09-22_14-00-57 13070347
2022-09-22_14-00-57 13072313
2022-09-22_14-00-57 13072313
2022-09-22_14-00-57 13076573
2022-09-22_14-00-57 13076573
2022-09-22_14-00-57 13071546
2022-09-22_14-00-57 13071546
2022-09-22_14-00-57 13074359
2022-09-22_14-00-58 13073060
2022-09-22_14-00-58 13073060
2022-09-22_14-00-58 13070571
2022-09-22_14-00-58 13070571
2022-09-22_14-00-58 13071921
2022-09-22_14-00-58 13071921
2022-09-22_14-00-58 13069774
2022-09-22_14-00-58 13073079
2022-09-22_14-00-58 13073079
2022-09-22_14-00-58 13071632
2022-09-22_14-00-59 13071632
2022-09-22_14-00-59 13071361
2022-09-22_14-00-59 13071361
2022-09-22_14-00-59 13069302
2022-09-22_14-00-59 13069928
2022-09-22_14-00-59 13069928
2022-09-22_14-00-59 13070266
2022-09-22_14-00-59 13070266
2022-09-22_14-00-59 13072052
2022-09-22_14-00-59 13072052
2022-09-22_14-01-00 13067861
2022-09-22_14-01-00 13068155
2022-09-22_14-01-00 13068155
2022-09-22_14-01-00 13068967
2022-09-22_14-01-00 13068967
2022-09-22_14-01-00 13073540
2022-09-22_14-01-00 13073540
2022-09-22_14-01-00 13075087
2022-09-22_14-01-00 13073683
2022-09-22_14-01-00 13073683
2022-09-22_14-01-01 13073534
2022-09-22_14-01-01 13073534
2022-09-22_14-01-01 13076204
2022-09-22_14-01-01 13076204
2022-09-22_14-01-01 13073274
2022-09-22_14-01-01 13068863
2022-09-22_14-01-01 13068863
2022-09-22_14-01-01 13069549
2022-09-22_14-01-01 13069549
2022-09-22_14-01-01 13072473
2022-09-22_14-01-02 13070677
2022-09-22_14-01-02 13070677
2022-09-22_14-01-02 13067958
2022-09-22_14-01-02 13067958
2022-09-22_14-01-02 13069366
2022-09-22_14-01-02 13069366
2022-09-22_14-01-02 13071939
2022-09-22_14-01-02 13073413
2022-09-22_14-01-02 13073413
2022-09-22_14-01-02 13070884
2022-09-22_14-01-03 13070884
2022-09-22_14-01-03 13072733
2022-09-22_14-01-03 13072733
2022-09-22_14-01-03 13072064
2022-09-22_14-01-03 13070364
2022-09-22_14-01-03 13070364
2022-09-22_14-01-03 13071430
2022-09-22_14-01-03 13071430
2022-09-22_14-01-03 13072318
2022-09-22_14-01-03 13072318
2022-09-22_14-01-04 13072675
2022-09-22_14-01-04 13073477
2022-09-22_14-01-04 13073477
2022-09-22_14-01-04 13071494
2022-09-22_14-01-04 13071494
2022-09-22_14-01-04 13072574
2022-09-22_14-01-04 13072574
2022-09-22_14-01-04 13072050
2022-09-22_14-01-04 13073500
2022-09-22_14-01-04 13073500
2022-09-22_14-01-05 13071956
2022-09-22_14-01-05 13071956
2022-09-22_14-01-05 13070720
2022-09-22_14-01-05 13070720
2022-09-22_14-01-05 13073522
2022-09-22_14-01-05 13069850
2022-09-22_14-01-05 13069850
2022-09-22_14-01-05 13074797
2022-09-22_14-01-05 13071979
2022-09-22_14-01-06 13071979
2022-09-22_14-01-06 13071842
2022-09-22_14-01-06 13071842
2022-09-22_14-01-06 13072030
2022-09-22_14-01-06 13072373
2022-09-22_14-01-06 13072373
2022-09-22_14-01-06 13070919
2022-09-22_14-01-06 13070919
2022-09-22_14-01-06 13070382
2022-09-22_14-01-06 13070382
2022-09-22_14-01-07 13072915
2022-09-22_14-01-07 13067998
2022-09-22_14-01-07 13067998
2022-09-22_14-01-07 13067987
2022-09-22_14-01-07 13067987
2022-09-22_14-01-07 13067277
2022-09-22_14-01-07 13067277
2022-09-22_14-01-07 13066613
2022-09-22_14-01-07 13071418
2022-09-22_14-01-07 13071418
2022-09-22_14-01-08 13069951
2022-09-22_14-01-08 13069951
2022-09-22_14-01-08 13070663
2022-09-22_14-01-08 13068392
2022-09-22_14-01-08 13068392
2022-09-22_14-01-08 13065309
2022-09-22_14-01-08 13065309
2022-09-22_14-01-08 13068452
2022-09-22_14-01-08 13068452
2022-09-22_14-01-08 13069066
2022-09-22_14-01-09 13069669
2022-09-22_14-01-09 13069669
2022-09-22_14-01-09 13071104
2022-09-22_14-01-09 13071104
2022-09-22_14-01-09 13069014
2022-09-22_14-01-09 13069014
2022-09-22_14-01-09 13070532
2022-09-22_14-01-09 13071828
2022-09-22_14-01-09 13071828
2022-09-22_14-01-09 13069666
2022-09-22_14-01-10 13069666
2022-09-22_14-01-10 13071520
2022-09-22_14-01-10 13071235
2022-09-22_14-01-10 13071235
2022-09-22_14-01-10 13068831
2022-09-22_14-01-10 13068831
2022-09-22_14-01-10 13068662
2022-09-22_14-01-10 13068662
2022-09-22_14-01-10 13071283
2022-09-22_14-01-10 13066679
2022-09-22_14-01-11 13066679
2022-09-22_14-01-11 13067922
2022-09-22_14-01-11 13067922
2022-09-22_14-01-11 13070833
2022-09-22_14-01-11 13070833
2022-09-22_14-01-11 13072284
2022-09-22_14-01-11 13069721
2022-09-22_14-01-11 13069721
2022-09-22_14-01-11 13070164
2022-09-22_14-01-11 13070164
2022-09-22_14-01-12 13071551
2022-09-22_14-01-12 13071551
2022-09-22_14-01-12 13071176
2022-09-22_14-01-12 13069930
2022-09-22_14-01-12 13069930
2022-09-22_14-01-12 13072896
2022-09-22_14-01-12 13072896
2022-09-22_14-01-12 13071990
2022-09-22_14-01-12 13068625
2022-09-22_14-01-12 13068625
2022-09-22_14-01-13 13068575
2022-09-22_14-01-13 13068575
2022-09-22_14-01-13 13067704
2022-09-22_14-01-13 13067704
2022-09-22_14-01-13 13069402
2022-09-22_14-01-13 13071956
2022-09-22_14-01-13 13071956
2022-09-22_14-01-13 13068547
2022-09-22_14-01-13 13068547
2022-09-22_14-01-14 13067138
2022-09-22_14-01-14 13067138
2022-09-22_14-01-14 13069699
2022-09-22_14-01-14 13072490
2022-09-22_14-01-14 13072490
2022-09-22_14-01-14 13069794
2022-09-22_14-01-14 13069794
2022-09-22_14-01-14 13071656
2022-09-22_14-01-14 13071656
2022-09-22_14-01-14 13071393
2022-09-22_14-01-15 13073666
2022-09-22_14-01-15 13073666
2022-09-22_14-01-15 13071399
2022-09-22_14-01-15 13071399
2022-09-22_14-01-15 13071399
2022-09-22_14-01-15 13069977
2022-09-22_14-01-15 13069977
2022-09-22_14-01-15 13072649
2022-09-22_14-01-15 13072649
2022-09-22_14-01-15 13074149
2022-09-22_14-01-16 13074149
2022-09-22_14-01-16 13073329
2022-09-22_14-01-16 13072704
2022-09-22_14-01-16 13072704
2022-09-22_14-01-16 13072912
2022-09-22_14-01-16 13072912
2022-09-22_14-01-16 13073796
2022-09-22_14-01-16 13073796
2022-09-22_14-01-16 13072978
2022-09-22_14-01-16 13071446
2022-09-22_14-01-17 13071446
2022-09-22_14-01-17 13068652
2022-09-22_14-01-17 13068652
2022-09-22_14-01-17 13073258
2022-09-22_14-01-17 13069661
2022-09-22_14-01-17 13069661
2022-09-22_14-01-17 13068393
2022-09-22_14-01-17 13068393
2022-09-22_14-01-17 13069770
2022-09-22_14-01-17 13069770
2022-09-22_14-01-18 13068167
2022-09-22_14-01-18 13068829
2022-09-22_14-01-18 13068829
2022-09-22_14-01-18 13067624
2022-09-22_14-01-18 13067624
2022-09-22_14-01-18 13065012
2022-09-22_14-01-18 13065012
2022-09-22_14-01-18 13068087
2022-09-22_14-01-18 13066361
2022-09-22_14-01-18 13066361
2022-09-22_14-01-19 13068714
2022-09-22_14-01-19 13068714
2022-09-22_14-01-19 13069704
2022-09-22_14-01-19 13069704
2022-09-22_14-01-19 13069956
2022-09-22_14-01-19 13069711
2022-09-22_14-01-19 13069711
2022-09-22_14-01-19 13069638
2022-09-22_14-01-19 13069638
2022-09-22_14-01-19 13074056
2022-09-22_14-01-20 13073053
2022-09-22_14-01-20 13073053
2022-09-22_14-01-20 13076608
2022-09-22_14-01-20 13076608
2022-09-22_14-01-20 13072534
2022-09-22_14-01-20 13072534
2022-09-22_14-01-20 13069005
2022-09-22_14-01-20 13072377
2022-09-22_14-01-20 13072377
2022-09-22_14-01-20 13071276
2022-09-22_14-01-21 13071276
2022-09-22_14-01-21 13071278
2022-09-22_14-01-21 13071278
2022-09-22_14-01-21 13071782
2022-09-22_14-01-21 13067885
2022-09-22_14-01-21 13067885
2022-09-22_14-01-21 13074047
2022-09-22_14-01-21 13074047
2022-09-22_14-01-21 13069572
2022-09-22_14-01-21 13069572
2022-09-22_14-01-22 13069754
2022-09-22_14-01-22 13071592
2022-09-22_14-01-22 13071592
2022-09-22_14-01-22 13071306
2022-09-22_14-01-22 13071306
2022-09-22_14-01-22 13073637
2022-09-22_14-01-22 13071765
2022-09-22_14-01-22 13071765
2022-09-22_14-01-22 13072554
2022-09-22_14-01-22 13072554
2022-09-22_14-01-23 13072970
2022-09-22_14-01-23 13072970
2022-09-22_14-01-23 13070719
2022-09-22_14-01-23 13073391
2022-09-22_14-01-23 13073391
2022-09-22_14-01-23 13072506
2022-09-22_14-01-23 13072506
2022-09-22_14-01-23 13072751
2022-09-22_14-01-23 13072751
2022-09-22_14-01-23 13071139
2022-09-22_14-01-24 13071805
2022-09-22_14-01-24 13071805
2022-09-22_14-01-24 13069085
2022-09-22_14-01-24 13069085
2022-09-22_14-01-24 13070560
2022-09-22_14-01-24 13068121
2022-09-22_14-01-24 13068121
2022-09-22_14-01-24 13068538
2022-09-22_14-01-24 13068538
2022-09-22_14-01-25 13070589
2022-09-22_14-01-25 13070589
2022-09-22_14-01-25 13069780
2022-09-22_14-01-25 13065804
2022-09-22_14-01-25 13065804
2022-09-22_14-01-25 13068767
2022-09-22_14-01-25 13068767
2022-09-22_14-01-25 13069028
2022-09-22_14-01-25 13069028
2022-09-22_14-01-25 13066616
2022-09-22_14-01-26 13069457
2022-09-22_14-01-26 13069457
2022-09-22_14-01-26 13071167
2022-09-22_14-01-26 13071167
2022-09-22_14-01-26 13073689
2022-09-22_14-01-26 13073689
2022-09-22_14-01-26 13073440
2022-09-22_14-01-26 13075017
2022-09-22_14-01-26 13075017
2022-09-22_14-01-26 13074667
2022-09-22_14-01-27 13074667
2022-09-22_14-01-27 13075593
2022-09-22_14-01-27 13074232
2022-09-22_14-01-27 13074232
2022-09-22_14-01-27 13073337
2022-09-22_14-01-27 13073337
2022-09-22_14-01-27 13075934
2022-09-22_14-01-27 13075934
2022-09-22_14-01-27 13075686
2022-09-22_14-01-27 13073785
2022-09-22_14-01-28 13073785
2022-09-22_14-01-28 13074888
2022-09-22_14-01-28 13074888
2022-09-22_14-01-28 13073228
2022-09-22_14-01-28 13073228
2022-09-22_14-01-28 13075352
2022-09-22_14-01-28 13077527
2022-09-22_14-01-28 13077527
2022-09-22_14-01-28 13076465
2022-09-22_14-01-28 13076465
2022-09-22_14-01-29 13071817
2022-09-22_14-01-29 13071817
2022-09-22_14-01-29 13069929
2022-09-22_14-01-29 13073302
2022-09-22_14-01-29 13073302
2022-09-22_14-01-29 13073366
2022-09-22_14-01-29 13073366
2022-09-22_14-01-29 13072856
2022-09-22_14-01-29 13073556
2022-09-22_14-01-29 13073556
2022-09-22_14-01-30 13070892
2022-09-22_14-01-30 13070892
2022-09-22_14-01-30 13071562
2022-09-22_14-01-30 13071562
2022-09-22_14-01-30 13072777
2022-09-22_14-01-30 13072330
2022-09-22_14-01-30 13072330
2022-09-22_14-01-30 13073718
2022-09-22_14-01-30 13073718
2022-09-22_14-01-30 13074687
2022-09-22_14-01-31 13074687
2022-09-22_14-01-31 13073648
2022-09-22_14-01-31 13076022
2022-09-22_14-01-31 13076022
2022-09-22_14-01-31 13075462
2022-09-22_14-01-31 13075462
2022-09-22_14-01-31 13074645
2022-09-22_14-01-31 13074645
2022-09-22_14-01-31 13075691
2022-09-22_14-01-31 13074230
2022-09-22_14-01-32 13074230
2022-09-22_14-01-32 13074671
2022-09-22_14-01-32 13074671
2022-09-22_14-01-32 13076420
2022-09-22_14-01-32 13074078
2022-09-22_14-01-32 13074078
2022-09-22_14-01-32 13075495
2022-09-22_14-01-32 13075495
2022-09-22_14-01-32 13077309
2022-09-22_14-01-32 13077309
2022-09-22_14-01-33 13079652
2022-09-22_14-01-33 13077938
2022-09-22_14-01-33 13077938
2022-09-22_14-01-33 13073634
2022-09-22_14-01-33 13073634
2022-09-22_14-01-33 13074815
2022-09-22_14-01-33 13074815
2022-09-22_14-01-33 13071783
2022-09-22_14-01-33 13076665
2022-09-22_14-01-33 13076665
2022-09-22_14-01-34 13076513
2022-09-22_14-01-34 13076513
2022-09-22_14-01-34 13077843
2022-09-22_14-01-34 13076981
2022-09-22_14-01-34 13076981
2022-09-22_14-01-34 13074651
2022-09-22_14-01-34 13074651
2022-09-22_14-01-34 13073462
2022-09-22_14-01-34 13073462
2022-09-22_14-01-34 13070286
2022-09-22_14-01-35 13072684
2022-09-22_14-01-35 13072684
2022-09-22_14-01-35 13070851
2022-09-22_14-01-35 13070851
2022-09-22_14-01-35 13072597
2022-09-22_14-01-35 13072597
2022-09-22_14-01-35 13074566
