2022-09-22_14-06-27 13074537
2022-09-22_14-06-27 13074040
2022-09-22_14-06-27 13075521
2022-09-22_14-06-27 13075521
2022-09-22_14-06-27 13073093
2022-09-22_14-06-27 13073093
2022-09-22_14-06-27 13075890
2022-09-22_14-06-27 13075890
2022-09-22_14-06-27 13073213
2022-09-22_14-06-28 13074719
2022-09-22_14-06-28 13074719
2022-09-22_14-06-28 13076463
2022-09-22_14-06-28 13076463
2022-09-22_14-06-28 13076427
2022-09-22_14-06-28 13076427
2022-09-22_14-06-28 13072343
2022-09-22_14-06-28 13069137
2022-09-22_14-06-28 13069137
2022-09-22_14-06-28 13076117
2022-09-22_14-06-29 13076117
2022-09-22_14-06-29 13073536
2022-09-22_14-06-29 13073522
2022-09-22_14-06-29 13073522
2022-09-22_14-06-29 13073622
2022-09-22_14-06-29 13073622
2022-09-22_14-06-29 13074639
2022-09-22_14-06-29 13074639
2022-09-22_14-06-29 13076275
2022-09-22_14-06-30 13070841
2022-09-22_14-06-30 13070841
2022-09-22_14-06-30 13073174
2022-09-22_14-06-30 13073174
2022-09-22_14-06-30 13067063
2022-09-22_14-06-30 13067063
2022-09-22_14-06-30 13072332
2022-09-22_14-06-30 13069980
2022-09-22_14-06-30 13069980
2022-09-22_14-06-30 13073663
2022-09-22_14-06-31 13073663
2022-09-22_14-06-31 13070468
2022-09-22_14-06-31 13070468
2022-09-22_14-06-31 13068419
2022-09-22_14-06-31 13073849
2022-09-22_14-06-31 13073849
2022-09-22_14-06-31 13073041
2022-09-22_14-06-31 13073041
2022-09-22_14-06-31 13074739
2022-09-22_14-06-31 13074739
2022-09-22_14-06-32 13074634
2022-09-22_14-06-32 13073937
2022-09-22_14-06-32 13073937
2022-09-22_14-06-32 13074125
2022-09-22_14-06-32 13074125
2022-09-22_14-06-32 13073435
2022-09-22_14-06-32 13075155
2022-09-22_14-06-32 13075155
2022-09-22_14-06-32 13073847
2022-09-22_14-06-32 13073847
2022-09-22_14-06-33 13076009
2022-09-22_14-06-33 13076009
2022-09-22_14-06-33 13072089
2022-09-22_14-06-33 13074296
2022-09-22_14-06-33 13074296
2022-09-22_14-06-33 13072848
2022-09-22_14-06-33 13072848
2022-09-22_14-06-33 13071157
2022-09-22_14-06-33 13071157
2022-09-22_14-06-33 13074695
2022-09-22_14-06-34 13073771
2022-09-22_14-06-34 13073771
2022-09-22_14-06-34 13075891
2022-09-22_14-06-34 13075891
2022-09-22_14-06-34 13077601
2022-09-22_14-06-34 13076739
2022-09-22_14-06-34 13076739
2022-09-22_14-06-34 13075364
2022-09-22_14-06-34 13075364
2022-09-22_14-06-34 13076681
2022-09-22_14-06-35 13076681
2022-09-22_14-06-35 13075582
2022-09-22_14-06-35 13073080
2022-09-22_14-06-35 13073080
2022-09-22_14-06-35 13073313
2022-09-22_14-06-35 13073313
2022-09-22_14-06-35 13068001
2022-09-22_14-06-35 13068001
2022-09-22_14-06-35 13071743
2022-09-22_14-06-35 13074188
2022-09-22_14-06-36 13074188
2022-09-22_14-06-36 13073807
2022-09-22_14-06-36 13073807
2022-09-22_14-06-36 13072899
2022-09-22_14-06-36 13072899
2022-09-22_14-06-36 13073875
2022-09-22_14-06-36 13074432
2022-09-22_14-06-36 13074432
2022-09-22_14-06-36 13076390
2022-09-22_14-06-36 13076390
2022-09-22_14-06-37 13076280
2022-09-22_14-06-37 13076231
2022-09-22_14-06-37 13076231
2022-09-22_14-06-37 13074466
2022-09-22_14-06-37 13074466
2022-09-22_14-06-37 13070760
2022-09-22_14-06-37 13070760
2022-09-22_14-06-37 13075105
2022-09-22_14-06-37 13070226
2022-09-22_14-06-37 13070226
2022-09-22_14-06-38 13073814
2022-09-22_14-06-38 13073814
2022-09-22_14-06-38 13077697
2022-09-22_14-06-38 13077697
2022-09-22_14-06-38 13075840
2022-09-22_14-06-38 13075415
2022-09-22_14-06-38 13075415
2022-09-22_14-06-38 13074485
2022-09-22_14-06-38 13074485
2022-09-22_14-06-38 13072642
2022-09-22_14-06-39 13072642
2022-09-22_14-06-39 13073181
2022-09-22_14-06-39 13074134
2022-09-22_14-06-39 13074134
2022-09-22_14-06-39 13072888
2022-09-22_14-06-39 13072888
2022-09-22_14-06-39 13073109
2022-09-22_14-06-39 13071807
2022-09-22_14-06-39 13071807
2022-09-22_14-06-39 13073882
2022-09-22_14-06-40 13073882
2022-09-22_14-06-40 13076402
2022-09-22_14-06-40 13076402
2022-09-22_14-06-40 13073850
2022-09-22_14-06-40 13075706
2022-09-22_14-06-40 13075706
2022-09-22_14-06-40 13074139
2022-09-22_14-06-40 13074139
2022-09-22_14-06-40 13073472
2022-09-22_14-06-40 13073472
2022-09-22_14-06-41 13073262
2022-09-22_14-06-41 13072755
2022-09-22_14-06-41 13072755
2022-09-22_14-06-41 13073003
2022-09-22_14-06-41 13073003
2022-09-22_14-06-41 13076000
2022-09-22_14-06-41 13076000
2022-09-22_14-06-41 13076361
2022-09-22_14-06-41 13074287
2022-09-22_14-06-42 13074287
2022-09-22_14-06-42 13075877
2022-09-22_14-06-42 13075877
2022-09-22_14-06-42 13077788
2022-09-22_14-06-42 13075909
2022-09-22_14-06-42 13075909
2022-09-22_14-06-42 13074988
2022-09-22_14-06-42 13074988
2022-09-22_14-06-42 13074664
2022-09-22_14-06-42 13074664
2022-09-22_14-06-43 13071862
2022-09-22_14-06-43 13073438
2022-09-22_14-06-43 13073438
2022-09-22_14-06-43 13075956
2022-09-22_14-06-43 13075956
2022-09-22_14-06-43 13073404
2022-09-22_14-06-43 13073404
2022-09-22_14-06-43 13077363
2022-09-22_14-06-43 13074095
2022-09-22_14-06-43 13074095
2022-09-22_14-06-44 13072949
2022-09-22_14-06-44 13072949
2022-09-22_14-06-44 13075491
2022-09-22_14-06-44 13075491
2022-09-22_14-06-44 13076087
2022-09-22_14-06-44 13074350
2022-09-22_14-06-44 13074350
2022-09-22_14-06-44 13073264
2022-09-22_14-06-44 13073264
2022-09-22_14-06-44 13072284
2022-09-22_14-06-45 13076460
2022-09-22_14-06-45 13076460
2022-09-22_14-06-45 13075546
2022-09-22_14-06-45 13075546
2022-09-22_14-06-45 13074830
2022-09-22_14-06-45 13074830
2022-09-22_14-06-45 13076356
2022-09-22_14-06-45 13076152
2022-09-22_14-06-45 13076152
2022-09-22_14-06-45 13075517
2022-09-22_14-06-46 13075517
2022-09-22_14-06-46 13071971
2022-09-22_14-06-46 13071971
2022-09-22_14-06-46 13072533
2022-09-22_14-06-46 13072974
2022-09-22_14-06-46 13072974
2022-09-22_14-06-46 13073874
2022-09-22_14-06-46 13073874
2022-09-22_14-06-46 13072269
2022-09-22_14-06-46 13074699
2022-09-22_14-06-47 13074699
2022-09-22_14-06-47 13071052
2022-09-22_14-06-47 13071052
2022-09-22_14-06-47 13073896
2022-09-22_14-06-47 13073896
2022-09-22_14-06-47 13074652
2022-09-22_14-06-47 13072616
2022-09-22_14-06-47 13072616
2022-09-22_14-06-47 13075819
2022-09-22_14-06-47 13075819
2022-09-22_14-06-48 13075248
2022-09-22_14-06-48 13075248
2022-09-22_14-06-48 13077231
2022-09-22_14-06-48 13075675
2022-09-22_14-06-48 13075675
2022-09-22_14-06-48 13074617
2022-09-22_14-06-48 13074617
2022-09-22_14-06-48 13074801
2022-09-22_14-06-48 13074801
2022-09-22_14-06-48 13076155
2022-09-22_14-06-49 13073504
2022-09-22_14-06-49 13073504
2022-09-22_14-06-49 13075403
2022-09-22_14-06-49 13075403
2022-09-22_14-06-49 13076045
2022-09-22_14-06-49 13071803
2022-09-22_14-06-49 13071803
2022-09-22_14-06-49 13073874
2022-09-22_14-06-49 13073874
2022-09-22_14-06-49 13072870
2022-09-22_14-06-50 13072870
2022-09-22_14-06-50 13072293
2022-09-22_14-06-50 13069933
2022-09-22_14-06-50 13069933
2022-09-22_14-06-50 13074529
2022-09-22_14-06-50 13074529
2022-09-22_14-06-50 13074075
2022-09-22_14-06-50 13074075
2022-09-22_14-06-50 13074230
2022-09-22_14-06-50 13074199
2022-09-22_14-06-51 13074199
2022-09-22_14-06-51 13073160
2022-09-22_14-06-51 13073160
2022-09-22_14-06-51 13074777
2022-09-22_14-06-51 13074777
2022-09-22_14-06-51 13071921
2022-09-22_14-06-51 13071606
2022-09-22_14-06-51 13071606
2022-09-22_14-06-51 13071044
2022-09-22_14-06-51 13071044
2022-09-22_14-06-52 13071229
2022-09-22_14-06-52 13073369
2022-09-22_14-06-52 13073369
2022-09-22_14-06-52 13074934
2022-09-22_14-06-52 13074934
2022-09-22_14-06-52 13072286
2022-09-22_14-06-52 13072286
2022-09-22_14-06-52 13072727
2022-09-22_14-06-52 13070614
2022-09-22_14-06-52 13070614
2022-09-22_14-06-53 13071549
2022-09-22_14-06-53 13071549
2022-09-22_14-06-53 13070898
2022-09-22_14-06-53 13070898
2022-09-22_14-06-53 13071004
2022-09-22_14-06-53 13075521
2022-09-22_14-06-53 13075521
2022-09-22_14-06-53 13074151
2022-09-22_14-06-53 13074151
2022-09-22_14-06-54 13074380
2022-09-22_14-06-54 13074380
2022-09-22_14-06-54 13072672
2022-09-22_14-06-54 13071626
2022-09-22_14-06-54 13071626
2022-09-22_14-06-54 13069959
2022-09-22_14-06-54 13069959
2022-09-22_14-06-54 13071262
2022-09-22_14-06-54 13071631
2022-09-22_14-06-54 13071631
2022-09-22_14-06-55 13072728
2022-09-22_14-06-55 13072728
2022-09-22_14-06-55 13075292
2022-09-22_14-06-55 13075292
2022-09-22_14-06-55 13073211
2022-09-22_14-06-55 13075305
2022-09-22_14-06-55 13075305
2022-09-22_14-06-55 13075063
2022-09-22_14-06-55 13075063
2022-09-22_14-06-55 13072105
2022-09-22_14-06-56 13072105
2022-09-22_14-06-56 13073733
2022-09-22_14-06-56 13072415
2022-09-22_14-06-56 13072415
2022-09-22_14-06-56 13075169
2022-09-22_14-06-56 13075169
2022-09-22_14-06-56 13074342
2022-09-22_14-06-56 13074342
2022-09-22_14-06-56 13076020
2022-09-22_14-06-56 13078053
2022-09-22_14-06-57 13078053
2022-09-22_14-06-57 13076513
2022-09-22_14-06-57 13076513
2022-09-22_14-06-57 13076507
2022-09-22_14-06-57 13077104
2022-09-22_14-06-57 13077104
2022-09-22_14-06-57 13077152
2022-09-22_14-06-57 13077152
2022-09-22_14-06-57 13076712
2022-09-22_14-06-57 13076712
2022-09-22_14-06-58 13074958
2022-09-22_14-06-58 13075728
2022-09-22_14-06-58 13075728
2022-09-22_14-06-58 13075940
2022-09-22_14-06-58 13075940
2022-09-22_14-06-58 13075301
2022-09-22_14-06-58 13075301
2022-09-22_14-06-58 13069462
2022-09-22_14-06-58 13075230
2022-09-22_14-06-58 13075230
2022-09-22_14-06-59 13079000
2022-09-22_14-06-59 13079000
2022-09-22_14-06-59 13079972
2022-09-22_14-06-59 13079972
2022-09-22_14-06-59 13074876
2022-09-22_14-06-59 13076785
2022-09-22_14-06-59 13076785
2022-09-22_14-06-59 13073563
2022-09-22_14-06-59 13073563
2022-09-22_14-06-59 13074927
2022-09-22_14-07-00 13074927
2022-09-22_14-07-00 13073325
2022-09-22_14-07-00 13074526
2022-09-22_14-07-00 13074526
2022-09-22_14-07-00 13076129
2022-09-22_14-07-00 13076129
2022-09-22_14-07-00 13074045
2022-09-22_14-07-00 13074045
2022-09-22_14-07-00 13073868
2022-09-22_14-07-00 13073000
2022-09-22_14-07-01 13073000
2022-09-22_14-07-01 13075322
2022-09-22_14-07-01 13075322
2022-09-22_14-07-01 13074647
2022-09-22_14-07-01 13074903
2022-09-22_14-07-01 13074903
2022-09-22_14-07-01 13067859
2022-09-22_14-07-01 13067859
2022-09-22_14-07-01 13071183
2022-09-22_14-07-01 13071183
2022-09-22_14-07-02 13071905
2022-09-22_14-07-02 13071662
2022-09-22_14-07-02 13071662
2022-09-22_14-07-02 13073334
2022-09-22_14-07-02 13073334
2022-09-22_14-07-02 13073094
2022-09-22_14-07-02 13073094
2022-09-22_14-07-02 13071819
2022-09-22_14-07-02 13070690
2022-09-22_14-07-02 13070690
2022-09-22_14-07-03 13075033
2022-09-22_14-07-03 13075033
2022-09-22_14-07-03 13074385
2022-09-22_14-07-03 13074385
2022-09-22_14-07-03 13068325
2022-09-22_14-07-03 13070555
2022-09-22_14-07-03 13070555
2022-09-22_14-07-03 13070980
2022-09-22_14-07-03 13070980
2022-09-22_14-07-03 13073346
2022-09-22_14-07-04 13073346
2022-09-22_14-07-04 13074074
2022-09-22_14-07-04 13072856
2022-09-22_14-07-04 13072856
2022-09-22_14-07-04 13076265
2022-09-22_14-07-04 13076265
2022-09-22_14-07-04 13070350
2022-09-22_14-07-04 13070350
2022-09-22_14-07-04 13070443
2022-09-22_14-07-04 13073465
2022-09-22_14-07-05 13073465
2022-09-22_14-07-05 13070834
2022-09-22_14-07-05 13070834
2022-09-22_14-07-05 13074148
2022-09-22_14-07-05 13074148
2022-09-22_14-07-05 13068827
2022-09-22_14-07-05 13072402
2022-09-22_14-07-05 13072402
2022-09-22_14-07-05 13072488
2022-09-22_14-07-05 13072488
2022-09-22_14-07-06 13072523
2022-09-22_14-07-06 13072523
2022-09-22_14-07-06 13071956
2022-09-22_14-07-06 13072204
2022-09-22_14-07-06 13072204
2022-09-22_14-07-06 13076408
2022-09-22_14-07-06 13076408
2022-09-22_14-07-06 13076380
2022-09-22_14-07-06 13076380
2022-09-22_14-07-06 13074333
2022-09-22_14-07-07 13075371
2022-09-22_14-07-07 13075371
2022-09-22_14-07-07 13073493
2022-09-22_14-07-07 13073493
2022-09-22_14-07-07 13074879
2022-09-22_14-07-07 13073021
2022-09-22_14-07-07 13073021
2022-09-22_14-07-07 13073695
2022-09-22_14-07-07 13073695
2022-09-22_14-07-07 13075917
2022-09-22_14-07-08 13075917
2022-09-22_14-07-08 13074983
2022-09-22_14-07-08 13074922
2022-09-22_14-07-08 13074922
2022-09-22_14-07-08 13073492
2022-09-22_14-07-08 13073492
2022-09-22_14-07-08 13070271
2022-09-22_14-07-08 13070271
2022-09-22_14-07-08 13070772
2022-09-22_14-07-08 13072737
2022-09-22_14-07-09 13072737
2022-09-22_14-07-09 13072884
2022-09-22_14-07-09 13072884
2022-09-22_14-07-09 13074236
2022-09-22_14-07-09 13074236
2022-09-22_14-07-09 13073566
2022-09-22_14-07-09 13072961
2022-09-22_14-07-09 13072961
2022-09-22_14-07-09 13073221
2022-09-22_14-07-09 13073221
2022-09-22_14-07-10 13074137
2022-09-22_14-07-10 13074137
2022-09-22_14-07-10 13073833
2022-09-22_14-07-10 13072214
2022-09-22_14-07-10 13072214
2022-09-22_14-07-10 13069624
2022-09-22_14-07-10 13069624
2022-09-22_14-07-10 13071051
2022-09-22_14-07-10 13071051
2022-09-22_14-07-10 13072922
2022-09-22_14-07-11 13071678
2022-09-22_14-07-11 13071678
2022-09-22_14-07-11 13073694
2022-09-22_14-07-11 13073694
2022-09-22_14-07-11 13074139
2022-09-22_14-07-11 13074139
2022-09-22_14-07-11 13076878
2022-09-22_14-07-11 13073488
2022-09-22_14-07-11 13073488
2022-09-22_14-07-11 13074234
2022-09-22_14-07-12 13074234
2022-09-22_14-07-12 13072244
2022-09-22_14-07-12 13072244
2022-09-22_14-07-12 13076044
2022-09-22_14-07-12 13075322
2022-09-22_14-07-12 13075322
2022-09-22_14-07-12 13075298
2022-09-22_14-07-12 13075298
2022-09-22_14-07-12 13073048
2022-09-22_14-07-12 13072767
2022-09-22_14-07-13 13072767
2022-09-22_14-07-13 13074667
2022-09-22_14-07-13 13074667
2022-09-22_14-07-13 13071113
2022-09-22_14-07-13 13071113
2022-09-22_14-07-13 13070225
2022-09-22_14-07-13 13070531
2022-09-22_14-07-13 13070531
2022-09-22_14-07-13 13069425
2022-09-22_14-07-13 13069425
2022-09-22_14-07-14 13069332
2022-09-22_14-07-14 13069332
2022-09-22_14-07-14 13069621
2022-09-22_14-07-14 13071879
2022-09-22_14-07-14 13071879
2022-09-22_14-07-14 13075439
2022-09-22_14-07-14 13075439
2022-09-22_14-07-14 13077320
2022-09-22_14-07-14 13077320
2022-09-22_14-07-14 13076228
2022-09-22_14-07-15 13072634
2022-09-22_14-07-15 13072634
2022-09-22_14-07-15 13071237
2022-09-22_14-07-15 13071237
2022-09-22_14-07-15 13069248
2022-09-22_14-07-15 13069248
2022-09-22_14-07-15 13066836
2022-09-22_14-07-15 13071957
2022-09-22_14-07-15 13071957
2022-09-22_14-07-15 13071024
2022-09-22_14-07-16 13071024
2022-09-22_14-07-16 13070213
2022-09-22_14-07-16 13070213
2022-09-22_14-07-16 13073252
2022-09-22_14-07-16 13073178
2022-09-22_14-07-16 13073178
2022-09-22_14-07-16 13073502
2022-09-22_14-07-16 13073502
2022-09-22_14-07-16 13074092
2022-09-22_14-07-17 13074092
2022-09-22_14-07-17 13071474
2022-09-22_14-07-17 13071944
2022-09-22_14-07-17 13071944
2022-09-22_14-07-17 13071563
2022-09-22_14-07-17 13071563
2022-09-22_14-07-17 13070374
2022-09-22_14-07-17 13070374
2022-09-22_14-07-17 13072882
2022-09-22_14-07-17 13072048
2022-09-22_14-07-18 13072048
2022-09-22_14-07-18 13071844
2022-09-22_14-07-18 13071844
2022-09-22_14-07-18 13070353
2022-09-22_14-07-18 13068818
2022-09-22_14-07-18 13068818
2022-09-22_14-07-18 13073065
2022-09-22_14-07-18 13073065
2022-09-22_14-07-18 13074162
2022-09-22_14-07-18 13074162
2022-09-22_14-07-19 13071276
2022-09-22_14-07-19 13070107
2022-09-22_14-07-19 13070107
2022-09-22_14-07-19 13068487
2022-09-22_14-07-19 13068487
2022-09-22_14-07-19 13069615
2022-09-22_14-07-19 13069615
2022-09-22_14-07-19 13069537
2022-09-22_14-07-19 13071405
2022-09-22_14-07-19 13071405
2022-09-22_14-07-20 13069404
2022-09-22_14-07-20 13069404
2022-09-22_14-07-20 13073885
2022-09-22_14-07-20 13073885
2022-09-22_14-07-20 13073054
2022-09-22_14-07-20 13071288
2022-09-22_14-07-20 13071288
2022-09-22_14-07-20 13075363
2022-09-22_14-07-20 13075363
2022-09-22_14-07-20 13074908
2022-09-22_14-07-21 13074908
2022-09-22_14-07-21 13072950
2022-09-22_14-07-21 13070937
2022-09-22_14-07-21 13070937
2022-09-22_14-07-21 13073538
2022-09-22_14-07-21 13073538
2022-09-22_14-07-21 13072761
2022-09-22_14-07-21 13072761
2022-09-22_14-07-21 13071822
2022-09-22_14-07-21 13072221
2022-09-22_14-07-22 13072221
2022-09-22_14-07-22 13076499
2022-09-22_14-07-22 13076499
2022-09-22_14-07-22 13075409
2022-09-22_14-07-22 13076500
2022-09-22_14-07-22 13076500
2022-09-22_14-07-22 13075043
2022-09-22_14-07-22 13075043
2022-09-22_14-07-22 13076794
2022-09-22_14-07-22 13076794
2022-09-22_14-07-23 13076964
2022-09-22_14-07-23 13077541
2022-09-22_14-07-23 13077541
2022-09-22_14-07-23 13069972
2022-09-22_14-07-23 13069972
2022-09-22_14-07-23 13070539
2022-09-22_14-07-23 13070539
2022-09-22_14-07-23 13072310
2022-09-22_14-07-23 13071063
2022-09-22_14-07-23 13071063
2022-09-22_14-07-24 13076139
2022-09-22_14-07-24 13076139
2022-09-22_14-07-24 13075876
2022-09-22_14-07-24 13075876
2022-09-22_14-07-24 13073975
2022-09-22_14-07-24 13075252
2022-09-22_14-07-24 13075252
2022-09-22_14-07-24 13075186
2022-09-22_14-07-24 13075186
2022-09-22_14-07-24 13071413
2022-09-22_14-07-25 13071413
2022-09-22_14-07-25 13069667
2022-09-22_14-07-25 13074486
2022-09-22_14-07-25 13074486
2022-09-22_14-07-25 13075583
2022-09-22_14-07-25 13075583
2022-09-22_14-07-25 13073476
2022-09-22_14-07-25 13073476
2022-09-22_14-07-25 13072933
2022-09-22_14-07-25 13070274
2022-09-22_14-07-26 13070274
2022-09-22_14-07-26 13071004
2022-09-22_14-07-26 13071004
2022-09-22_14-07-26 13073916
2022-09-22_14-07-26 13075417
2022-09-22_14-07-26 13075417
2022-09-22_14-07-26 13073875
2022-09-22_14-07-26 13073875
2022-09-22_14-07-26 13073095
2022-09-22_14-07-26 13073095
2022-09-22_14-07-27 13072577
2022-09-22_14-07-27 13070677
2022-09-22_14-07-27 13070677
2022-09-22_14-07-27 13073772
2022-09-22_14-07-27 13075219
2022-09-22_14-07-27 13074455
2022-09-22_14-07-27 13074455
2022-09-22_14-07-27 13071187
2022-09-22_14-07-27 13071187
2022-09-22_14-07-28 13071000
2022-09-22_14-07-28 13073786
2022-09-22_14-07-28 13073786
2022-09-22_14-07-28 13072160
2022-09-22_14-07-28 13072160
2022-09-22_14-07-28 13071022
2022-09-22_14-07-28 13071022
2022-09-22_14-07-28 13073013
2022-09-22_14-07-28 13074367
2022-09-22_14-07-28 13074367
2022-09-22_14-07-29 13073545
2022-09-22_14-07-29 13073545
2022-09-22_14-07-29 13071295
2022-09-22_14-07-29 13071295
2022-09-22_14-07-29 13074001
2022-09-22_14-07-29 13072318
2022-09-22_14-07-29 13072318
2022-09-22_14-07-29 13071329
2022-09-22_14-07-29 13071329
2022-09-22_14-07-29 13069810
2022-09-22_14-07-30 13069810
2022-09-22_14-07-30 13075089
2022-09-22_14-07-30 13073302
2022-09-22_14-07-30 13073302
2022-09-22_14-07-30 13069788
2022-09-22_14-07-30 13069788
2022-09-22_14-07-30 13068493
2022-09-22_14-07-30 13068493
2022-09-22_14-07-30 13070659
2022-09-22_14-07-31 13074026
2022-09-22_14-07-31 13074026
2022-09-22_14-07-31 13073128
2022-09-22_14-07-31 13073128
2022-09-22_14-07-31 13073875
2022-09-22_14-07-31 13073875
2022-09-22_14-07-31 13073130
2022-09-22_14-07-31 13072444
2022-09-22_14-07-31 13072444
2022-09-22_14-07-31 13074583
2022-09-22_14-07-32 13074583
2022-09-22_14-07-32 13076241
2022-09-22_14-07-32 13076241
2022-09-22_14-07-32 13073887
2022-09-22_14-07-32 13073622
2022-09-22_14-07-32 13073622
2022-09-22_14-07-32 13075410
2022-09-22_14-07-32 13075410
2022-09-22_14-07-32 13071212
2022-09-22_14-07-32 13071178
2022-09-22_14-07-33 13071178
2022-09-22_14-07-33 13074921
2022-09-22_14-07-33 13074921
2022-09-22_14-07-33 13075606
2022-09-22_14-07-33 13075606
2022-09-22_14-07-33 13074929
2022-09-22_14-07-33 13075750
2022-09-22_14-07-33 13075750
2022-09-22_14-07-33 13077192
2022-09-22_14-07-33 13077192
2022-09-22_14-07-34 13074562
2022-09-22_14-07-34 13074562
2022-09-22_14-07-34 13074185
2022-09-22_14-07-34 13071889
2022-09-22_14-07-34 13071889
2022-09-22_14-07-34 13073544
2022-09-22_14-07-34 13073544
2022-09-22_14-07-34 13070823
2022-09-22_14-07-34 13070823
2022-09-22_14-07-34 13070922
2022-09-22_14-07-35 13074795
2022-09-22_14-07-35 13074795
2022-09-22_14-07-35 13072550
2022-09-22_14-07-35 13072550
2022-09-22_14-07-35 13070959
2022-09-22_14-07-35 13070959
2022-09-22_14-07-35 13070160
2022-09-22_14-07-35 13069790
2022-09-22_14-07-35 13069790
2022-09-22_14-07-35 13071417
2022-09-22_14-07-36 13071417
2022-09-22_14-07-36 13073774
2022-09-22_14-07-36 13073774
2022-09-22_14-07-36 13068996
2022-09-22_14-07-36 13069943
2022-09-22_14-07-36 13069943
2022-09-22_14-07-36 13071053
2022-09-22_14-07-36 13071053
2022-09-22_14-07-36 13072098
2022-09-22_14-07-36 13069856
2022-09-22_14-07-37 13069856
2022-09-22_14-07-37 13071060
2022-09-22_14-07-37 13071060
2022-09-22_14-07-37 13070719
2022-09-22_14-07-37 13070719
2022-09-22_14-07-37 13074574
2022-09-22_14-07-37 13074915
2022-09-22_14-07-37 13074915
2022-09-22_14-07-37 13075248
2022-09-22_14-07-37 13075248
2022-09-22_14-07-38 13073288
2022-09-22_14-07-38 13073288
2022-09-22_14-07-38 13071915
2022-09-22_14-07-38 13073373
2022-09-22_14-07-38 13073373
2022-09-22_14-07-38 13072348
2022-09-22_14-07-38 13072348
2022-09-22_14-07-38 13070564
2022-09-22_14-07-38 13070564
2022-09-22_14-07-38 13071420
2022-09-22_14-07-39 13070788
2022-09-22_14-07-39 13070788
2022-09-22_14-07-39 13072518
2022-09-22_14-07-39 13072518
2022-09-22_14-07-39 13071899
2022-09-22_14-07-39 13066882
2022-09-22_14-07-39 13066882
2022-09-22_14-07-39 13068510
2022-09-22_14-07-39 13068510
2022-09-22_14-07-39 13070571
2022-09-22_14-07-40 13070571
2022-09-22_14-07-40 13070183
2022-09-22_14-07-40 13071840
2022-09-22_14-07-40 13071840
2022-09-22_14-07-40 13071478
2022-09-22_14-07-40 13071478
2022-09-22_14-07-40 13068831
2022-09-22_14-07-40 13068831
2022-09-22_14-07-40 13070642
2022-09-22_14-07-40 13068244
2022-09-22_14-07-41 13068244
2022-09-22_14-07-41 13072680
2022-09-22_14-07-41 13072680
2022-09-22_14-07-41 13071312
2022-09-22_14-07-41 13071312
2022-09-22_14-07-41 13069140
2022-09-22_14-07-41 13069308
2022-09-22_14-07-41 13069308
2022-09-22_14-07-41 13070112
2022-09-22_14-07-41 13070112
2022-09-22_14-07-42 13065373
2022-09-22_14-07-42 13067391
2022-09-22_14-07-42 13067391
2022-09-22_14-07-42 13066093
2022-09-22_14-07-42 13066093
2022-09-22_14-07-42 13068767
2022-09-22_14-07-42 13068767
2022-09-22_14-07-42 13070557
2022-09-22_14-07-42 13070477
2022-09-22_14-07-42 13070477
2022-09-22_14-07-43 13067991
2022-09-22_14-07-43 13067991
2022-09-22_14-07-43 13071497
2022-09-22_14-07-43 13071497
2022-09-22_14-07-43 13074268
2022-09-22_14-07-43 13075230
2022-09-22_14-07-43 13075230
2022-09-22_14-07-43 13070830
2022-09-22_14-07-43 13070830
2022-09-22_14-07-43 13070224
2022-09-22_14-07-44 13070224
2022-09-22_14-07-44 13068869
2022-09-22_14-07-44 13072114
2022-09-22_14-07-44 13072114
2022-09-22_14-07-44 13072885
2022-09-22_14-07-44 13072885
2022-09-22_14-07-44 13073029
2022-09-22_14-07-44 13072994
2022-09-22_14-07-44 13072994
2022-09-22_14-07-44 13071431
2022-09-22_14-07-45 13071431
2022-09-22_14-07-45 13073370
2022-09-22_14-07-45 13073370
2022-09-22_14-07-45 13066966
2022-09-22_14-07-45 13071097
2022-09-22_14-07-45 13071097
2022-09-22_14-07-45 13073983
2022-09-22_14-07-45 13073983
2022-09-22_14-07-45 13073429
2022-09-22_14-07-46 13073429
2022-09-22_14-07-46 13069413
2022-09-22_14-07-46 13070366
2022-09-22_14-07-46 13070366
2022-09-22_14-07-46 13069601
2022-09-22_14-07-46 13069601
2022-09-22_14-07-46 13071429
2022-09-22_14-07-46 13071429
2022-09-22_14-07-46 13071080
2022-09-22_14-07-46 13069890
2022-09-22_14-07-47 13069890
2022-09-22_14-07-47 13068457
2022-09-22_14-07-47 13068457
2022-09-22_14-07-47 13068954
2022-09-22_14-07-47 13070227
2022-09-22_14-07-47 13070227
2022-09-22_14-07-47 13073956
2022-09-22_14-07-47 13073956
2022-09-22_14-07-47 13070071
2022-09-22_14-07-47 13070071
2022-09-22_14-07-48 13073699
2022-09-22_14-07-48 13074841
2022-09-22_14-07-48 13074841
2022-09-22_14-07-48 13074674
2022-09-22_14-07-48 13074674
2022-09-22_14-07-48 13076438
2022-09-22_14-07-48 13076438
2022-09-22_14-07-48 13074502
2022-09-22_14-07-48 13076710
2022-09-22_14-07-48 13076710
2022-09-22_14-07-49 13072913
2022-09-22_14-07-49 13072913
2022-09-22_14-07-49 13073026
2022-09-22_14-07-49 13073026
2022-09-22_14-07-49 13069130
2022-09-22_14-07-49 13070549
2022-09-22_14-07-49 13070549
2022-09-22_14-07-49 13071442
2022-09-22_14-07-49 13071442
2022-09-22_14-07-49 13073457
2022-09-22_14-07-50 13073653
2022-09-22_14-07-50 13073653
2022-09-22_14-07-50 13073545
2022-09-22_14-07-50 13073545
2022-09-22_14-07-50 13074823
2022-09-22_14-07-50 13074823
2022-09-22_14-07-50 13070994
2022-09-22_14-07-50 13073353
2022-09-22_14-07-50 13073353
2022-09-22_14-07-50 13072216
2022-09-22_14-07-51 13072216
2022-09-22_14-07-51 13070385
2022-09-22_14-07-51 13070385
2022-09-22_14-07-51 13070836
2022-09-22_14-07-51 13072808
2022-09-22_14-07-51 13072808
2022-09-22_14-07-51 13070797
2022-09-22_14-07-51 13070797
2022-09-22_14-07-51 13072688
2022-09-22_14-07-51 13072688
2022-09-22_14-07-52 13074231
2022-09-22_14-07-52 13074008
2022-09-22_14-07-52 13074008
2022-09-22_14-07-52 13071908
2022-09-22_14-07-52 13071908
2022-09-22_14-07-52 13071216
2022-09-22_14-07-52 13074829
2022-09-22_14-07-52 13074829
2022-09-22_14-07-52 13074866
2022-09-22_14-07-52 13074866
2022-09-22_14-07-53 13071876
2022-09-22_14-07-53 13071876
2022-09-22_14-07-53 13070449
2022-09-22_14-07-53 13069358
2022-09-22_14-07-53 13069358
2022-09-22_14-07-53 13067454
2022-09-22_14-07-53 13067454
2022-09-22_14-07-53 13067285
2022-09-22_14-07-53 13067285
2022-09-22_14-07-53 13070082
2022-09-22_14-07-54 13071738
2022-09-22_14-07-54 13071738
2022-09-22_14-07-54 13075917
2022-09-22_14-07-54 13075917
2022-09-22_14-07-54 13073601
2022-09-22_14-07-54 13073601
2022-09-22_14-07-54 13070452
2022-09-22_14-07-54 13070054
2022-09-22_14-07-54 13070054
2022-09-22_14-07-54 13073043
2022-09-22_14-07-55 13073043
2022-09-22_14-07-55 13073548
2022-09-22_14-07-55 13071389
2022-09-22_14-07-55 13071389
2022-09-22_14-07-55 13070993
2022-09-22_14-07-55 13070993
2022-09-22_14-07-55 13073553
2022-09-22_14-07-55 13073553
2022-09-22_14-07-55 13069943
2022-09-22_14-07-55 13071317
2022-09-22_14-07-56 13071317
2022-09-22_14-07-56 13075617
2022-09-22_14-07-56 13075617
2022-09-22_14-07-56 13074352
2022-09-22_14-07-56 13074352
2022-09-22_14-07-56 13069343
2022-09-22_14-07-56 13069260
2022-09-22_14-07-56 13069260
2022-09-22_14-07-56 13073573
2022-09-22_14-07-56 13073573
2022-09-22_14-07-57 13071901
2022-09-22_14-07-57 13071901
2022-09-22_14-07-57 13071180
2022-09-22_14-07-57 13073454
2022-09-22_14-07-57 13073454
2022-09-22_14-07-57 13071471
2022-09-22_14-07-57 13071471
2022-09-22_14-07-57 13070981
2022-09-22_14-07-57 13069423
2022-09-22_14-07-58 13069423
2022-09-22_14-07-58 13072353
2022-09-22_14-07-58 13072353
2022-09-22_14-07-58 13069680
2022-09-22_14-07-58 13069680
2022-09-22_14-07-58 13069103
2022-09-22_14-07-58 13068312
2022-09-22_14-07-58 13068312
2022-09-22_14-07-58 13070977
2022-09-22_14-07-58 13070977
2022-09-22_14-07-59 13066377
2022-09-22_14-07-59 13066377
2022-09-22_14-07-59 13069034
2022-09-22_14-07-59 13069492
2022-09-22_14-07-59 13069492
2022-09-22_14-07-59 13070261
2022-09-22_14-07-59 13070261
2022-09-22_14-07-59 13068951
2022-09-22_14-07-59 13068951
2022-09-22_14-07-59 13068379
2022-09-22_14-08-00 13066592
2022-09-22_14-08-00 13066592
2022-09-22_14-08-00 13069889
2022-09-22_14-08-00 13069889
2022-09-22_14-08-00 13066710
2022-09-22_14-08-00 13066873
2022-09-22_14-08-00 13066873
2022-09-22_14-08-00 13068654
2022-09-22_14-08-00 13068654
2022-09-22_14-08-00 13064885
2022-09-22_14-08-01 13064885
2022-09-22_14-08-01 13072822
2022-09-22_14-08-01 13073207
2022-09-22_14-08-01 13073207
2022-09-22_14-08-01 13070667
2022-09-22_14-08-01 13070667
2022-09-22_14-08-01 13072173
2022-09-22_14-08-01 13072173
2022-09-22_14-08-01 13071785
2022-09-22_14-08-01 13072986
2022-09-22_14-08-02 13072986
2022-09-22_14-08-02 13071644
2022-09-22_14-08-02 13071644
2022-09-22_14-08-02 13065559
2022-09-22_14-08-02 13065559
2022-09-22_14-08-02 13069958
2022-09-22_14-08-02 13070884
2022-09-22_14-08-02 13070884
2022-09-22_14-08-02 13072666
2022-09-22_14-08-02 13072666
2022-09-22_14-08-03 13071781
2022-09-22_14-08-03 13071668
2022-09-22_14-08-03 13071668
2022-09-22_14-08-03 13072356
2022-09-22_14-08-03 13072356
2022-09-22_14-08-03 13073395
2022-09-22_14-08-03 13073395
2022-09-22_14-08-03 13073358
2022-09-22_14-08-03 13072710
2022-09-22_14-08-03 13072710
2022-09-22_14-08-04 13069097
2022-09-22_14-08-04 13069097
2022-09-22_14-08-04 13069509
2022-09-22_14-08-04 13069509
2022-09-22_14-08-04 13067623
2022-09-22_14-08-04 13071036
2022-09-22_14-08-04 13071036
2022-09-22_14-08-04 13074285
2022-09-22_14-08-04 13074285
2022-09-22_14-08-04 13072843
2022-09-22_14-08-05 13072843
2022-09-22_14-08-05 13071944
2022-09-22_14-08-05 13072327
2022-09-22_14-08-05 13072327
2022-09-22_14-08-05 13073354
2022-09-22_14-08-05 13073354
2022-09-22_14-08-05 13073445
2022-09-22_14-08-05 13072183
2022-09-22_14-08-05 13072183
2022-09-22_14-08-05 13069983
2022-09-22_14-08-06 13069983
2022-09-22_14-08-06 13069585
2022-09-22_14-08-06 13069585
2022-09-22_14-08-06 13071095
2022-09-22_14-08-06 13069847
2022-09-22_14-08-06 13069847
2022-09-22_14-08-06 13071319
2022-09-22_14-08-06 13071319
2022-09-22_14-08-06 13069527
2022-09-22_14-08-06 13069527
2022-09-22_14-08-07 13072482
2022-09-22_14-08-07 13070927
2022-09-22_14-08-07 13070927
2022-09-22_14-08-07 13066724
2022-09-22_14-08-07 13066724
2022-09-22_14-08-07 13071779
2022-09-22_14-08-07 13071779
2022-09-22_14-08-07 13071013
2022-09-22_14-08-07 13069807
2022-09-22_14-08-07 13069807
2022-09-22_14-08-08 13068021
2022-09-22_14-08-08 13068021
2022-09-22_14-08-08 13070215
2022-09-22_14-08-08 13068942
2022-09-22_14-08-08 13068942
2022-09-22_14-08-08 13068527
2022-09-22_14-08-08 13068527
2022-09-22_14-08-08 13071183
2022-09-22_14-08-08 13071183
2022-09-22_14-08-08 13075077
2022-09-22_14-08-09 13070188
2022-09-22_14-08-09 13070188
2022-09-22_14-08-09 13069146
2022-09-22_14-08-09 13069146
2022-09-22_14-08-09 13069248
2022-09-22_14-08-09 13069248
2022-09-22_14-08-09 13071890
2022-09-22_14-08-09 13073125
2022-09-22_14-08-09 13073125
2022-09-22_14-08-10 13075333
2022-09-22_14-08-10 13075333
2022-09-22_14-08-10 13071845
2022-09-22_14-08-10 13071845
2022-09-22_14-08-10 13076103
2022-09-22_14-08-10 13075054
2022-09-22_14-08-10 13075054
2022-09-22_14-08-10 13072605
2022-09-22_14-08-10 13072605
2022-09-22_14-08-10 13071712
2022-09-22_14-08-11 13072410
2022-09-22_14-08-11 13072410
2022-09-22_14-08-11 13067877
2022-09-22_14-08-11 13067877
2022-09-22_14-08-11 13074112
2022-09-22_14-08-11 13074112
2022-09-22_14-08-11 13074911
2022-09-22_14-08-11 13071125
2022-09-22_14-08-11 13071125
2022-09-22_14-08-11 13068969
2022-09-22_14-08-12 13068969
2022-09-22_14-08-12 13068147
2022-09-22_14-08-12 13068147
2022-09-22_14-08-12 13072801
2022-09-22_14-08-12 13071858
2022-09-22_14-08-12 13071858
2022-09-22_14-08-12 13068632
2022-09-22_14-08-12 13068632
2022-09-22_14-08-12 13070134
2022-09-22_14-08-12 13070134
2022-09-22_14-08-13 13071225
2022-09-22_14-08-13 13071430
2022-09-22_14-08-13 13071430
2022-09-22_14-08-13 13069722
2022-09-22_14-08-13 13069722
2022-09-22_14-08-13 13069030
2022-09-22_14-08-13 13070497
2022-09-22_14-08-13 13070497
2022-09-22_14-08-13 13075233
2022-09-22_14-08-13 13075233
2022-09-22_14-08-14 13068545
2022-09-22_14-08-14 13068545
2022-09-22_14-08-14 13071519
2022-09-22_14-08-14 13070091
2022-09-22_14-08-14 13070091
2022-09-22_14-08-14 13071061
2022-09-22_14-08-14 13071061
2022-09-22_14-08-14 13071107
2022-09-22_14-08-14 13071107
2022-09-22_14-08-14 13074541
2022-09-22_14-08-15 13072969
2022-09-22_14-08-15 13072969
2022-09-22_14-08-15 13069614
2022-09-22_14-08-15 13069614
2022-09-22_14-08-15 13070522
2022-09-22_14-08-15 13070522
2022-09-22_14-08-15 13071123
2022-09-22_14-08-15 13067794
2022-09-22_14-08-15 13067794
2022-09-22_14-08-15 13066935
2022-09-22_14-08-16 13066935
2022-09-22_14-08-16 13067192
2022-09-22_14-08-16 13067693
2022-09-22_14-08-16 13067693
2022-09-22_14-08-16 13074911
2022-09-22_14-08-16 13074911
2022-09-22_14-08-16 13070453
2022-09-22_14-08-16 13070453
2022-09-22_14-08-16 13072601
2022-09-22_14-08-16 13068571
2022-09-22_14-08-17 13068571
2022-09-22_14-08-17 13066643
2022-09-22_14-08-17 13066643
2022-09-22_14-08-17 13069508
2022-09-22_14-08-17 13069508
2022-09-22_14-08-17 13068588
2022-09-22_14-08-17 13070520
2022-09-22_14-08-17 13070520
2022-09-22_14-08-17 13072135
2022-09-22_14-08-17 13072135
2022-09-22_14-08-18 13071602
2022-09-22_14-08-18 13071569
2022-09-22_14-08-18 13071569
2022-09-22_14-08-18 13070947
2022-09-22_14-08-18 13070947
2022-09-22_14-08-18 13071747
2022-09-22_14-08-18 13071747
2022-09-22_14-08-18 13071804
2022-09-22_14-08-18 13071012
2022-09-22_14-08-18 13071012
2022-09-22_14-08-19 13069416
2022-09-22_14-08-19 13069416
2022-09-22_14-08-19 13069975
2022-09-22_14-08-19 13069975
2022-09-22_14-08-19 13074049
2022-09-22_14-08-19 13073215
2022-09-22_14-08-19 13073215
2022-09-22_14-08-19 13075449
2022-09-22_14-08-19 13075449
2022-09-22_14-08-19 13071187
2022-09-22_14-08-20 13071187
2022-09-22_14-08-20 13072851
2022-09-22_14-08-20 13074478
2022-09-22_14-08-20 13074478
2022-09-22_14-08-20 13073633
2022-09-22_14-08-20 13073633
2022-09-22_14-08-20 13073644
2022-09-22_14-08-20 13074475
2022-09-22_14-08-20 13074475
2022-09-22_14-08-21 13072977
2022-09-22_14-08-21 13072977
2022-09-22_14-08-21 13077146
2022-09-22_14-08-21 13077146
2022-09-22_14-08-21 13071678
2022-09-22_14-08-21 13075236
2022-09-22_14-08-21 13075236
2022-09-22_14-08-21 13073225
2022-09-22_14-08-21 13073225
2022-09-22_14-08-21 13075395
2022-09-22_14-08-22 13075395
2022-09-22_14-08-22 13078206
2022-09-22_14-08-22 13078181
2022-09-22_14-08-22 13078181
2022-09-22_14-08-22 13078169
2022-09-22_14-08-22 13078169
2022-09-22_14-08-22 13077587
2022-09-22_14-08-22 13077587
2022-09-22_14-08-22 13071932
2022-09-22_14-08-22 13074496
2022-09-22_14-08-23 13074496
2022-09-22_14-08-23 13073415
2022-09-22_14-08-23 13073415
2022-09-22_14-08-23 13069490
2022-09-22_14-08-23 13073738
2022-09-22_14-08-23 13073738
2022-09-22_14-08-23 13074264
2022-09-22_14-08-23 13074264
2022-09-22_14-08-23 13072979
2022-09-22_14-08-23 13072979
2022-09-22_14-08-24 13073030
2022-09-22_14-08-24 13075523
2022-09-22_14-08-24 13075523
2022-09-22_14-08-24 13071984
2022-09-22_14-08-24 13071984
2022-09-22_14-08-24 13071130
2022-09-22_14-08-24 13071130
2022-09-22_14-08-24 13072052
2022-09-22_14-08-24 13070945
2022-09-22_14-08-24 13070945
2022-09-22_14-08-25 13069689
2022-09-22_14-08-25 13069689
2022-09-22_14-08-25 13070336
2022-09-22_14-08-25 13073087
2022-09-22_14-08-25 13073087
2022-09-22_14-08-25 13074557
2022-09-22_14-08-25 13074557
2022-09-22_14-08-25 13073217
2022-09-22_14-08-25 13073217
2022-09-22_14-08-25 13075137
2022-09-22_14-08-26 13073624
2022-09-22_14-08-26 13073624
2022-09-22_14-08-26 13071766
2022-09-22_14-08-26 13071766
2022-09-22_14-08-26 13070634
2022-09-22_14-08-26 13070634
2022-09-22_14-08-26 13071800
2022-09-22_14-08-26 13069651
2022-09-22_14-08-26 13069651
2022-09-22_14-08-26 13071279
2022-09-22_14-08-27 13071279
2022-09-22_14-08-27 13071336
2022-09-22_14-08-27 13071336
2022-09-22_14-08-27 13072324
2022-09-22_14-08-27 13071152
2022-09-22_14-08-27 13071152
2022-09-22_14-08-27 13073638
2022-09-22_14-08-27 13073638
2022-09-22_14-08-27 13071284
2022-09-22_14-08-27 13068004
2022-09-22_14-08-28 13068004
2022-09-22_14-08-28 13066733
2022-09-22_14-08-28 13066733
2022-09-22_14-08-28 13069580
2022-09-22_14-08-28 13069580
2022-09-22_14-08-28 13069950
2022-09-22_14-08-28 13068182
2022-09-22_14-08-28 13068182
2022-09-22_14-08-28 13068558
2022-09-22_14-08-28 13068558
2022-09-22_14-08-29 13071832
2022-09-22_14-08-29 13071832
2022-09-22_14-08-29 13073398
2022-09-22_14-08-29 13069918
2022-09-22_14-08-29 13069918
2022-09-22_14-08-29 13073651
2022-09-22_14-08-29 13073651
2022-09-22_14-08-29 13073638
2022-09-22_14-08-29 13073638
2022-09-22_14-08-29 13070035
2022-09-22_14-08-30 13074025
2022-09-22_14-08-30 13074025
2022-09-22_14-08-30 13073558
2022-09-22_14-08-30 13073558
2022-09-22_14-08-30 13069219
2022-09-22_14-08-30 13069219
2022-09-22_14-08-30 13069208
2022-09-22_14-08-30 13073298
2022-09-22_14-08-30 13073298
2022-09-22_14-08-30 13073631
2022-09-22_14-08-31 13073631
2022-09-22_14-08-31 13071255
2022-09-22_14-08-31 13071255
2022-09-22_14-08-31 13070915
2022-09-22_14-08-31 13067510
2022-09-22_14-08-31 13067510
2022-09-22_14-08-31 13071658
2022-09-22_14-08-31 13071658
2022-09-22_14-08-31 13074444
2022-09-22_14-08-31 13074444
2022-09-22_14-08-32 13071269
2022-09-22_14-08-32 13070559
2022-09-22_14-08-32 13070559
2022-09-22_14-08-32 13071955
2022-09-22_14-08-32 13071955
2022-09-22_14-08-32 13068858
2022-09-22_14-08-32 13070689
2022-09-22_14-08-32 13070689
2022-09-22_14-08-32 13072809
2022-09-22_14-08-32 13072809
2022-09-22_14-08-33 13072857
2022-09-22_14-08-33 13072857
2022-09-22_14-08-33 13075034
2022-09-22_14-08-33 13072177
2022-09-22_14-08-33 13072177
2022-09-22_14-08-33 13071368
2022-09-22_14-08-33 13071368
2022-09-22_14-08-33 13070717
2022-09-22_14-08-33 13070717
2022-09-22_14-08-33 13069825
2022-09-22_14-08-34 13069891
2022-09-22_14-08-34 13069891
2022-09-22_14-08-34 13072743
2022-09-22_14-08-34 13072743
2022-09-22_14-08-34 13073077
2022-09-22_14-08-34 13073077
2022-09-22_14-08-34 13072021
2022-09-22_14-08-34 13070492
2022-09-22_14-08-34 13070492
2022-09-22_14-08-34 13072375
2022-09-22_14-08-35 13072375
2022-09-22_14-08-35 13074715
2022-09-22_14-08-35 13074715
2022-09-22_14-08-35 13074003
2022-09-22_14-08-35 13073385
2022-09-22_14-08-35 13073385
2022-09-22_14-08-35 13073562
2022-09-22_14-08-35 13073562
2022-09-22_14-08-35 13073436
2022-09-22_14-08-35 13073436
2022-09-22_14-08-36 13074890
2022-09-22_14-08-36 13074550
2022-09-22_14-08-36 13074550
2022-09-22_14-08-36 13071577
2022-09-22_14-08-36 13071577
2022-09-22_14-08-36 13072606
2022-09-22_14-08-36 13072606
2022-09-22_14-08-36 13070969
2022-09-22_14-08-36 13072689
2022-09-22_14-08-36 13072689
2022-09-22_14-08-37 13071010
2022-09-22_14-08-37 13071010
2022-09-22_14-08-37 13073754
2022-09-22_14-08-37 13073754
2022-09-22_14-08-37 13071277
2022-09-22_14-08-37 13072872
2022-09-22_14-08-37 13072872
2022-09-22_14-08-37 13073296
2022-09-22_14-08-37 13073296
2022-09-22_14-08-37 13070036
2022-09-22_14-08-38 13070613
2022-09-22_14-08-38 13070613
2022-09-22_14-08-38 13071401
2022-09-22_14-08-38 13071401
2022-09-22_14-08-38 13069038
2022-09-22_14-08-38 13069038
2022-09-22_14-08-38 13070153
2022-09-22_14-08-38 13072837
2022-09-22_14-08-38 13072837
2022-09-22_14-08-39 13070563
2022-09-22_14-08-39 13070563
2022-09-22_14-08-39 13072452
2022-09-22_14-08-39 13072452
2022-09-22_14-08-39 13070169
2022-09-22_14-08-39 13071593
2022-09-22_14-08-39 13071593
2022-09-22_14-08-39 13072239
2022-09-22_14-08-39 13072239
2022-09-22_14-08-39 13073251
2022-09-22_14-08-40 13073251
2022-09-22_14-08-40 13071616
2022-09-22_14-08-40 13071194
2022-09-22_14-08-40 13071194
2022-09-22_14-08-40 13072147
2022-09-22_14-08-40 13072147
2022-09-22_14-08-40 13070499
2022-09-22_14-08-40 13070499
2022-09-22_14-08-40 13072627
2022-09-22_14-08-40 13070388
2022-09-22_14-08-41 13070388
2022-09-22_14-08-41 13072668
2022-09-22_14-08-41 13072668
2022-09-22_14-08-41 13072597
2022-09-22_14-08-41 13072597
2022-09-22_14-08-41 13069798
2022-09-22_14-08-41 13073326
2022-09-22_14-08-41 13073326
2022-09-22_14-08-41 13070578
2022-09-22_14-08-41 13070578
2022-09-22_14-08-42 13070863
2022-09-22_14-08-42 13070863
2022-09-22_14-08-42 13069284
2022-09-22_14-08-42 13070456
2022-09-22_14-08-42 13070456
2022-09-22_14-08-42 13072367
2022-09-22_14-08-42 13072367
2022-09-22_14-08-42 13072782
2022-09-22_14-08-42 13072782
2022-09-22_14-08-42 13074189
2022-09-22_14-08-43 13073538
2022-09-22_14-08-43 13073538
2022-09-22_14-08-43 13073279
2022-09-22_14-08-43 13073279
2022-09-22_14-08-43 13071101
2022-09-22_14-08-43 13073499
2022-09-22_14-08-43 13073499
2022-09-22_14-08-43 13073970
2022-09-22_14-08-43 13073970
2022-09-22_14-08-43 13069782
2022-09-22_14-08-44 13069782
2022-09-22_14-08-44 13071886
2022-09-22_14-08-44 13073662
2022-09-22_14-08-44 13073662
2022-09-22_14-08-44 13072009
2022-09-22_14-08-44 13072009
2022-09-22_14-08-44 13074076
2022-09-22_14-08-44 13074076
2022-09-22_14-08-44 13072727
2022-09-22_14-08-44 13073100
2022-09-22_14-08-45 13073100
2022-09-22_14-08-45 13068940
2022-09-22_14-08-45 13068940
2022-09-22_14-08-45 13069514
2022-09-22_14-08-45 13069514
2022-09-22_14-08-45 13070856
2022-09-22_14-08-45 13071051
2022-09-22_14-08-45 13071051
2022-09-22_14-08-45 13069792
2022-09-22_14-08-45 13069792
2022-09-22_14-08-46 13069543
2022-09-22_14-08-46 13069543
2022-09-22_14-08-46 13069543
2022-09-22_14-08-46 13067488
2022-09-22_14-08-46 13067488
2022-09-22_14-08-46 13074746
2022-09-22_14-08-46 13074746
2022-09-22_14-08-46 13072269
2022-09-22_14-08-46 13072269
2022-09-22_14-08-46 13074373
2022-09-22_14-08-47 13074560
2022-09-22_14-08-47 13074560
2022-09-22_14-08-47 13068658
2022-09-22_14-08-47 13068658
2022-09-22_14-08-47 13069178
2022-09-22_14-08-47 13069178
2022-09-22_14-08-47 13070612
2022-09-22_14-08-47 13073156
2022-09-22_14-08-47 13073156
2022-09-22_14-08-47 13074250
2022-09-22_14-08-48 13074250
2022-09-22_14-08-48 13071947
2022-09-22_14-08-48 13071738
2022-09-22_14-08-48 13071738
2022-09-22_14-08-48 13074966
2022-09-22_14-08-48 13074966
2022-09-22_14-08-48 13074799
2022-09-22_14-08-48 13074799
2022-09-22_14-08-48 13076151
2022-09-22_14-08-48 13076037
2022-09-22_14-08-49 13076037
2022-09-22_14-08-49 13072481
2022-09-22_14-08-49 13072481
2022-09-22_14-08-49 13074175
2022-09-22_14-08-49 13074175
2022-09-22_14-08-49 13072558
2022-09-22_14-08-49 13073920
2022-09-22_14-08-49 13073920
2022-09-22_14-08-49 13075504
2022-09-22_14-08-49 13075504
2022-09-22_14-08-50 13075506
2022-09-22_14-08-50 13075506
2022-09-22_14-08-50 13071590
2022-09-22_14-08-50 13071463
2022-09-22_14-08-50 13071463
2022-09-22_14-08-50 13072489
2022-09-22_14-08-50 13072489
2022-09-22_14-08-50 13073386
2022-09-22_14-08-50 13073386
2022-09-22_14-08-50 13072633
2022-09-22_14-08-51 13074097
2022-09-22_14-08-51 13074097
2022-09-22_14-08-51 13074211
2022-09-22_14-08-51 13074211
2022-09-22_14-08-51 13070611
2022-09-22_14-08-51 13070611
2022-09-22_14-08-51 13072896
2022-09-22_14-08-51 13075160
2022-09-22_14-08-51 13075160
2022-09-22_14-08-51 13077852
2022-09-22_14-08-52 13077852
2022-09-22_14-08-52 13077181
2022-09-22_14-08-52 13075005
2022-09-22_14-08-52 13075005
2022-09-22_14-08-52 13074206
2022-09-22_14-08-52 13074206
2022-09-22_14-08-52 13073533
2022-09-22_14-08-52 13073533
2022-09-22_14-08-52 13074431
2022-09-22_14-08-52 13074941
2022-09-22_14-08-53 13074941
2022-09-22_14-08-53 13078513
2022-09-22_14-08-53 13078513
2022-09-22_14-08-53 13078301
2022-09-22_14-08-53 13078301
2022-09-22_14-08-53 13075407
2022-09-22_14-08-53 13074939
2022-09-22_14-08-53 13074939
2022-09-22_14-08-53 13073806
2022-09-22_14-08-53 13073806
2022-09-22_14-08-54 13073168
2022-09-22_14-08-54 13073168
2022-09-22_14-08-54 13072218
2022-09-22_14-08-54 13074635
2022-09-22_14-08-54 13074635
2022-09-22_14-08-54 13073154
2022-09-22_14-08-54 13073154
2022-09-22_14-08-54 13075380
2022-09-22_14-08-54 13075380
2022-09-22_14-08-54 13070007
2022-09-22_14-08-55 13074527
2022-09-22_14-08-55 13074527
2022-09-22_14-08-55 13075341
2022-09-22_14-08-55 13075341
2022-09-22_14-08-55 13073683
2022-09-22_14-08-55 13073683
2022-09-22_14-08-55 13073269
2022-09-22_14-08-55 13073549
2022-09-22_14-08-55 13073549
2022-09-22_14-08-55 13076584
2022-09-22_14-08-56 13076584
2022-09-22_14-08-56 13076379
2022-09-22_14-08-56 13076379
2022-09-22_14-08-56 13075379
2022-09-22_14-08-56 13076096
2022-09-22_14-08-56 13076096
2022-09-22_14-08-56 13074659
2022-09-22_14-08-56 13074659
2022-09-22_14-08-56 13072606
2022-09-22_14-08-56 13074075
2022-09-22_14-08-57 13074075
2022-09-22_14-08-57 13072763
2022-09-22_14-08-57 13072763
2022-09-22_14-08-57 13070000
2022-09-22_14-08-57 13073769
2022-09-22_14-08-57 13071747
2022-09-22_14-08-57 13073519
2022-09-22_14-08-57 13073519
2022-09-22_14-08-58 13072530
2022-09-22_14-08-58 13072530
2022-09-22_14-08-58 13074278
2022-09-22_14-08-58 13074278
2022-09-22_14-08-58 13073538
2022-09-22_14-08-58 13073295
2022-09-22_14-08-58 13073295
2022-09-22_14-08-58 13073660
2022-09-22_14-08-58 13073660
2022-09-22_14-08-58 13078518
2022-09-22_14-08-59 13078518
2022-09-22_14-08-59 13075746
2022-09-22_14-08-59 13073177
2022-09-22_14-08-59 13073177
2022-09-22_14-08-59 13073390
2022-09-22_14-08-59 13073390
2022-09-22_14-08-59 13073501
2022-09-22_14-08-59 13073501
2022-09-22_14-08-59 13076770
2022-09-22_14-08-59 13078482
2022-09-22_14-09-00 13078482
2022-09-22_14-09-00 13078030
2022-09-22_14-09-00 13078030
2022-09-22_14-09-00 13077198
2022-09-22_14-09-00 13077198
2022-09-22_14-09-00 13077403
2022-09-22_14-09-00 13074539
2022-09-22_14-09-00 13074539
2022-09-22_14-09-00 13074201
2022-09-22_14-09-00 13074201
2022-09-22_14-09-01 13076401
2022-09-22_14-09-01 13076401
2022-09-22_14-09-01 13069601
2022-09-22_14-09-01 13076302
2022-09-22_14-09-01 13076302
2022-09-22_14-09-01 13074964
2022-09-22_14-09-01 13074964
2022-09-22_14-09-01 13074560
2022-09-22_14-09-01 13074560
2022-09-22_14-09-01 13075053
2022-09-22_14-09-02 13073088
2022-09-22_14-09-02 13073088
2022-09-22_14-09-02 13072828
2022-09-22_14-09-02 13072828
2022-09-22_14-09-02 13072057
2022-09-22_14-09-02 13073121
2022-09-22_14-09-02 13073121
2022-09-22_14-09-02 13077180
2022-09-22_14-09-02 13077180
2022-09-22_14-09-02 13077614
2022-09-22_14-09-03 13077614
2022-09-22_14-09-03 13078479
2022-09-22_14-09-03 13074676
2022-09-22_14-09-03 13074676
2022-09-22_14-09-03 13075143
2022-09-22_14-09-03 13075143
2022-09-22_14-09-03 13072833
2022-09-22_14-09-03 13072833
2022-09-22_14-09-03 13068785
2022-09-22_14-09-03 13074320
2022-09-22_14-09-04 13074320
2022-09-22_14-09-04 13075073
2022-09-22_14-09-04 13075073
2022-09-22_14-09-04 13076491
2022-09-22_14-09-04 13076491
2022-09-22_14-09-04 13073896
2022-09-22_14-09-04 13074916
2022-09-22_14-09-04 13074916
2022-09-22_14-09-04 13074343
2022-09-22_14-09-04 13074343
2022-09-22_14-09-05 13071767
2022-09-22_14-09-05 13071767
2022-09-22_14-09-05 13076609
2022-09-22_14-09-05 13077855
2022-09-22_14-09-05 13077855
2022-09-22_14-09-05 13075528
2022-09-22_14-09-05 13075528
2022-09-22_14-09-05 13076761
2022-09-22_14-09-05 13076761
2022-09-22_14-09-05 13075797
2022-09-22_14-09-06 13073152
2022-09-22_14-09-06 13073152
2022-09-22_14-09-06 13075004
2022-09-22_14-09-06 13075004
2022-09-22_14-09-06 13076606
2022-09-22_14-09-06 13076616
2022-09-22_14-09-06 13076616
2022-09-22_14-09-06 13076633
2022-09-22_14-09-06 13076633
2022-09-22_14-09-06 13078397
2022-09-22_14-09-07 13078397
2022-09-22_14-09-07 13077002
2022-09-22_14-09-07 13074061
2022-09-22_14-09-07 13074061
2022-09-22_14-09-07 13074348
2022-09-22_14-09-07 13074348
2022-09-22_14-09-07 13073488
2022-09-22_14-09-07 13073488
2022-09-22_14-09-07 13074077
2022-09-22_14-09-07 13074312
2022-09-22_14-09-08 13074312
2022-09-22_14-09-08 13072369
2022-09-22_14-09-08 13072369
2022-09-22_14-09-08 13073897
2022-09-22_14-09-08 13073897
2022-09-22_14-09-08 13073264
2022-09-22_14-09-08 13075041
2022-09-22_14-09-08 13075041
2022-09-22_14-09-08 13073579
2022-09-22_14-09-09 13073579
2022-09-22_14-09-09 13073289
2022-09-22_14-09-09 13072473
2022-09-22_14-09-09 13072473
2022-09-22_14-09-09 13076283
2022-09-22_14-09-09 13076283
2022-09-22_14-09-09 13074071
2022-09-22_14-09-09 13074071
2022-09-22_14-09-09 13072304
2022-09-22_14-09-09 13076086
2022-09-22_14-09-10 13076086
2022-09-22_14-09-10 13075363
2022-09-22_14-09-10 13075363
2022-09-22_14-09-10 13072028
2022-09-22_14-09-10 13072028
2022-09-22_14-09-10 13075788
2022-09-22_14-09-10 13074653
2022-09-22_14-09-10 13074653
2022-09-22_14-09-10 13076077
2022-09-22_14-09-10 13076077
2022-09-22_14-09-11 13075542
2022-09-22_14-09-11 13075156
2022-09-22_14-09-11 13075156
2022-09-22_14-09-11 13077664
2022-09-22_14-09-11 13077664
2022-09-22_14-09-11 13075748
2022-09-22_14-09-11 13075748
2022-09-22_14-09-11 13076435
2022-09-22_14-09-11 13077044
2022-09-22_14-09-11 13077044
2022-09-22_14-09-12 13075170
2022-09-22_14-09-12 13075170
2022-09-22_14-09-12 13072994
2022-09-22_14-09-12 13072994
2022-09-22_14-09-12 13075753
2022-09-22_14-09-12 13073299
2022-09-22_14-09-12 13073299
2022-09-22_14-09-12 13075703
2022-09-22_14-09-12 13075703
2022-09-22_14-09-12 13075693
2022-09-22_14-09-13 13075693
2022-09-22_14-09-13 13073045
2022-09-22_14-09-13 13067856
2022-09-22_14-09-13 13067856
2022-09-22_14-09-13 13073668
2022-09-22_14-09-13 13073668
2022-09-22_14-09-13 13068081
2022-09-22_14-09-13 13071853
2022-09-22_14-09-13 13071853
2022-09-22_14-09-13 13072162
2022-09-22_14-09-14 13072162
2022-09-22_14-09-14 13070894
2022-09-22_14-09-14 13070894
2022-09-22_14-09-14 13073480
2022-09-22_14-09-14 13071125
2022-09-22_14-09-14 13071125
2022-09-22_14-09-14 13070130
2022-09-22_14-09-14 13070130
2022-09-22_14-09-14 13073731
2022-09-22_14-09-14 13073731
2022-09-22_14-09-15 13073851
2022-09-22_14-09-15 13073754
2022-09-22_14-09-15 13073754
2022-09-22_14-09-15 13072053
2022-09-22_14-09-15 13072053
2022-09-22_14-09-15 13072686
2022-09-22_14-09-15 13072686
2022-09-22_14-09-15 13073000
2022-09-22_14-09-15 13072835
2022-09-22_14-09-15 13072835
2022-09-22_14-09-16 13075177
2022-09-22_14-09-16 13075177
2022-09-22_14-09-16 13074840
2022-09-22_14-09-16 13073594
2022-09-22_14-09-16 13073594
2022-09-22_14-09-16 13073743
2022-09-22_14-09-16 13073743
2022-09-22_14-09-16 13075244
2022-09-22_14-09-16 13075244
2022-09-22_14-09-16 13072907
2022-09-22_14-09-17 13073371
2022-09-22_14-09-17 13073371
2022-09-22_14-09-17 13074028
2022-09-22_14-09-17 13074028
2022-09-22_14-09-17 13071505
2022-09-22_14-09-17 13071505
2022-09-22_14-09-17 13070445
2022-09-22_14-09-17 13068618
2022-09-22_14-09-17 13068618
2022-09-22_14-09-17 13073499
2022-09-22_14-09-18 13073499
2022-09-22_14-09-18 13070793
2022-09-22_14-09-18 13070793
2022-09-22_14-09-18 13070204
2022-09-22_14-09-18 13071529
2022-09-22_14-09-18 13071529
2022-09-22_14-09-18 13072119
2022-09-22_14-09-18 13072119
2022-09-22_14-09-18 13071890
2022-09-22_14-09-18 13070692
2022-09-22_14-09-19 13070692
2022-09-22_14-09-19 13073364
2022-09-22_14-09-19 13073364
2022-09-22_14-09-19 13074880
2022-09-22_14-09-19 13074880
2022-09-22_14-09-19 13071044
2022-09-22_14-09-19 13072587
2022-09-22_14-09-19 13072587
2022-09-22_14-09-19 13073946
2022-09-22_14-09-20 13073946
2022-09-22_14-09-20 13073405
2022-09-22_14-09-20 13073405
2022-09-22_14-09-20 13073351
2022-09-22_14-09-20 13074933
2022-09-22_14-09-20 13074933
2022-09-22_14-09-20 13073650
2022-09-22_14-09-20 13073650
2022-09-22_14-09-20 13074614
2022-09-22_14-09-20 13074614
2022-09-22_14-09-21 13072027
2022-09-22_14-09-21 13071842
2022-09-22_14-09-21 13071842
2022-09-22_14-09-21 13076207
2022-09-22_14-09-21 13076207
2022-09-22_14-09-21 13075017
2022-09-22_14-09-21 13074445
2022-09-22_14-09-21 13074445
2022-09-22_14-09-21 13073331
2022-09-22_14-09-21 13073331
2022-09-22_14-09-22 13073455
2022-09-22_14-09-22 13073455
2022-09-22_14-09-22 13073753
2022-09-22_14-09-22 13071824
2022-09-22_14-09-22 13071824
2022-09-22_14-09-22 13075566
2022-09-22_14-09-22 13075566
2022-09-22_14-09-22 13076300
2022-09-22_14-09-22 13076300
2022-09-22_14-09-22 13076527
2022-09-22_14-09-23 13075466
2022-09-22_14-09-23 13075466
2022-09-22_14-09-23 13076010
2022-09-22_14-09-23 13076010
2022-09-22_14-09-23 13074106
2022-09-22_14-09-23 13074106
2022-09-22_14-09-23 13076412
2022-09-22_14-09-23 13075320
2022-09-22_14-09-23 13075320
2022-09-22_14-09-23 13076269
2022-09-22_14-09-24 13076269
2022-09-22_14-09-24 13075138
2022-09-22_14-09-24 13075696
2022-09-22_14-09-24 13075696
2022-09-22_14-09-24 13076407
2022-09-22_14-09-24 13076407
2022-09-22_14-09-24 13073285
2022-09-22_14-09-24 13073285
2022-09-22_14-09-24 13072825
2022-09-22_14-09-24 13073974
2022-09-22_14-09-25 13073974
2022-09-22_14-09-25 13071324
2022-09-22_14-09-25 13071324
2022-09-22_14-09-25 13070703
2022-09-22_14-09-25 13070703
2022-09-22_14-09-25 13073693
2022-09-22_14-09-25 13072619
2022-09-22_14-09-25 13072619
2022-09-22_14-09-25 13070054
2022-09-22_14-09-25 13070054
2022-09-22_14-09-26 13075604
2022-09-22_14-09-26 13075604
2022-09-22_14-09-26 13076454
2022-09-22_14-09-26 13076017
2022-09-22_14-09-26 13076017
2022-09-22_14-09-26 13075045
2022-09-22_14-09-26 13075045
2022-09-22_14-09-26 13076807
2022-09-22_14-09-26 13075018
2022-09-22_14-09-26 13075018
2022-09-22_14-09-27 13076513
2022-09-22_14-09-27 13076513
2022-09-22_14-09-27 13077837
2022-09-22_14-09-27 13077837
