13060837
13062269
13061785
13061785
13059626
13059626
13062134
13062134
13060666
13062836
13062836
13063876
13063876
13060235
13060235
13062666
13063493
13063493
13063849
13063849
13065819
13064025
13064025
13062657
13062657
13063258
13063258
13063782
13065131
13065131
13064884
13064884
13063314
13063314
13061839
13060273
13060273
13059603
13059603
13064337
13064337
13062841
13058653
13058653
13061560
13061560
13062882
13058405
13058405
13061356
13061356
13062920
13062920
13063784
13062174
13062174
13064556
13064556
13060963
13060963
13061815
13062244
13062244
13064121
13064121
13064550
13064550
13062683
13063400
13063400
13061165
13061165
13060788
13063049
13063049
13058866
13058866
13057768
13057768
13059314
13058773
13058773
13062978
13062978
13059874
13059874
13059844
13056893
13056893
13058641
13058641
13059889
13059889
13056960
13058332
13058332
13056406
13056406
13057397
13055874
13055874
13055797
13055797
13060393
13060393
13058831
13060992
13060992
13065192
13065192
13062875
13062875
13060296
13062134
13062134
13062093
13062093
13061459
13061459
13062938
13062050
13062050
13061526
13061526
13062471
13062359
13062359
13063631
13063631
13058586
13058586
13061210
13056386
13056386
13056329
13056329
13061518
13061518
13063529
13062074
13062074
13058876
13058876
13060061
13060061
13059629
13058544
13058544
13059842
13059842
13060547
13058080
13058080
13062024
13062024
13062072
13062072
13061549
13061182
13061182
13063316
13063316
13066036
13066036
13064735
13059873
13059873
13060618
13060618
13063793
13063793
13064787
13064960
13064960
13063456
13063456
13063381
13061392
13061392
13063069
13063069
13062858
13062858
13064717
13062330
13062330
13064317
13064317
13061040
13061040
13061879
13061740
13061740
13066271
13066271
13063283
13063283
13064878
13060372
13060372
13062207
13062207
13062641
13062263
13062263
13063126
13063126
13064672
13064672
13060242
13063781
13063781
13062398
13062398
13063598
13063598
13060372
13064325
13064325
13063548
13063548
13064554
13064554
13066244
13064457
13064457
13063569
13063569
13060991
13060991
13063965
13060849
13060849
13061672
13061672
13063859
13063199
13063199
13063574
13063574
13060382
13060382
13060677
13064376
13064376
13065714
13065714
13063387
13063387
13065108
13063628
13063628
13059927
13059927
13057978
13057978
13058128
13061683
13061683
13060800
13060800
13063474
13063999
13063999
13062252
13062252
13061613
13061613
13061410
13061637
13061637
13061865
13061865
13064845
13064845
13061321
13059583
13059583
13061380
13061380
13062935
13062935
13062696
13060104
13060104
13061791
13061791
13061852
13061784
13061784
13061531
13061531
13058661
13058661
13058306
13061543
13061543
13062910
13062910
13062644
13062644
13065910
13067967
13067967
13067273
13067273
13063179
13063179
13064934
13061969
13061969
13061349
13061349
13063817
13065551
13065551
13061036
13061036
13063752
13063752
13066439
13066640
13066640
13062252
13062252
13062590
13062590
13061646
13064710
13064710
13066472
13066472
13065514
13065514
13066597
13064400
13064400
13060516
13060516
13065274
13067624
13067624
13069102
13069102
13067127
13067127
13062062
13065897
13065897
13067399
13067399
13064469
13064469
13065642
13065651
13065651
13063521
13063521
13064064
13064064
13065547
13064808
13064808
13064368
13064368
13063489
13058483
13058483
13060891
13060891
13065801
13065801
13068242
13067267
13067267
13066850
13066850
13064413
13064413
13062685
13057346
13057346
13064587
13064587
13064482
13064482
13061567
13063749
13063749
13064737
13064737
13063941
13066107
13066107
13065459
13065459
13062993
13062993
13064730
13063241
13063241
13058619
13058619
13062689
13062689
13062124
13064451
13064451
13063127
13063127
13063256
13063256
13062788
13063644
13063644
13066142
13066142
13062945
13060419
13060419
13061287
13061287
13060644
13060644
13063761
13065241
13065241
13061259
13061259
13065198
13065198
13057610
13064407
13064407
13062623
13062623
13064192
13061501
13061501
13063149
13063149
13059385
13059385
13061293
13062691
13062691
13062049
13062049
13061996
13061996
13062090
13059369
13059369
13059009
13059009
13061684
13061684
13064294
13065344
13065344
13063833
13063833
13063680
13060918
13060918
13060865
13060865
13060975
13060975
13063004
13062640
13062640
13064480
13064480
13063548
13063548
13064635
13060859
13060859
13063420
13063420
13064060
13064060
13063409
13062914
13062914
13065488
13065488
13062202
13063163
13063163
13065803
13065803
13062840
13062840
13065026
13063709
13063709
13063126
13063126
13065058
13065058
13064354
13062283
13062283
13057254
13057254
13060951
13060951
13058589
13060441
13060441
13064979
13064979
13066778
13065852
13065852
13063994
13063994
13059974
13059974
13063858
13065187
13065187
13066384
13066384
13062513
13062513
13060116
13060136
13060136
13059286
13059286
13064089
13064089
13066361
13063626
13063626
13066466
13066466
13063980
13066204
13066204
13067193
13067193
13062650
13062650
13058243
13063918
13063918
13060981
13060981
13063398
13063398
13066632
13064865
13064865
13065000
13065000
13063796
13063796
13059924
13064683
13064683
13063379
13063379
13061012
13061337
13061337
13065591
13065591
13065559
13065559
13064271
13065921
13065921
13066654
13066654
13064246
13064246
13063591
13067020
13067020
13063330
13063330
13061723
13061723
13066154
13066276
13066276
13065644
13065644
13065402
13066971
13066971
13066254
13066254
13063632
13063632
13064015
13065547
13065547
13064424
13064424
13066596
13066596
13064985
13065381
13065381
13065281
13065281
13059564
13059564
13060987
13063429
13063429
13064626
13064626
13066996
13065467
13065467
13064471
13064471
13061243
13061243
13062491
13061690
13061690
13062389
13062389
13061492
13061492
13065143
13066381
13066381
13059813
13059813
13060599
13060599
13062929
13062863
13062863
13064936
13064936
13067212
13067464
13067464
13068340
13068340
13064335
13064335
13066501
13064521
13064521
13063394
13063394
13064177
13064177
13066010
13065480
13065480
13064726
13064726
13065451
13065451
13064610
13063411
13063411
13064562
13064562
13064124
13064755
13064755
13063992
13063992
13061663
13061663
13059421
13057510
13057510
13059566
13059566
13058347
13058347
13063394
13063738
13063738
13061692
13061692
13059429
13059429
13057140
13062682
13062682
13061417
13061417
13061187
13063625
13063625
13060400
13060400
13061418
13061418
13061509
13063099
13063099
13064015
13064015
13062128
13062128
13061453
13059696
13059696
13060213
13060213
13064346
13064346
13062334
13062893
13062893
13061464
13061464
13059814
13060048
13060048
13060985
13060985
13059658
13059658
13057340
13059032
13059032
13055433
13055433
13061396
13061396
13067150
13064422
13064422
13065649
13065649
13068346
13068346
13065923
13061243
13061243
13063165
13063165
13061100
13062901
13062901
13062690
13062690
13062088
13062088
13062131
13063382
13063382
13062700
13062700
13062187
13062187
13065358
13063128
13063128
13064481
13064481
13064644
13064644
13065787
13064742
13064742
13064988
13064988
13063923
13062592
13062592
13057647
13057647
13058469
13058469
13063636
13058832
13058832
13060891
13060891
13063127
13063127
13065519
13062312
13062312
13063032
13063032
13061102
13059318
13059318
13061371
13061371
13062623
13062623
13059995
13064185
13064185
13061469
13061469
13061871
13061871
13061055
13062791
13062791
13063540
13063540
13064549
13064549
13056213
13057479
13057479
13056288
13056288
13056298
13055864
13055864
13058794
13058794
13059177
13059177
13060607
13062694
13062694
13060035
13060035
13058995
13058995
13063295
13058322
13058322
13058475
13058475
13060011
13060011
13063186
13063084
13063084
13062033
13062033
13061611
13063837
13063837
13064327
13064327
13060311
13060311
13064599
13062481
13062481
13063352
13063352
13061851
13061851
13061968
13061311
13061311
13059455
13059455
13065103
13065103
13063926
13062757
13062757
13059992
13059992
13059590
13057414
13057414
13060052
13060052
13061830
13061830
13064924
13064554
13064554
13061260
13061260
13064096
13064096
13062286
13061540
13061540
13060436
13060436
13061816
13061816
13062805
13057726
13057726
13059391
13059391
13060533
13059121
13059121
13059699
13059699
13060574
13060574
13060854
13059911
13059911
13062882
13062882
13060254
13060254
13058091
13060213
13060213
13059282
13059282
13059606
13059606
13061143
13060224
13060224
13060354
13060354
13060268
13059000
13059000
13058180
13058180
13059504
13059504
13060424
13059792
13059792
13061377
13061377
13060381
13060381
13061386
13057015
13057015
13060674
13060674
13061155
13061155
13059988
13062141
13062141
13061743
13061743
13061207
13061783
13061783
13056654
13056654
13052303
13052303
13056427
13053767
13053767
13052252
13052252
13057841
13057841
13059603
13057232
13057232
13061024
13061024
13057407
13057407
13058399
13061219
13061219
13059908
13059908
13063991
13062592
13062592
13059719
13059719
13060379
13060379
13061441
13060470
13060470
13057460
13057460
13060775
13060775
13061464
13062413
13062413
13063025
13063025
13057953
13057953
13060503
13060163
13060163
13063471
13063471
13061126
13062594
13062594
13062030
13062030
13060962
13060962
13062390
13062467
13062467
13064478
13064478
13063313
13063313
13062615
13064059
13064059
13061719
13061719
13057253
13057253
13062090
13061983
13061983
13061376
13061376
13061406
13061184
13061184
13064374
13064374
13059696
13059696
13059807
13059382
13059382
13057863
13057863
13060071
13060071
13059437
13059950
13059950
13060516
13060516
13059378
13059378
13057751
13061899
13061899
13059059
13059059
13061192
13058326
13058326
13058371
13058371
13058693
13058693
13057649
13057557
13057557
13056063
13056063
13058105
13058105
13058551
13055604
13055604
13057533
13057533
13058079
13058079
13056339
13057895
13057895
13056604
13056604
13056050
13057261
13057261
13060819
13060819
13060978
13060978
13060786
13059435
13059435
13059956
13059956
13058989
13058989
13059434
13058874
13058874
13061912
13061912
13061187
13061187
13062750
13063655
13063655
13058416
13058416
13061240
13060676
13060676
13063941
13063941
13062715
13062715
13061973
13061189
13061189
13059584
13059584
13057808
13057808
13057488
13057854
13057854
13056497
13056497
13058999
13058999
13059353
13060071
13060071
13059868
13059868
13060351
13060925
13060925
13061767
13061767
13061215
13061215
13059125
13060726
13060726
13060905
13060905
13062883
13062883
13061715
13061608
13061608
13064536
13064536
13065826
13065826
13065335
13061989
13061989
13065354
13065354
13061720
13059688
13059688
13061633
13061633
13061064
13061064
13063180
13063375
13063375
13062756
13062756
13057439
13057439
13059400
13063551
13063551
13063935
13063935
13062852
13062852
13059312
13064158
13064158
13064205
13064205
13063810
13064143
13064143
13065407
13065407
13064619
13064619
13066483
13063671
13063671
13064971
13064971
13062616
13062616
13062358
13060400
13060400
13058558
13058558
13060075
13060075
13054825
13059209
13059209
13061399
13061399
13063452
13065179
13065179
13060749
13060749
13060422
13060422
13062536
13061190
13061190
13063854
13063854
13059663
13059663
13063024
13062843
13062843
13063181
13063181
13063215
13063215
13063406
13061165
13061165
13060583
13060583
13061684
13060142
13060142
13060052
13060052
13062020
13062020
13059056
13060979
13060979
13058908
13058908
13060795
13060795
13061440
13062598
13062598
13062878
13062878
13061730
13061730
13062398
13064882
13064882
13060456
13060456
13061409
13063758
13063758
13061666
13061666
13061599
13061599
13058299
13062174
13062174
13059725
13059725
13062396
13062396
13064363
13063620
13063620
13062509
13062509
13060151
13060151
13061803
13062330
13062330
13063289
13063289
13060190
13063138
13063138
13065137
13065137
13062387
13062387
13060135
13061528
13061528
13066239
13066239
13065603
13065603
13063157
13065325
13065325
13064335
13064335
13061176
13061176
13059198
13061592
13061592
13063054
13063054
13060494
13057020
13057020
13057360
13057360
13063050
13063050
13060480
13056371
13056371
13061306
13061306
13062364
13062364
13064016
13062635
13062635
13063334
13063334
13061524
13061524
13065100
13066652
13066652
13065162
13065162
13062310
13064950
13064950
13066602
13066602
13063633
13063633
13063902
13065157
13065157
13062960
13062960
13063554
13063554
13066498
13066918
13066918
13063240
13063240
13061915
13061915
13062175
13062390
13062390
13062435
13062435
13059617
13059426
13059426
13061520
13061520
13062411
13062411
13059597
13060149
13060149
13063868
13063868
13060852
13060852
13056156
13059485
13059485
13061287
13061287
13058989
13058989
13060094
13059519
13059519
13061614
13061614
13061732
13061781
13061781
13059303
13059303
13063585
13063585
13062607
13061972
13061972
13059297
13059297
13058015
13058015
13058361
13057207
13057207
13055534
13055534
13055810
13055810
13055168
13058613
13058613
13058701
13058701
13057794
13058182
13058182
13058485
13058485
13056420
13056420
13056304
13061779
13061779
13059807
13059807
13059548
13059548
13059270
13057230
13057230
13057952
13057952
13055971
13055971
13059558
13057416
13057416
13061037
13061037
13060697
13060204
13060204
13062543
13062543
13059983
13059983
13060701
13063362
13063362
13063979
13063979
13062341
13062341
13059455
13057796
13057796
13061632
13061632
13061497
13061497
13063540
13061050
13061050
13062215
13062215
13060980
13056868
13056868
13057327
13057327
13059106
13059106
13056713
13060378
13060378
13062302
13062302
13062479
13062479
13058447
13064077
13064077
13063666
13063666
13065790
13065790
13061996
13062526
13062526
13062341
13062341
13059943
13064655
13064655
13060843
13060843
13061742
13061742
13061309
13062536
13062536
13061720
13061720
13063072
13063072
13060722
13061369
13061369
13058477
13058477
13061403
13061403
13062856
13062509
13062509
13059300
13059300
13062000
13061620
13061620
13058598
13058598
13061919
13061919
13060367
13059469
13059469
13061313
13061313
13062022
13062022
13061335
13060464
13060464
13058444
13058444
13060992
13060992
13059665
13060352
13060352
13060660
13060660
13064540
13062302
13062302
13062130
13062130
13062648
13062648
13060804
13063070
13063070
13061801
13061801
13061235
13061235
13060945
13062937
13062937
13062249
13062249
13059758
13059758
13061433
13058784
13058784
13061740
13061740
13061545
13060642
13060642
13059393
13059393
13060990
13060990
13060774
13059483
13059483
13056680
13056680
13056770
13056770
13053537
13056342
13056342
13060574
13060574
13057927
13057927
13059015
13060851
13060851
13061748
13061748
13062872
13060936
13060936
13060410
13060410
13060336
13060336
13064482
13064428
13064428
13064692
13064692
13063680
13063680
13064584
13063918
13063918
13064545
13064545
13063233
13060655
13060655
13060845
13060845
13063364
13063364
13063485
13066319
13066319
13065380
13065380
13064980
13064980
13064516
13063216
13063216
13064198
13064198
13062537
13062537
13064032
13062613
13062613
13061573
13061573
13061108
13064113
13064113
13062916
13062916
13057225
13057225
13059170
13062372
13062372
13060429
13060429
13061800
13061800
13065567
13063068
13063068
13062940
13062940
13064508
13064508
13064201
13064239
13064239
13062294
13062294
13062498
13063091
13063091
13059090
13059090
13058686
13058686
13059287
13062169
13062169
13059085
13059085
13060217
13060217
13061972
13066243
13066243
13061480
13061480
13060342
13060342
13060202
13064024
13064024
13064016
13064016
13062409
13062120
13062120
13061845
13061845
13064228
13064228
13065421
13066368
13066368
13064057
13064057
13062603
13062603
13065496
13063768
13063768
13062700
13062700
13061138
13061138
13060080
13062129
13062129
13059090
13059090
13060531
13064310
13064310
13061955
13061955
13064387
13064387
13064647
13067901
13067901
13063913
13063913
13061810
13061810
13062512
13061529
13061529
13062533
13062533
13064510
13064510
13063730
13063974
13063974
13062997
13062997
13063199
13061692
13061692
13062512
13062512
13059457
13059457
13059538
13060871
13060871
13066645
13066645
13065297
13065297
13063672
13064421
13064421
13065205
13065205
13065573
13065573
13063368
13061224
13061224
13060929
13060929
13058064
13055764
13055764
13057308
13057308
13062783
13062783
13061860
13059683
13059683
13058428
13058428
13060517
13060517
