2022-09-19_22-15-47 13057644
2022-09-19_22-15-47 13059217
2022-09-19_22-15-47 13056988
2022-09-19_22-15-47 13056988
2022-09-19_22-15-47 13059955
2022-09-19_22-15-47 13059955
2022-09-19_22-15-47 13060523
2022-09-19_22-15-47 13060523
2022-09-19_22-15-47 13058831
2022-09-19_22-15-48 13056642
2022-09-19_22-15-48 13056642
2022-09-19_22-15-48 13058212
2022-09-19_22-15-48 13058212
2022-09-19_22-15-48 13059553
2022-09-19_22-15-48 13059553
2022-09-19_22-15-48 13060330
2022-09-19_22-15-48 13058037
2022-09-19_22-15-48 13058037
2022-09-19_22-15-48 13058975
2022-09-19_22-15-49 13058975
2022-09-19_22-15-49 13061057
2022-09-19_22-15-49 13061463
2022-09-19_22-15-49 13061463
2022-09-19_22-15-49 13058831
2022-09-19_22-15-49 13058831
2022-09-19_22-15-49 13060720
2022-09-19_22-15-49 13060720
2022-09-19_22-15-49 13056425
2022-09-19_22-15-49 13059231
2022-09-19_22-15-50 13059231
2022-09-19_22-15-50 13057771
2022-09-19_22-15-50 13057771
2022-09-19_22-15-50 13058088
2022-09-19_22-15-50 13058088
2022-09-19_22-15-50 13057835
2022-09-19_22-15-50 13058007
2022-09-19_22-15-50 13058007
2022-09-19_22-15-50 13057155
2022-09-19_22-15-50 13057155
2022-09-19_22-15-51 13060922
2022-09-19_22-15-51 13060922
2022-09-19_22-15-51 13058134
2022-09-19_22-15-51 13055827
2022-09-19_22-15-51 13055827
2022-09-19_22-15-51 13058901
2022-09-19_22-15-51 13058901
2022-09-19_22-15-51 13053693
2022-09-19_22-15-51 13059008
2022-09-19_22-15-51 13059008
2022-09-19_22-15-52 13056805
2022-09-19_22-15-52 13056805
2022-09-19_22-15-52 13062361
2022-09-19_22-15-52 13062361
2022-09-19_22-15-52 13059297
2022-09-19_22-15-52 13060108
2022-09-19_22-15-52 13060108
2022-09-19_22-15-52 13054861
2022-09-19_22-15-52 13054861
2022-09-19_22-15-52 13056108
2022-09-19_22-15-53 13056108
2022-09-19_22-15-53 13058599
2022-09-19_22-15-53 13055326
2022-09-19_22-15-53 13055326
2022-09-19_22-15-53 13057458
2022-09-19_22-15-53 13057458
2022-09-19_22-15-53 13059318
2022-09-19_22-15-53 13059318
2022-09-19_22-15-53 13060500
2022-09-19_22-15-53 13060469
2022-09-19_22-15-54 13060469
2022-09-19_22-15-54 13062907
2022-09-19_22-15-54 13062907
2022-09-19_22-15-54 13059933
2022-09-19_22-15-54 13060568
2022-09-19_22-15-54 13060568
2022-09-19_22-15-54 13062802
2022-09-19_22-15-54 13062802
2022-09-19_22-15-54 13062113
2022-09-19_22-15-54 13062113
2022-09-19_22-15-55 13061120
2022-09-19_22-15-55 13060722
2022-09-19_22-15-55 13060722
2022-09-19_22-15-55 13060932
2022-09-19_22-15-55 13060932
2022-09-19_22-15-55 13058536
2022-09-19_22-15-55 13058536
2022-09-19_22-15-55 13058640
2022-09-19_22-15-55 13059690
2022-09-19_22-15-56 13059690
2022-09-19_22-15-56 13061143
2022-09-19_22-15-56 13061143
2022-09-19_22-15-56 13060158
2022-09-19_22-15-56 13060158
2022-09-19_22-15-56 13057422
2022-09-19_22-15-56 13059922
2022-09-19_22-15-56 13059922
2022-09-19_22-15-56 13063380
2022-09-19_22-15-56 13063380
2022-09-19_22-15-57 13063313
2022-09-19_22-15-57 13059706
2022-09-19_22-15-57 13059706
2022-09-19_22-15-57 13059188
2022-09-19_22-15-57 13059188
2022-09-19_22-15-57 13058207
2022-09-19_22-15-57 13058207
2022-09-19_22-15-57 13057785
2022-09-19_22-15-57 13062290
2022-09-19_22-15-57 13062290
2022-09-19_22-15-58 13062108
2022-09-19_22-15-58 13062108
2022-09-19_22-15-58 13062437
2022-09-19_22-15-58 13062437
2022-09-19_22-15-58 13062889
2022-09-19_22-15-58 13062480
2022-09-19_22-15-58 13062480
2022-09-19_22-15-58 13058799
2022-09-19_22-15-58 13058799
2022-09-19_22-15-58 13062195
2022-09-19_22-15-59 13062195
2022-09-19_22-15-59 13062533
2022-09-19_22-15-59 13062806
2022-09-19_22-15-59 13062806
2022-09-19_22-15-59 13061220
2022-09-19_22-15-59 13061220
2022-09-19_22-15-59 13065280
2022-09-19_22-15-59 13062994
2022-09-19_22-15-59 13062994
2022-09-19_22-15-59 13062719
2022-09-19_22-16-00 13062719
2022-09-19_22-16-00 13060667
2022-09-19_22-16-00 13060667
2022-09-19_22-16-00 13062761
2022-09-19_22-16-00 13064576
2022-09-19_22-16-00 13064576
2022-09-19_22-16-00 13062955
2022-09-19_22-16-00 13062955
2022-09-19_22-16-00 13062659
2022-09-19_22-16-00 13062659
2022-09-19_22-16-01 13063467
2022-09-19_22-16-01 13064995
2022-09-19_22-16-01 13064995
2022-09-19_22-16-01 13066139
2022-09-19_22-16-01 13066139
2022-09-19_22-16-01 13065393
2022-09-19_22-16-01 13065393
2022-09-19_22-16-01 13064563
2022-09-19_22-16-01 13061406
2022-09-19_22-16-01 13061406
2022-09-19_22-16-02 13061423
2022-09-19_22-16-02 13061423
2022-09-19_22-16-02 13061543
2022-09-19_22-16-02 13061543
2022-09-19_22-16-02 13063371
2022-09-19_22-16-02 13064750
2022-09-19_22-16-02 13064750
2022-09-19_22-16-02 13065020
2022-09-19_22-16-02 13065020
2022-09-19_22-16-02 13065081
2022-09-19_22-16-03 13065135
2022-09-19_22-16-03 13065135
2022-09-19_22-16-03 13062522
2022-09-19_22-16-03 13062522
2022-09-19_22-16-03 13060299
2022-09-19_22-16-03 13060299
2022-09-19_22-16-03 13061670
2022-09-19_22-16-03 13063712
2022-09-19_22-16-03 13063712
2022-09-19_22-16-03 13063900
2022-09-19_22-16-04 13063900
2022-09-19_22-16-04 13060752
2022-09-19_22-16-04 13060752
2022-09-19_22-16-04 13055706
2022-09-19_22-16-04 13060354
2022-09-19_22-16-04 13060354
2022-09-19_22-16-04 13060692
2022-09-19_22-16-04 13060692
2022-09-19_22-16-04 13061050
2022-09-19_22-16-04 13061050
2022-09-19_22-16-05 13062209
2022-09-19_22-16-05 13061872
2022-09-19_22-16-05 13061872
2022-09-19_22-16-05 13064083
2022-09-19_22-16-05 13064083
2022-09-19_22-16-05 13063446
2022-09-19_22-16-05 13062412
2022-09-19_22-16-05 13062412
2022-09-19_22-16-05 13060370
2022-09-19_22-16-05 13060370
2022-09-19_22-16-06 13060720
2022-09-19_22-16-06 13060720
2022-09-19_22-16-06 13059991
2022-09-19_22-16-06 13062053
2022-09-19_22-16-06 13062053
2022-09-19_22-16-06 13062367
2022-09-19_22-16-06 13062367
2022-09-19_22-16-06 13062754
2022-09-19_22-16-06 13062754
2022-09-19_22-16-06 13062974
2022-09-19_22-16-07 13064131
2022-09-19_22-16-07 13064131
2022-09-19_22-16-07 13061998
2022-09-19_22-16-07 13061998
2022-09-19_22-16-07 13064559
2022-09-19_22-16-07 13064559
2022-09-19_22-16-07 13060726
2022-09-19_22-16-07 13060000
2022-09-19_22-16-07 13060000
2022-09-19_22-16-07 13059970
2022-09-19_22-16-08 13059970
2022-09-19_22-16-08 13061318
2022-09-19_22-16-08 13061110
2022-09-19_22-16-08 13061110
2022-09-19_22-16-08 13063801
2022-09-19_22-16-08 13063801
2022-09-19_22-16-08 13063793
2022-09-19_22-16-08 13063793
2022-09-19_22-16-08 13064676
2022-09-19_22-16-09 13063020
2022-09-19_22-16-09 13063020
2022-09-19_22-16-09 13059179
2022-09-19_22-16-09 13059179
2022-09-19_22-16-09 13060592
2022-09-19_22-16-09 13060592
2022-09-19_22-16-09 13061196
2022-09-19_22-16-09 13061454
2022-09-19_22-16-09 13061454
2022-09-19_22-16-09 13061121
2022-09-19_22-16-10 13061121
2022-09-19_22-16-10 13061081
2022-09-19_22-16-10 13058929
2022-09-19_22-16-10 13058929
2022-09-19_22-16-10 13056846
2022-09-19_22-16-10 13056846
2022-09-19_22-16-10 13063067
2022-09-19_22-16-10 13063067
2022-09-19_22-16-10 13062779
2022-09-19_22-16-10 13058581
2022-09-19_22-16-11 13058581
2022-09-19_22-16-11 13057022
2022-09-19_22-16-11 13057022
2022-09-19_22-16-11 13059168
2022-09-19_22-16-11 13059168
2022-09-19_22-16-11 13059370
2022-09-19_22-16-11 13062519
2022-09-19_22-16-11 13062519
2022-09-19_22-16-11 13062737
2022-09-19_22-16-11 13062737
2022-09-19_22-16-12 13060902
2022-09-19_22-16-12 13060902
2022-09-19_22-16-12 13063587
2022-09-19_22-16-12 13060747
2022-09-19_22-16-12 13060747
2022-09-19_22-16-12 13057944
2022-09-19_22-16-12 13057944
2022-09-19_22-16-12 13058592
2022-09-19_22-16-12 13058592
2022-09-19_22-16-12 13059171
2022-09-19_22-16-13 13062038
2022-09-19_22-16-13 13062038
2022-09-19_22-16-13 13057089
2022-09-19_22-16-13 13057089
2022-09-19_22-16-13 13059464
2022-09-19_22-16-13 13060627
2022-09-19_22-16-13 13060627
2022-09-19_22-16-13 13059882
2022-09-19_22-16-13 13059882
2022-09-19_22-16-13 13060035
2022-09-19_22-16-14 13060035
2022-09-19_22-16-14 13059032
2022-09-19_22-16-14 13060644
2022-09-19_22-16-14 13060644
2022-09-19_22-16-14 13062044
2022-09-19_22-16-14 13062044
2022-09-19_22-16-14 13060091
2022-09-19_22-16-14 13060091
2022-09-19_22-16-14 13060371
2022-09-19_22-16-14 13059145
2022-09-19_22-16-15 13059145
2022-09-19_22-16-15 13060743
2022-09-19_22-16-15 13060743
2022-09-19_22-16-15 13058407
2022-09-19_22-16-15 13058407
2022-09-19_22-16-15 13060176
2022-09-19_22-16-15 13060252
2022-09-19_22-16-15 13060252
2022-09-19_22-16-15 13062285
2022-09-19_22-16-15 13062285
2022-09-19_22-16-16 13061781
2022-09-19_22-16-16 13061753
2022-09-19_22-16-16 13061753
2022-09-19_22-16-16 13059259
2022-09-19_22-16-16 13059259
2022-09-19_22-16-16 13060721
2022-09-19_22-16-16 13060721
2022-09-19_22-16-16 13059127
2022-09-19_22-16-16 13061772
2022-09-19_22-16-16 13061772
2022-09-19_22-16-17 13059890
2022-09-19_22-16-17 13059890
2022-09-19_22-16-17 13058397
2022-09-19_22-16-17 13058397
2022-09-19_22-16-17 13055118
2022-09-19_22-16-17 13060837
2022-09-19_22-16-17 13060837
2022-09-19_22-16-17 13059337
2022-09-19_22-16-17 13059337
2022-09-19_22-16-17 13056754
2022-09-19_22-16-18 13056754
2022-09-19_22-16-18 13062126
2022-09-19_22-16-18 13062228
2022-09-19_22-16-18 13062228
2022-09-19_22-16-18 13062163
2022-09-19_22-16-18 13062163
2022-09-19_22-16-18 13060059
2022-09-19_22-16-18 13060807
2022-09-19_22-16-18 13060807
2022-09-19_22-16-18 13062751
2022-09-19_22-16-19 13062751
2022-09-19_22-16-19 13057441
2022-09-19_22-16-19 13057441
2022-09-19_22-16-19 13060510
2022-09-19_22-16-19 13062146
2022-09-19_22-16-19 13062146
2022-09-19_22-16-19 13062796
2022-09-19_22-16-19 13062796
2022-09-19_22-16-19 13060218
2022-09-19_22-16-19 13060218
2022-09-19_22-16-20 13058378
2022-09-19_22-16-20 13060773
2022-09-19_22-16-20 13060773
2022-09-19_22-16-20 13062233
2022-09-19_22-16-20 13062233
2022-09-19_22-16-20 13058161
2022-09-19_22-16-20 13058161
2022-09-19_22-16-20 13060495
2022-09-19_22-16-20 13058770
2022-09-19_22-16-20 13058770
2022-09-19_22-16-21 13057927
2022-09-19_22-16-21 13057927
2022-09-19_22-16-21 13061333
2022-09-19_22-16-21 13061333
2022-09-19_22-16-21 13059416
2022-09-19_22-16-21 13058012
2022-09-19_22-16-21 13058012
2022-09-19_22-16-21 13054419
2022-09-19_22-16-21 13054419
2022-09-19_22-16-21 13051995
2022-09-19_22-16-22 13051995
2022-09-19_22-16-22 13053406
2022-09-19_22-16-22 13059434
2022-09-19_22-16-22 13059434
2022-09-19_22-16-22 13058895
2022-09-19_22-16-22 13058895
2022-09-19_22-16-22 13061499
2022-09-19_22-16-22 13061499
2022-09-19_22-16-22 13058456
2022-09-19_22-16-22 13057980
2022-09-19_22-16-23 13057980
2022-09-19_22-16-23 13057359
2022-09-19_22-16-23 13057359
2022-09-19_22-16-23 13057536
2022-09-19_22-16-23 13057536
2022-09-19_22-16-23 13060732
2022-09-19_22-16-23 13059419
2022-09-19_22-16-23 13059419
2022-09-19_22-16-23 13056450
2022-09-19_22-16-23 13056450
2022-09-19_22-16-24 13062001
2022-09-19_22-16-24 13062374
2022-09-19_22-16-24 13062374
2022-09-19_22-16-24 13059257
2022-09-19_22-16-24 13059257
2022-09-19_22-16-24 13057248
2022-09-19_22-16-24 13057248
2022-09-19_22-16-24 13059982
2022-09-19_22-16-24 13056789
2022-09-19_22-16-25 13056789
2022-09-19_22-16-25 13062322
2022-09-19_22-16-25 13062322
2022-09-19_22-16-25 13059602
2022-09-19_22-16-25 13059602
2022-09-19_22-16-25 13059442
2022-09-19_22-16-25 13059228
2022-09-19_22-16-25 13059228
2022-09-19_22-16-25 13060142
2022-09-19_22-16-25 13060142
2022-09-19_22-16-26 13060416
2022-09-19_22-16-26 13060416
2022-09-19_22-16-26 13061468
2022-09-19_22-16-26 13057263
2022-09-19_22-16-26 13057263
2022-09-19_22-16-26 13059861
2022-09-19_22-16-26 13059861
2022-09-19_22-16-26 13056443
2022-09-19_22-16-26 13056443
2022-09-19_22-16-26 13059222
2022-09-19_22-16-27 13056273
2022-09-19_22-16-27 13056273
2022-09-19_22-16-27 13059405
2022-09-19_22-16-27 13059405
2022-09-19_22-16-27 13061114
2022-09-19_22-16-27 13061272
2022-09-19_22-16-27 13061272
2022-09-19_22-16-27 13060548
2022-09-19_22-16-27 13060548
2022-09-19_22-16-27 13060263
2022-09-19_22-16-28 13060263
2022-09-19_22-16-28 13060765
2022-09-19_22-16-28 13059878
2022-09-19_22-16-28 13059878
2022-09-19_22-16-28 13060133
2022-09-19_22-16-28 13060133
2022-09-19_22-16-28 13058912
2022-09-19_22-16-28 13058912
2022-09-19_22-16-28 13058876
2022-09-19_22-16-28 13056417
2022-09-19_22-16-29 13056417
2022-09-19_22-16-29 13058903
2022-09-19_22-16-29 13058903
2022-09-19_22-16-29 13060503
2022-09-19_22-16-29 13060503
2022-09-19_22-16-29 13057962
2022-09-19_22-16-29 13057586
2022-09-19_22-16-29 13057586
2022-09-19_22-16-29 13060690
2022-09-19_22-16-29 13060690
2022-09-19_22-16-30 13062574
2022-09-19_22-16-30 13062574
2022-09-19_22-16-30 13057538
2022-09-19_22-16-30 13060302
2022-09-19_22-16-30 13060302
2022-09-19_22-16-30 13061452
2022-09-19_22-16-30 13061452
2022-09-19_22-16-30 13058491
2022-09-19_22-16-30 13058491
2022-09-19_22-16-30 13055156
2022-09-19_22-16-31 13057691
2022-09-19_22-16-31 13057691
2022-09-19_22-16-31 13061688
2022-09-19_22-16-31 13061688
2022-09-19_22-16-31 13061174
2022-09-19_22-16-31 13062094
2022-09-19_22-16-31 13062094
2022-09-19_22-16-31 13064561
2022-09-19_22-16-31 13064561
2022-09-19_22-16-31 13066367
2022-09-19_22-16-32 13066367
2022-09-19_22-16-32 13064826
2022-09-19_22-16-32 13062982
2022-09-19_22-16-32 13062982
2022-09-19_22-16-32 13060984
2022-09-19_22-16-32 13060984
2022-09-19_22-16-32 13064160
2022-09-19_22-16-32 13064160
2022-09-19_22-16-32 13061553
2022-09-19_22-16-32 13062138
2022-09-19_22-16-33 13062138
2022-09-19_22-16-33 13063175
2022-09-19_22-16-33 13063175
2022-09-19_22-16-33 13064196
2022-09-19_22-16-33 13064196
2022-09-19_22-16-33 13064583
2022-09-19_22-16-33 13062521
2022-09-19_22-16-33 13062521
2022-09-19_22-16-33 13060747
2022-09-19_22-16-33 13060747
2022-09-19_22-16-34 13058812
2022-09-19_22-16-34 13058812
2022-09-19_22-16-34 13058414
2022-09-19_22-16-34 13062070
2022-09-19_22-16-34 13062070
2022-09-19_22-16-34 13062345
2022-09-19_22-16-34 13062345
2022-09-19_22-16-34 13064081
2022-09-19_22-16-34 13066385
2022-09-19_22-16-34 13066385
2022-09-19_22-16-35 13066347
2022-09-19_22-16-35 13066347
2022-09-19_22-16-35 13066197
2022-09-19_22-16-35 13066197
2022-09-19_22-16-35 13060409
2022-09-19_22-16-35 13062209
2022-09-19_22-16-35 13062209
2022-09-19_22-16-35 13064088
2022-09-19_22-16-35 13064088
2022-09-19_22-16-35 13058062
2022-09-19_22-16-36 13058062
2022-09-19_22-16-36 13062436
2022-09-19_22-16-36 13063225
2022-09-19_22-16-36 13063225
2022-09-19_22-16-36 13063908
2022-09-19_22-16-36 13063908
2022-09-19_22-16-36 13063939
2022-09-19_22-16-36 13063939
2022-09-19_22-16-36 13064806
2022-09-19_22-16-36 13065158
2022-09-19_22-16-37 13065158
2022-09-19_22-16-37 13061342
2022-09-19_22-16-37 13061342
2022-09-19_22-16-37 13059158
2022-09-19_22-16-37 13059158
2022-09-19_22-16-37 13058730
2022-09-19_22-16-37 13058940
2022-09-19_22-16-37 13058940
2022-09-19_22-16-37 13063971
2022-09-19_22-16-37 13063971
2022-09-19_22-16-38 13064021
2022-09-19_22-16-38 13064021
2022-09-19_22-16-38 13062132
2022-09-19_22-16-38 13063960
2022-09-19_22-16-38 13063960
2022-09-19_22-16-38 13056824
2022-09-19_22-16-38 13056824
2022-09-19_22-16-38 13062341
2022-09-19_22-16-38 13062408
2022-09-19_22-16-38 13062408
2022-09-19_22-16-39 13061270
2022-09-19_22-16-39 13061270
2022-09-19_22-16-39 13061033
2022-09-19_22-16-39 13061033
2022-09-19_22-16-39 13061758
2022-09-19_22-16-39 13063082
2022-09-19_22-16-39 13063082
2022-09-19_22-16-39 13064707
2022-09-19_22-16-39 13064707
2022-09-19_22-16-39 13063463
2022-09-19_22-16-40 13063463
2022-09-19_22-16-40 13062428
2022-09-19_22-16-40 13063703
2022-09-19_22-16-40 13063703
2022-09-19_22-16-40 13065168
2022-09-19_22-16-40 13065168
2022-09-19_22-16-40 13062963
2022-09-19_22-16-40 13062963
2022-09-19_22-16-40 13062372
2022-09-19_22-16-40 13064250
2022-09-19_22-16-41 13064250
2022-09-19_22-16-41 13062745
2022-09-19_22-16-41 13062745
2022-09-19_22-16-41 13064733
2022-09-19_22-16-41 13064733
2022-09-19_22-16-41 13065460
2022-09-19_22-16-41 13061683
2022-09-19_22-16-41 13061683
2022-09-19_22-16-41 13063498
2022-09-19_22-16-41 13063498
2022-09-19_22-16-42 13062463
2022-09-19_22-16-42 13059793
2022-09-19_22-16-42 13059793
2022-09-19_22-16-42 13061603
2022-09-19_22-16-42 13061603
2022-09-19_22-16-42 13061605
2022-09-19_22-16-42 13061605
2022-09-19_22-16-42 13063656
2022-09-19_22-16-42 13060493
2022-09-19_22-16-43 13060493
2022-09-19_22-16-43 13058017
2022-09-19_22-16-43 13058017
2022-09-19_22-16-43 13060322
2022-09-19_22-16-43 13060322
2022-09-19_22-16-43 13062808
2022-09-19_22-16-43 13063374
2022-09-19_22-16-43 13063374
2022-09-19_22-16-43 13059936
2022-09-19_22-16-43 13059936
2022-09-19_22-16-44 13064338
2022-09-19_22-16-44 13064338
2022-09-19_22-16-44 13062328
2022-09-19_22-16-44 13061654
2022-09-19_22-16-44 13061654
2022-09-19_22-16-44 13062001
2022-09-19_22-16-44 13062001
2022-09-19_22-16-44 13061683
2022-09-19_22-16-44 13061683
2022-09-19_22-16-44 13063158
2022-09-19_22-16-45 13058492
2022-09-19_22-16-45 13058492
2022-09-19_22-16-45 13056482
2022-09-19_22-16-45 13056482
2022-09-19_22-16-45 13057488
2022-09-19_22-16-45 13057488
2022-09-19_22-16-45 13059667
2022-09-19_22-16-45 13060884
2022-09-19_22-16-45 13060884
2022-09-19_22-16-45 13057980
2022-09-19_22-16-46 13057980
2022-09-19_22-16-46 13056299
2022-09-19_22-16-46 13058018
2022-09-19_22-16-46 13058018
2022-09-19_22-16-46 13059361
2022-09-19_22-16-46 13059361
2022-09-19_22-16-46 13059798
2022-09-19_22-16-46 13059798
2022-09-19_22-16-46 13059804
2022-09-19_22-16-46 13063014
2022-09-19_22-16-47 13063014
2022-09-19_22-16-47 13063283
2022-09-19_22-16-47 13063283
2022-09-19_22-16-47 13063089
2022-09-19_22-16-47 13063089
2022-09-19_22-16-47 13059881
2022-09-19_22-16-47 13061861
2022-09-19_22-16-48 13061861
2022-09-19_22-16-48 13066685
2022-09-19_22-16-48 13066685
2022-09-19_22-16-48 13061542
2022-09-19_22-16-48 13061542
2022-09-19_22-16-48 13062451
2022-09-19_22-16-48 13061999
2022-09-19_22-16-48 13061999
2022-09-19_22-16-48 13064967
2022-09-19_22-16-48 13064967
2022-09-19_22-16-49 13065794
2022-09-19_22-16-49 13066348
2022-09-19_22-16-49 13066348
2022-09-19_22-16-49 13063859
2022-09-19_22-16-49 13063859
2022-09-19_22-16-49 13059850
2022-09-19_22-16-49 13059850
2022-09-19_22-16-49 13061809
2022-09-19_22-16-49 13062640
2022-09-19_22-16-49 13062640
2022-09-19_22-16-50 13064177
2022-09-19_22-16-50 13064177
2022-09-19_22-16-50 13063282
2022-09-19_22-16-50 13063282
2022-09-19_22-16-50 13061113
2022-09-19_22-16-50 13060643
2022-09-19_22-16-50 13060643
2022-09-19_22-16-50 13059375
2022-09-19_22-16-50 13059375
2022-09-19_22-16-51 13062793
2022-09-19_22-16-51 13062793
2022-09-19_22-16-51 13061787
2022-09-19_22-16-51 13063608
2022-09-19_22-16-51 13063608
2022-09-19_22-16-51 13063191
2022-09-19_22-16-51 13063191
2022-09-19_22-16-51 13062744
2022-09-19_22-16-51 13061938
2022-09-19_22-16-51 13061938
2022-09-19_22-16-52 13060506
2022-09-19_22-16-52 13060506
2022-09-19_22-16-52 13061451
2022-09-19_22-16-52 13061451
2022-09-19_22-16-52 13059526
2022-09-19_22-16-52 13061757
2022-09-19_22-16-52 13061757
2022-09-19_22-16-52 13062247
2022-09-19_22-16-52 13062247
2022-09-19_22-16-52 13061776
2022-09-19_22-16-53 13061776
2022-09-19_22-16-53 13059693
2022-09-19_22-16-53 13060587
2022-09-19_22-16-53 13060587
2022-09-19_22-16-53 13062187
2022-09-19_22-16-53 13062187
2022-09-19_22-16-53 13063041
2022-09-19_22-16-53 13063041
2022-09-19_22-16-53 13062601
2022-09-19_22-16-53 13060946
2022-09-19_22-16-54 13060946
2022-09-19_22-16-54 13065731
2022-09-19_22-16-54 13065731
2022-09-19_22-16-54 13065050
2022-09-19_22-16-54 13062818
2022-09-19_22-16-54 13062818
2022-09-19_22-16-54 13063909
2022-09-19_22-16-54 13063909
2022-09-19_22-16-54 13065357
2022-09-19_22-16-54 13065357
2022-09-19_22-16-55 13063168
2022-09-19_22-16-55 13064112
2022-09-19_22-16-55 13064112
2022-09-19_22-16-55 13063114
2022-09-19_22-16-55 13063114
2022-09-19_22-16-55 13061720
2022-09-19_22-16-55 13061720
2022-09-19_22-16-55 13062989
2022-09-19_22-16-55 13062268
2022-09-19_22-16-55 13062268
2022-09-19_22-16-56 13062073
2022-09-19_22-16-56 13062073
2022-09-19_22-16-56 13065654
2022-09-19_22-16-56 13065654
2022-09-19_22-16-56 13063460
2022-09-19_22-16-56 13063647
2022-09-19_22-16-56 13063647
2022-09-19_22-16-56 13065047
2022-09-19_22-16-56 13065047
2022-09-19_22-16-56 13062524
2022-09-19_22-16-57 13065010
2022-09-19_22-16-57 13065010
2022-09-19_22-16-57 13060402
2022-09-19_22-16-57 13060402
2022-09-19_22-16-57 13061527
2022-09-19_22-16-57 13061527
2022-09-19_22-16-57 13061510
2022-09-19_22-16-57 13058013
2022-09-19_22-16-57 13058013
2022-09-19_22-16-57 13058595
2022-09-19_22-16-58 13058595
2022-09-19_22-16-58 13061081
2022-09-19_22-16-58 13061081
2022-09-19_22-16-58 13063513
2022-09-19_22-16-58 13065162
2022-09-19_22-16-58 13065162
2022-09-19_22-16-58 13064405
2022-09-19_22-16-58 13064405
2022-09-19_22-16-58 13064256
2022-09-19_22-16-58 13064256
2022-09-19_22-16-59 13067104
2022-09-19_22-16-59 13067639
2022-09-19_22-16-59 13067639
2022-09-19_22-16-59 13063861
2022-09-19_22-16-59 13063861
2022-09-19_22-16-59 13064085
2022-09-19_22-16-59 13064402
2022-09-19_22-16-59 13064402
2022-09-19_22-16-59 13066564
2022-09-19_22-16-59 13066564
2022-09-19_22-17-00 13065934
2022-09-19_22-17-00 13065934
2022-09-19_22-17-00 13066126
2022-09-19_22-17-00 13065791
2022-09-19_22-17-00 13065791
2022-09-19_22-17-00 13067768
2022-09-19_22-17-00 13067768
2022-09-19_22-17-00 13066950
2022-09-19_22-17-00 13066950
2022-09-19_22-17-00 13065448
2022-09-19_22-17-01 13069947
2022-09-19_22-17-01 13069947
2022-09-19_22-17-01 13067890
2022-09-19_22-17-01 13067890
2022-09-19_22-17-01 13068416
2022-09-19_22-17-01 13068416
2022-09-19_22-17-01 13065197
2022-09-19_22-17-01 13067149
2022-09-19_22-17-01 13067149
2022-09-19_22-17-01 13065408
2022-09-19_22-17-02 13065408
2022-09-19_22-17-02 13064863
2022-09-19_22-17-02 13061831
2022-09-19_22-17-02 13061831
2022-09-19_22-17-02 13062301
2022-09-19_22-17-02 13062301
2022-09-19_22-17-02 13063462
2022-09-19_22-17-02 13063462
2022-09-19_22-17-02 13062281
2022-09-19_22-17-03 13065968
2022-09-19_22-17-03 13065968
2022-09-19_22-17-03 13065215
2022-09-19_22-17-03 13065215
2022-09-19_22-17-03 13062380
2022-09-19_22-17-03 13062380
2022-09-19_22-17-03 13061012
2022-09-19_22-17-03 13064588
2022-09-19_22-17-03 13064588
2022-09-19_22-17-03 13062797
2022-09-19_22-17-04 13062797
2022-09-19_22-17-04 13063023
2022-09-19_22-17-04 13063023
2022-09-19_22-17-04 13062691
2022-09-19_22-17-04 13062404
2022-09-19_22-17-04 13062404
2022-09-19_22-17-04 13061975
2022-09-19_22-17-04 13061975
2022-09-19_22-17-04 13062055
2022-09-19_22-17-04 13061475
2022-09-19_22-17-05 13061475
2022-09-19_22-17-05 13062298
2022-09-19_22-17-05 13062298
2022-09-19_22-17-05 13061071
2022-09-19_22-17-05 13061071
2022-09-19_22-17-05 13057220
2022-09-19_22-17-05 13059947
2022-09-19_22-17-05 13059947
2022-09-19_22-17-05 13065068
2022-09-19_22-17-05 13065068
2022-09-19_22-17-06 13065132
2022-09-19_22-17-06 13065132
2022-09-19_22-17-06 13062992
2022-09-19_22-17-06 13060227
2022-09-19_22-17-06 13060227
2022-09-19_22-17-06 13060671
2022-09-19_22-17-06 13060671
2022-09-19_22-17-06 13058794
2022-09-19_22-17-06 13058794
2022-09-19_22-17-06 13063836
2022-09-19_22-17-07 13064020
2022-09-19_22-17-07 13064020
2022-09-19_22-17-07 13059397
2022-09-19_22-17-07 13059397
2022-09-19_22-17-07 13062600
2022-09-19_22-17-07 13065361
2022-09-19_22-17-07 13065361
2022-09-19_22-17-07 13063280
2022-09-19_22-17-07 13063280
2022-09-19_22-17-07 13061368
2022-09-19_22-17-08 13061368
2022-09-19_22-17-08 13062507
2022-09-19_22-17-08 13064449
2022-09-19_22-17-08 13064449
2022-09-19_22-17-08 13062729
2022-09-19_22-17-08 13062729
2022-09-19_22-17-08 13059357
2022-09-19_22-17-08 13059357
2022-09-19_22-17-08 13062552
2022-09-19_22-17-08 13062695
2022-09-19_22-17-09 13062695
2022-09-19_22-17-09 13061405
2022-09-19_22-17-09 13061405
2022-09-19_22-17-09 13062422
2022-09-19_22-17-09 13062422
2022-09-19_22-17-09 13061776
2022-09-19_22-17-09 13061674
2022-09-19_22-17-09 13061674
2022-09-19_22-17-09 13061308
2022-09-19_22-17-09 13061308
2022-09-19_22-17-10 13062031
2022-09-19_22-17-10 13062391
2022-09-19_22-17-10 13062391
2022-09-19_22-17-10 13064065
2022-09-19_22-17-10 13064065
2022-09-19_22-17-10 13058706
2022-09-19_22-17-10 13058706
2022-09-19_22-17-10 13062817
2022-09-19_22-17-10 13066165
2022-09-19_22-17-10 13066165
2022-09-19_22-17-11 13066435
2022-09-19_22-17-11 13066435
2022-09-19_22-17-11 13063413
2022-09-19_22-17-11 13063413
2022-09-19_22-17-11 13061893
2022-09-19_22-17-11 13064763
2022-09-19_22-17-11 13064763
2022-09-19_22-17-11 13066202
2022-09-19_22-17-11 13066202
2022-09-19_22-17-11 13066355
2022-09-19_22-17-12 13066355
2022-09-19_22-17-12 13062749
2022-09-19_22-17-12 13060605
2022-09-19_22-17-12 13060605
2022-09-19_22-17-12 13063800
2022-09-19_22-17-12 13063800
2022-09-19_22-17-12 13065015
2022-09-19_22-17-12 13062553
2022-09-19_22-17-12 13062553
2022-09-19_22-17-12 13061007
2022-09-19_22-17-13 13061007
2022-09-19_22-17-13 13061046
2022-09-19_22-17-13 13061046
2022-09-19_22-17-13 13062927
2022-09-19_22-17-13 13058231
2022-09-19_22-17-13 13058231
2022-09-19_22-17-13 13062998
2022-09-19_22-17-13 13062998
2022-09-19_22-17-13 13061479
2022-09-19_22-17-13 13061479
2022-09-19_22-17-14 13062843
2022-09-19_22-17-14 13064547
2022-09-19_22-17-14 13064547
2022-09-19_22-17-14 13064291
2022-09-19_22-17-14 13064291
2022-09-19_22-17-14 13064213
2022-09-19_22-17-14 13064213
2022-09-19_22-17-14 13062020
2022-09-19_22-17-14 13062975
2022-09-19_22-17-15 13062975
2022-09-19_22-17-15 13064002
2022-09-19_22-17-15 13064002
2022-09-19_22-17-15 13062356
2022-09-19_22-17-15 13059490
2022-09-19_22-17-15 13059490
2022-09-19_22-17-15 13057650
2022-09-19_22-17-15 13057650
2022-09-19_22-17-15 13058040
2022-09-19_22-17-15 13058040
2022-09-19_22-17-16 13062251
2022-09-19_22-17-16 13062239
2022-09-19_22-17-16 13062239
2022-09-19_22-17-16 13059981
2022-09-19_22-17-16 13059981
2022-09-19_22-17-16 13064702
2022-09-19_22-17-16 13064702
2022-09-19_22-17-16 13063400
2022-09-19_22-17-16 13062027
2022-09-19_22-17-16 13062027
2022-09-19_22-17-17 13059338
2022-09-19_22-17-17 13059338
2022-09-19_22-17-17 13064041
2022-09-19_22-17-17 13064041
2022-09-19_22-17-17 13062606
2022-09-19_22-17-17 13062790
2022-09-19_22-17-17 13062790
2022-09-19_22-17-17 13063239
2022-09-19_22-17-17 13063239
2022-09-19_22-17-17 13061358
2022-09-19_22-17-18 13064272
2022-09-19_22-17-18 13064272
2022-09-19_22-17-18 13061137
2022-09-19_22-17-18 13061137
2022-09-19_22-17-18 13062344
2022-09-19_22-17-18 13062344
2022-09-19_22-17-18 13062532
2022-09-19_22-17-18 13061208
2022-09-19_22-17-18 13061208
2022-09-19_22-17-18 13063320
2022-09-19_22-17-19 13063320
2022-09-19_22-17-19 13061946
2022-09-19_22-17-19 13061946
2022-09-19_22-17-19 13062594
2022-09-19_22-17-19 13061123
2022-09-19_22-17-19 13061123
2022-09-19_22-17-19 13059637
2022-09-19_22-17-19 13059637
2022-09-19_22-17-19 13061654
2022-09-19_22-17-19 13061654
2022-09-19_22-17-20 13062237
2022-09-19_22-17-20 13060711
2022-09-19_22-17-20 13060711
2022-09-19_22-17-20 13061815
2022-09-19_22-17-20 13061815
2022-09-19_22-17-20 13063586
2022-09-19_22-17-20 13063586
2022-09-19_22-17-20 13064545
2022-09-19_22-17-20 13061982
2022-09-19_22-17-20 13061982
2022-09-19_22-17-21 13060784
2022-09-19_22-17-21 13060784
2022-09-19_22-17-21 13062035
2022-09-19_22-17-21 13059835
2022-09-19_22-17-21 13059835
2022-09-19_22-17-21 13064032
2022-09-19_22-17-21 13064032
2022-09-19_22-17-21 13064382
2022-09-19_22-17-21 13064382
2022-09-19_22-17-21 13064312
2022-09-19_22-17-22 13061148
2022-09-19_22-17-22 13061148
2022-09-19_22-17-22 13060543
2022-09-19_22-17-22 13060543
2022-09-19_22-17-22 13063392
2022-09-19_22-17-22 13063392
2022-09-19_22-17-22 13061636
2022-09-19_22-17-22 13061331
2022-09-19_22-17-22 13061331
2022-09-19_22-17-22 13060196
2022-09-19_22-17-23 13060196
2022-09-19_22-17-23 13062637
2022-09-19_22-17-23 13062637
2022-09-19_22-17-23 13061007
2022-09-19_22-17-23 13058926
2022-09-19_22-17-23 13058926
2022-09-19_22-17-23 13061442
2022-09-19_22-17-23 13061442
2022-09-19_22-17-23 13061698
2022-09-19_22-17-23 13061490
2022-09-19_22-17-24 13061490
2022-09-19_22-17-24 13059388
2022-09-19_22-17-24 13059388
2022-09-19_22-17-24 13062859
2022-09-19_22-17-24 13062859
2022-09-19_22-17-24 13063568
2022-09-19_22-17-24 13061532
2022-09-19_22-17-24 13061532
2022-09-19_22-17-24 13061689
2022-09-19_22-17-24 13061689
2022-09-19_22-17-25 13064444
2022-09-19_22-17-25 13064444
2022-09-19_22-17-25 13064174
2022-09-19_22-17-25 13064576
2022-09-19_22-17-25 13064576
2022-09-19_22-17-25 13062681
2022-09-19_22-17-25 13062681
2022-09-19_22-17-25 13061386
2022-09-19_22-17-25 13061386
2022-09-19_22-17-25 13062546
2022-09-19_22-17-26 13064040
2022-09-19_22-17-26 13064040
2022-09-19_22-17-26 13061404
2022-09-19_22-17-26 13061404
2022-09-19_22-17-26 13063039
2022-09-19_22-17-26 13064281
2022-09-19_22-17-26 13064281
2022-09-19_22-17-26 13063512
2022-09-19_22-17-26 13063512
2022-09-19_22-17-26 13061183
2022-09-19_22-17-27 13061183
2022-09-19_22-17-27 13057431
2022-09-19_22-17-27 13058918
2022-09-19_22-17-27 13058918
2022-09-19_22-17-27 13064222
2022-09-19_22-17-27 13064222
2022-09-19_22-17-27 13059812
2022-09-19_22-17-27 13059812
2022-09-19_22-17-27 13063337
2022-09-19_22-17-28 13061936
2022-09-19_22-17-28 13061936
2022-09-19_22-17-28 13062860
2022-09-19_22-17-28 13062860
2022-09-19_22-17-28 13064139
2022-09-19_22-17-28 13064139
2022-09-19_22-17-28 13065799
2022-09-19_22-17-28 13062231
2022-09-19_22-17-28 13062231
2022-09-19_22-17-28 13060910
2022-09-19_22-17-29 13060910
2022-09-19_22-17-29 13059929
2022-09-19_22-17-29 13065037
2022-09-19_22-17-29 13065037
2022-09-19_22-17-29 13063823
2022-09-19_22-17-29 13063823
2022-09-19_22-17-29 13062031
2022-09-19_22-17-29 13062031
2022-09-19_22-17-29 13062453
2022-09-19_22-17-29 13063172
2022-09-19_22-17-30 13063172
2022-09-19_22-17-30 13061207
2022-09-19_22-17-30 13061207
2022-09-19_22-17-30 13066780
2022-09-19_22-17-30 13066780
2022-09-19_22-17-30 13065939
2022-09-19_22-17-30 13065823
2022-09-19_22-17-30 13065823
2022-09-19_22-17-30 13066543
2022-09-19_22-17-30 13066543
2022-09-19_22-17-31 13062718
2022-09-19_22-17-31 13062718
2022-09-19_22-17-31 13065820
2022-09-19_22-17-31 13062706
2022-09-19_22-17-31 13062706
2022-09-19_22-17-31 13064025
2022-09-19_22-17-31 13064025
2022-09-19_22-17-31 13065564
2022-09-19_22-17-31 13065625
2022-09-19_22-17-31 13065625
2022-09-19_22-17-32 13068730
2022-09-19_22-17-32 13068730
2022-09-19_22-17-32 13061739
2022-09-19_22-17-32 13061739
2022-09-19_22-17-32 13067466
2022-09-19_22-17-32 13065737
2022-09-19_22-17-32 13065737
2022-09-19_22-17-32 13064293
2022-09-19_22-17-32 13064293
2022-09-19_22-17-32 13065043
2022-09-19_22-17-33 13065043
2022-09-19_22-17-33 13067548
2022-09-19_22-17-33 13066554
2022-09-19_22-17-33 13066554
2022-09-19_22-17-33 13069046
2022-09-19_22-17-33 13069046
2022-09-19_22-17-33 13067874
2022-09-19_22-17-33 13067874
2022-09-19_22-17-33 13067574
2022-09-19_22-17-33 13066766
2022-09-19_22-17-34 13066766
2022-09-19_22-17-34 13065820
2022-09-19_22-17-34 13065820
2022-09-19_22-17-34 13066198
2022-09-19_22-17-34 13063840
2022-09-19_22-17-34 13063840
2022-09-19_22-17-34 13061901
2022-09-19_22-17-34 13061901
2022-09-19_22-17-34 13059986
2022-09-19_22-17-34 13059986
2022-09-19_22-17-35 13064813
2022-09-19_22-17-35 13063370
2022-09-19_22-17-35 13063370
2022-09-19_22-17-35 13067975
2022-09-19_22-17-35 13067975
2022-09-19_22-17-35 13068421
2022-09-19_22-17-35 13068421
2022-09-19_22-17-35 13069760
2022-09-19_22-17-35 13067869
2022-09-19_22-17-35 13067869
2022-09-19_22-17-36 13065315
2022-09-19_22-17-36 13065315
2022-09-19_22-17-36 13065049
2022-09-19_22-17-36 13065049
2022-09-19_22-17-36 13067130
2022-09-19_22-17-36 13068604
2022-09-19_22-17-36 13068604
2022-09-19_22-17-36 13067036
2022-09-19_22-17-36 13067036
2022-09-19_22-17-36 13067688
2022-09-19_22-17-37 13069428
2022-09-19_22-17-37 13069428
2022-09-19_22-17-37 13068695
2022-09-19_22-17-37 13068695
2022-09-19_22-17-37 13069913
2022-09-19_22-17-37 13069913
2022-09-19_22-17-37 13064683
2022-09-19_22-17-37 13066778
2022-09-19_22-17-37 13066778
2022-09-19_22-17-37 13067830
2022-09-19_22-17-38 13067830
2022-09-19_22-17-38 13068005
2022-09-19_22-17-38 13068005
2022-09-19_22-17-38 13066868
2022-09-19_22-17-38 13065158
2022-09-19_22-17-38 13065158
2022-09-19_22-17-38 13066820
2022-09-19_22-17-38 13066820
2022-09-19_22-17-38 13065121
2022-09-19_22-17-38 13065121
2022-09-19_22-17-39 13062694
2022-09-19_22-17-39 13066208
2022-09-19_22-17-39 13066208
2022-09-19_22-17-39 13065793
2022-09-19_22-17-39 13065793
2022-09-19_22-17-39 13064517
2022-09-19_22-17-39 13067379
2022-09-19_22-17-39 13067379
2022-09-19_22-17-39 13064616
2022-09-19_22-17-40 13064616
2022-09-19_22-17-40 13059665
2022-09-19_22-17-40 13059665
2022-09-19_22-17-40 13062208
2022-09-19_22-17-40 13060455
2022-09-19_22-17-40 13060455
2022-09-19_22-17-40 13065864
2022-09-19_22-17-40 13065864
2022-09-19_22-17-40 13065008
2022-09-19_22-17-40 13065008
2022-09-19_22-17-41 13064080
2022-09-19_22-17-41 13065512
2022-09-19_22-17-41 13065512
2022-09-19_22-17-41 13069495
2022-09-19_22-17-41 13069495
2022-09-19_22-17-41 13067497
2022-09-19_22-17-41 13067497
2022-09-19_22-17-41 13067272
2022-09-19_22-17-41 13066116
2022-09-19_22-17-41 13066116
2022-09-19_22-17-42 13065088
2022-09-19_22-17-42 13065088
2022-09-19_22-17-42 13066501
2022-09-19_22-17-42 13067719
2022-09-19_22-17-42 13067719
2022-09-19_22-17-42 13068515
2022-09-19_22-17-42 13068515
2022-09-19_22-17-42 13066151
2022-09-19_22-17-42 13066151
2022-09-19_22-17-42 13065187
2022-09-19_22-17-43 13068266
2022-09-19_22-17-43 13068266
2022-09-19_22-17-43 13068562
2022-09-19_22-17-43 13068562
2022-09-19_22-17-43 13061360
2022-09-19_22-17-43 13061360
2022-09-19_22-17-43 13064181
2022-09-19_22-17-43 13063864
2022-09-19_22-17-43 13063864
2022-09-19_22-17-43 13063531
2022-09-19_22-17-44 13063531
2022-09-19_22-17-44 13065832
2022-09-19_22-17-44 13065832
2022-09-19_22-17-44 13066839
2022-09-19_22-17-44 13063552
2022-09-19_22-17-44 13063552
2022-09-19_22-17-44 13064351
2022-09-19_22-17-44 13064351
2022-09-19_22-17-44 13065806
2022-09-19_22-17-44 13065856
2022-09-19_22-17-45 13065856
2022-09-19_22-17-45 13062352
2022-09-19_22-17-45 13062352
2022-09-19_22-17-45 13063440
2022-09-19_22-17-45 13063440
2022-09-19_22-17-45 13065909
2022-09-19_22-17-45 13066232
2022-09-19_22-17-45 13066232
2022-09-19_22-17-45 13065729
2022-09-19_22-17-45 13065729
2022-09-19_22-17-46 13068020
2022-09-19_22-17-46 13068020
2022-09-19_22-17-46 13064038
2022-09-19_22-17-46 13063226
2022-09-19_22-17-46 13063226
2022-09-19_22-17-46 13061649
2022-09-19_22-17-46 13061649
2022-09-19_22-17-46 13059268
2022-09-19_22-17-46 13059268
2022-09-19_22-17-46 13060095
2022-09-19_22-17-47 13061551
2022-09-19_22-17-47 13061551
2022-09-19_22-17-47 13062288
2022-09-19_22-17-47 13062288
2022-09-19_22-17-47 13061506
2022-09-19_22-17-47 13057628
2022-09-19_22-17-47 13057628
2022-09-19_22-17-47 13058484
2022-09-19_22-17-47 13058484
2022-09-19_22-17-47 13057001
2022-09-19_22-17-48 13057001
2022-09-19_22-17-48 13057340
2022-09-19_22-17-48 13061788
2022-09-19_22-17-48 13061788
2022-09-19_22-17-48 13057713
2022-09-19_22-17-48 13057713
2022-09-19_22-17-48 13060542
2022-09-19_22-17-48 13060542
2022-09-19_22-17-48 13057214
2022-09-19_22-17-48 13063131
2022-09-19_22-17-49 13063131
2022-09-19_22-17-49 13062532
2022-09-19_22-17-49 13062532
2022-09-19_22-17-49 13063406
2022-09-19_22-17-49 13063406
2022-09-19_22-17-49 13058470
2022-09-19_22-17-49 13058921
2022-09-19_22-17-49 13058921
2022-09-19_22-17-49 13063487
2022-09-19_22-17-49 13063487
2022-09-19_22-17-50 13060570
2022-09-19_22-17-50 13060570
2022-09-19_22-17-50 13063149
2022-09-19_22-17-50 13060098
2022-09-19_22-17-50 13060098
2022-09-19_22-17-50 13058951
2022-09-19_22-17-50 13058951
2022-09-19_22-17-50 13063121
2022-09-19_22-17-50 13063121
2022-09-19_22-17-50 13061385
2022-09-19_22-17-51 13059861
2022-09-19_22-17-51 13059861
2022-09-19_22-17-51 13064826
2022-09-19_22-17-51 13064826
2022-09-19_22-17-51 13064495
2022-09-19_22-17-51 13064495
2022-09-19_22-17-51 13063007
2022-09-19_22-17-51 13063223
2022-09-19_22-17-51 13063223
2022-09-19_22-17-51 13062323
2022-09-19_22-17-52 13062323
2022-09-19_22-17-52 13063163
2022-09-19_22-17-52 13060938
2022-09-19_22-17-52 13060938
2022-09-19_22-17-52 13064056
2022-09-19_22-17-52 13064056
2022-09-19_22-17-52 13063319
2022-09-19_22-17-52 13063319
2022-09-19_22-17-52 13067727
2022-09-19_22-17-52 13065932
2022-09-19_22-17-53 13065932
2022-09-19_22-17-53 13065117
2022-09-19_22-17-53 13065117
2022-09-19_22-17-53 13063827
2022-09-19_22-17-53 13063827
2022-09-19_22-17-53 13063729
2022-09-19_22-17-53 13060881
2022-09-19_22-17-53 13060881
2022-09-19_22-17-53 13065972
2022-09-19_22-17-53 13065972
2022-09-19_22-17-54 13067423
2022-09-19_22-17-54 13067423
2022-09-19_22-17-54 13065528
2022-09-19_22-17-54 13061505
2022-09-19_22-17-54 13061505
2022-09-19_22-17-54 13060289
2022-09-19_22-17-54 13060289
2022-09-19_22-17-54 13067003
2022-09-19_22-17-54 13067003
2022-09-19_22-17-54 13067131
2022-09-19_22-17-55 13063703
2022-09-19_22-17-55 13063703
2022-09-19_22-17-55 13062753
2022-09-19_22-17-55 13062753
2022-09-19_22-17-55 13062732
2022-09-19_22-17-55 13062098
2022-09-19_22-17-55 13062098
2022-09-19_22-17-55 13062805
2022-09-19_22-17-55 13062805
2022-09-19_22-17-55 13063614
2022-09-19_22-17-56 13063614
2022-09-19_22-17-56 13058697
2022-09-19_22-17-56 13061620
2022-09-19_22-17-56 13061620
2022-09-19_22-17-56 13063776
2022-09-19_22-17-56 13063776
2022-09-19_22-17-56 13065329
2022-09-19_22-17-56 13065329
2022-09-19_22-17-56 13066403
2022-09-19_22-17-57 13062238
2022-09-19_22-17-57 13062238
2022-09-19_22-17-57 13060838
2022-09-19_22-17-57 13060838
2022-09-19_22-17-57 13057470
2022-09-19_22-17-57 13057470
2022-09-19_22-17-57 13061404
2022-09-19_22-17-57 13064692
2022-09-19_22-17-57 13064692
2022-09-19_22-17-57 13061468
2022-09-19_22-17-58 13061468
2022-09-19_22-17-58 13066578
2022-09-19_22-17-58 13066578
2022-09-19_22-17-58 13065504
2022-09-19_22-17-58 13067525
2022-09-19_22-17-58 13067525
2022-09-19_22-17-58 13061014
2022-09-19_22-17-58 13061014
2022-09-19_22-17-58 13061310
2022-09-19_22-17-58 13061310
2022-09-19_22-17-59 13061080
2022-09-19_22-17-59 13065534
2022-09-19_22-17-59 13065534
2022-09-19_22-17-59 13065158
2022-09-19_22-17-59 13065158
2022-09-19_22-17-59 13066165
2022-09-19_22-17-59 13066467
2022-09-19_22-17-59 13066467
2022-09-19_22-17-59 13064615
2022-09-19_22-17-59 13064615
2022-09-19_22-18-00 13065589
2022-09-19_22-18-00 13065589
2022-09-19_22-18-00 13064103
2022-09-19_22-18-00 13063886
2022-09-19_22-18-00 13063886
2022-09-19_22-18-00 13064256
2022-09-19_22-18-00 13064256
2022-09-19_22-18-00 13065302
2022-09-19_22-18-00 13065302
2022-09-19_22-18-00 13062860
2022-09-19_22-18-01 13061182
2022-09-19_22-18-01 13061182
2022-09-19_22-18-01 13060367
2022-09-19_22-18-01 13060367
2022-09-19_22-18-01 13060806
2022-09-19_22-18-01 13060806
2022-09-19_22-18-01 13063242
2022-09-19_22-18-01 13064756
2022-09-19_22-18-01 13064756
2022-09-19_22-18-01 13063436
2022-09-19_22-18-02 13063436
2022-09-19_22-18-02 13062077
2022-09-19_22-18-02 13062077
2022-09-19_22-18-02 13063938
2022-09-19_22-18-02 13065508
2022-09-19_22-18-02 13065508
2022-09-19_22-18-02 13062366
2022-09-19_22-18-02 13062366
2022-09-19_22-18-02 13062314
2022-09-19_22-18-02 13062314
2022-09-19_22-18-03 13062043
2022-09-19_22-18-03 13063240
2022-09-19_22-18-03 13063240
2022-09-19_22-18-03 13062151
2022-09-19_22-18-03 13062151
2022-09-19_22-18-03 13063119
2022-09-19_22-18-03 13065375
2022-09-19_22-18-03 13065375
2022-09-19_22-18-03 13064206
2022-09-19_22-18-03 13064206
2022-09-19_22-18-04 13062438
2022-09-19_22-18-04 13062438
2022-09-19_22-18-04 13061963
2022-09-19_22-18-04 13062979
2022-09-19_22-18-04 13062979
2022-09-19_22-18-04 13065662
2022-09-19_22-18-04 13065662
2022-09-19_22-18-04 13066374
2022-09-19_22-18-04 13066374
2022-09-19_22-18-04 13065901
2022-09-19_22-18-05 13065301
2022-09-19_22-18-05 13065301
2022-09-19_22-18-05 13063377
2022-09-19_22-18-05 13063377
2022-09-19_22-18-05 13060980
2022-09-19_22-18-05 13060980
2022-09-19_22-18-05 13061182
2022-09-19_22-18-05 13062305
2022-09-19_22-18-05 13062305
2022-09-19_22-18-05 13063264
2022-09-19_22-18-06 13063264
2022-09-19_22-18-06 13063570
2022-09-19_22-18-06 13063570
2022-09-19_22-18-06 13066012
2022-09-19_22-18-06 13062868
2022-09-19_22-18-06 13062868
2022-09-19_22-18-06 13064447
2022-09-19_22-18-06 13064447
2022-09-19_22-18-06 13061929
2022-09-19_22-18-06 13061929
2022-09-19_22-18-07 13062214
2022-09-19_22-18-07 13063793
2022-09-19_22-18-07 13063793
2022-09-19_22-18-07 13062928
2022-09-19_22-18-07 13062928
2022-09-19_22-18-07 13062834
2022-09-19_22-18-07 13063781
2022-09-19_22-18-07 13063781
2022-09-19_22-18-07 13062551
2022-09-19_22-18-07 13062551
2022-09-19_22-18-08 13061671
2022-09-19_22-18-08 13061671
2022-09-19_22-18-08 13062380
2022-09-19_22-18-08 13062371
2022-09-19_22-18-08 13062371
2022-09-19_22-18-08 13064141
2022-09-19_22-18-08 13064141
2022-09-19_22-18-08 13061612
2022-09-19_22-18-08 13061612
2022-09-19_22-18-08 13065845
2022-09-19_22-18-09 13060935
2022-09-19_22-18-09 13060935
2022-09-19_22-18-09 13061023
2022-09-19_22-18-09 13061023
2022-09-19_22-18-09 13061375
2022-09-19_22-18-09 13061375
2022-09-19_22-18-09 13058031
2022-09-19_22-18-09 13061472
2022-09-19_22-18-09 13061472
2022-09-19_22-18-09 13061945
2022-09-19_22-18-10 13061945
2022-09-19_22-18-10 13060454
2022-09-19_22-18-10 13060454
2022-09-19_22-18-10 13063144
2022-09-19_22-18-10 13063128
2022-09-19_22-18-10 13063128
2022-09-19_22-18-10 13065137
2022-09-19_22-18-10 13065137
2022-09-19_22-18-10 13062807
2022-09-19_22-18-10 13062807
2022-09-19_22-18-11 13061886
2022-09-19_22-18-11 13063559
2022-09-19_22-18-11 13063559
2022-09-19_22-18-11 13060148
2022-09-19_22-18-11 13060148
2022-09-19_22-18-11 13063714
2022-09-19_22-18-11 13062546
2022-09-19_22-18-11 13062546
2022-09-19_22-18-11 13061311
2022-09-19_22-18-11 13061311
2022-09-19_22-18-12 13060362
2022-09-19_22-18-12 13060362
2022-09-19_22-18-12 13055386
2022-09-19_22-18-12 13058878
2022-09-19_22-18-12 13058878
2022-09-19_22-18-12 13060871
2022-09-19_22-18-12 13060871
2022-09-19_22-18-12 13061834
2022-09-19_22-18-12 13061834
2022-09-19_22-18-12 13061308
2022-09-19_22-18-13 13061878
2022-09-19_22-18-13 13061878
2022-09-19_22-18-13 13061945
2022-09-19_22-18-13 13061945
2022-09-19_22-18-13 13059749
2022-09-19_22-18-13 13059749
2022-09-19_22-18-13 13061355
2022-09-19_22-18-13 13057776
2022-09-19_22-18-13 13057776
2022-09-19_22-18-13 13059456
2022-09-19_22-18-14 13059456
2022-09-19_22-18-14 13060993
2022-09-19_22-18-14 13060993
2022-09-19_22-18-14 13060812
2022-09-19_22-18-14 13063969
2022-09-19_22-18-14 13063969
2022-09-19_22-18-14 13062614
2022-09-19_22-18-14 13062614
2022-09-19_22-18-14 13062091
2022-09-19_22-18-14 13058108
2022-09-19_22-18-15 13058108
2022-09-19_22-18-15 13063977
2022-09-19_22-18-15 13063977
2022-09-19_22-18-15 13061359
2022-09-19_22-18-15 13061359
2022-09-19_22-18-15 13062148
2022-09-19_22-18-15 13059854
2022-09-19_22-18-15 13059854
2022-09-19_22-18-15 13060584
2022-09-19_22-18-15 13060584
2022-09-19_22-18-16 13061694
2022-09-19_22-18-16 13061694
2022-09-19_22-18-16 13060651
2022-09-19_22-18-16 13064301
2022-09-19_22-18-16 13064301
2022-09-19_22-18-16 13060877
2022-09-19_22-18-16 13060877
2022-09-19_22-18-16 13063721
2022-09-19_22-18-16 13063721
2022-09-19_22-18-17 13062968
2022-09-19_22-18-17 13062737
2022-09-19_22-18-17 13062737
2022-09-19_22-18-17 13064180
2022-09-19_22-18-17 13064180
2022-09-19_22-18-17 13063196
2022-09-19_22-18-17 13064638
2022-09-19_22-18-17 13064638
2022-09-19_22-18-18 13066443
2022-09-19_22-18-18 13066443
2022-09-19_22-18-18 13060530
2022-09-19_22-18-18 13059804
2022-09-19_22-18-18 13059804
2022-09-19_22-18-18 13057296
2022-09-19_22-18-18 13057296
2022-09-19_22-18-18 13060521
2022-09-19_22-18-18 13060521
2022-09-19_22-18-18 13062788
2022-09-19_22-18-19 13062669
2022-09-19_22-18-19 13062669
2022-09-19_22-18-19 13061271
2022-09-19_22-18-19 13061271
2022-09-19_22-18-19 13059521
2022-09-19_22-18-19 13061436
2022-09-19_22-18-19 13061436
2022-09-19_22-18-19 13060160
2022-09-19_22-18-19 13060160
2022-09-19_22-18-19 13057102
2022-09-19_22-18-20 13057102
2022-09-19_22-18-20 13061958
2022-09-19_22-18-20 13062578
2022-09-19_22-18-20 13062578
2022-09-19_22-18-20 13062464
2022-09-19_22-18-20 13062464
2022-09-19_22-18-20 13059171
2022-09-19_22-18-20 13059171
2022-09-19_22-18-20 13062930
2022-09-19_22-18-20 13061655
2022-09-19_22-18-21 13061655
2022-09-19_22-18-21 13063436
2022-09-19_22-18-21 13063436
2022-09-19_22-18-21 13060035
2022-09-19_22-18-21 13060035
2022-09-19_22-18-21 13063629
2022-09-19_22-18-21 13065037
2022-09-19_22-18-21 13065037
2022-09-19_22-18-21 13061695
2022-09-19_22-18-21 13061695
2022-09-19_22-18-22 13065585
2022-09-19_22-18-22 13064474
2022-09-19_22-18-22 13064474
2022-09-19_22-18-22 13064054
2022-09-19_22-18-22 13064054
2022-09-19_22-18-22 13064758
2022-09-19_22-18-22 13064758
2022-09-19_22-18-22 13062640
2022-09-19_22-18-22 13064379
2022-09-19_22-18-22 13064379
2022-09-19_22-18-23 13066221
2022-09-19_22-18-23 13066221
2022-09-19_22-18-23 13064621
2022-09-19_22-18-23 13064621
2022-09-19_22-18-23 13061738
2022-09-19_22-18-23 13061028
2022-09-19_22-18-23 13061028
2022-09-19_22-18-23 13059439
2022-09-19_22-18-23 13059439
2022-09-19_22-18-23 13061870
2022-09-19_22-18-24 13061870
2022-09-19_22-18-24 13056379
2022-09-19_22-18-24 13057313
2022-09-19_22-18-24 13057313
2022-09-19_22-18-24 13054750
2022-09-19_22-18-24 13054750
2022-09-19_22-18-24 13059976
2022-09-19_22-18-24 13061793
2022-09-19_22-18-24 13061793
2022-09-19_22-18-24 13064076
2022-09-19_22-18-25 13064076
2022-09-19_22-18-25 13062503
2022-09-19_22-18-25 13062503
2022-09-19_22-18-25 13063232
2022-09-19_22-18-25 13064747
2022-09-19_22-18-25 13064747
2022-09-19_22-18-25 13061088
2022-09-19_22-18-25 13061088
2022-09-19_22-18-25 13062592
2022-09-19_22-18-25 13062592
2022-09-19_22-18-26 13063670
2022-09-19_22-18-26 13063539
2022-09-19_22-18-26 13063539
2022-09-19_22-18-26 13062615
2022-09-19_22-18-26 13062615
2022-09-19_22-18-26 13062294
2022-09-19_22-18-26 13062294
2022-09-19_22-18-26 13061570
2022-09-19_22-18-26 13064800
2022-09-19_22-18-27 13064800
2022-09-19_22-18-27 13064058
2022-09-19_22-18-27 13064058
2022-09-19_22-18-27 13064264
2022-09-19_22-18-27 13065132
2022-09-19_22-18-27 13065132
2022-09-19_22-18-27 13065318
2022-09-19_22-18-27 13065318
2022-09-19_22-18-27 13066252
2022-09-19_22-18-27 13066252
2022-09-19_22-18-28 13066280
2022-09-19_22-18-28 13063824
2022-09-19_22-18-28 13063824
2022-09-19_22-18-28 13065790
2022-09-19_22-18-28 13065790
2022-09-19_22-18-28 13062844
2022-09-19_22-18-28 13062844
2022-09-19_22-18-28 13062679
2022-09-19_22-18-28 13061675
2022-09-19_22-18-28 13061675
2022-09-19_22-18-29 13060499
2022-09-19_22-18-29 13060499
2022-09-19_22-18-29 13064779
2022-09-19_22-18-29 13064779
2022-09-19_22-18-29 13067451
2022-09-19_22-18-29 13063649
2022-09-19_22-18-29 13063649
2022-09-19_22-18-29 13062034
2022-09-19_22-18-29 13062034
2022-09-19_22-18-29 13062729
2022-09-19_22-18-30 13059866
2022-09-19_22-18-30 13059866
2022-09-19_22-18-30 13061476
2022-09-19_22-18-30 13061476
2022-09-19_22-18-30 13063399
2022-09-19_22-18-30 13063399
2022-09-19_22-18-30 13064697
2022-09-19_22-18-30 13064896
2022-09-19_22-18-30 13064896
2022-09-19_22-18-30 13062842
2022-09-19_22-18-31 13062842
2022-09-19_22-18-31 13065494
2022-09-19_22-18-31 13065494
2022-09-19_22-18-31 13064796
2022-09-19_22-18-31 13060549
2022-09-19_22-18-31 13060549
2022-09-19_22-18-31 13063197
2022-09-19_22-18-31 13063197
2022-09-19_22-18-31 13066373
2022-09-19_22-18-31 13066373
2022-09-19_22-18-32 13064178
2022-09-19_22-18-32 13063559
2022-09-19_22-18-32 13063559
2022-09-19_22-18-32 13063061
2022-09-19_22-18-32 13063061
2022-09-19_22-18-32 13059023
2022-09-19_22-18-32 13062216
2022-09-19_22-18-32 13062216
2022-09-19_22-18-32 13064441
2022-09-19_22-18-32 13064441
2022-09-19_22-18-33 13063568
2022-09-19_22-18-33 13063568
2022-09-19_22-18-33 13062384
2022-09-19_22-18-33 13062680
2022-09-19_22-18-33 13062680
2022-09-19_22-18-33 13063092
2022-09-19_22-18-33 13063092
2022-09-19_22-18-33 13063738
2022-09-19_22-18-33 13063738
2022-09-19_22-18-33 13060834
2022-09-19_22-18-34 13062371
2022-09-19_22-18-34 13062371
2022-09-19_22-18-34 13063300
2022-09-19_22-18-34 13063300
2022-09-19_22-18-34 13061205
2022-09-19_22-18-34 13061205
2022-09-19_22-18-34 13065966
2022-09-19_22-18-34 13064884
2022-09-19_22-18-34 13064884
2022-09-19_22-18-34 13060162
2022-09-19_22-18-35 13060162
2022-09-19_22-18-35 13061752
2022-09-19_22-18-35 13064181
2022-09-19_22-18-35 13064181
2022-09-19_22-18-35 13063459
2022-09-19_22-18-35 13063459
2022-09-19_22-18-35 13060172
2022-09-19_22-18-35 13060172
2022-09-19_22-18-35 13063577
2022-09-19_22-18-35 13060929
2022-09-19_22-18-36 13060929
2022-09-19_22-18-36 13062607
2022-09-19_22-18-36 13062607
2022-09-19_22-18-36 13064163
2022-09-19_22-18-36 13064163
2022-09-19_22-18-36 13059609
2022-09-19_22-18-36 13062848
2022-09-19_22-18-36 13062848
2022-09-19_22-18-36 13063896
2022-09-19_22-18-36 13063896
2022-09-19_22-18-37 13062641
2022-09-19_22-18-37 13062641
2022-09-19_22-18-37 13059557
2022-09-19_22-18-37 13060248
2022-09-19_22-18-37 13060248
2022-09-19_22-18-37 13059493
2022-09-19_22-18-37 13059493
2022-09-19_22-18-37 13061907
2022-09-19_22-18-37 13066218
2022-09-19_22-18-37 13066218
2022-09-19_22-18-38 13065151
2022-09-19_22-18-38 13065151
2022-09-19_22-18-38 13065405
2022-09-19_22-18-38 13065405
2022-09-19_22-18-38 13063989
2022-09-19_22-18-38 13062496
2022-09-19_22-18-38 13062496
2022-09-19_22-18-38 13063799
2022-09-19_22-18-38 13063799
2022-09-19_22-18-39 13063595
2022-09-19_22-18-39 13063595
2022-09-19_22-18-39 13058069
2022-09-19_22-18-39 13060797
2022-09-19_22-18-39 13060797
2022-09-19_22-18-39 13061239
2022-09-19_22-18-39 13061239
2022-09-19_22-18-39 13064261
2022-09-19_22-18-39 13064261
2022-09-19_22-18-39 13060238
2022-09-19_22-18-40 13061879
2022-09-19_22-18-40 13061879
2022-09-19_22-18-40 13063254
2022-09-19_22-18-40 13063254
2022-09-19_22-18-40 13065098
2022-09-19_22-18-40 13060889
2022-09-19_22-18-40 13060889
2022-09-19_22-18-40 13061819
2022-09-19_22-18-40 13061819
2022-09-19_22-18-40 13065101
2022-09-19_22-18-41 13065101
2022-09-19_22-18-41 13063586
2022-09-19_22-18-41 13065815
2022-09-19_22-18-41 13065815
2022-09-19_22-18-41 13064402
2022-09-19_22-18-41 13064402
2022-09-19_22-18-41 13066576
2022-09-19_22-18-41 13066576
2022-09-19_22-18-41 13066486
2022-09-19_22-18-41 13065315
2022-09-19_22-18-42 13065315
2022-09-19_22-18-42 13066019
2022-09-19_22-18-42 13066019
2022-09-19_22-18-42 13063848
2022-09-19_22-18-42 13063848
2022-09-19_22-18-42 13062023
2022-09-19_22-18-42 13062729
2022-09-19_22-18-42 13062729
2022-09-19_22-18-42 13062469
2022-09-19_22-18-42 13062469
2022-09-19_22-18-43 13060307
2022-09-19_22-18-43 13058551
2022-09-19_22-18-43 13058551
2022-09-19_22-18-43 13060933
2022-09-19_22-18-43 13060933
2022-09-19_22-18-43 13061185
2022-09-19_22-18-43 13061185
2022-09-19_22-18-43 13061034
2022-09-19_22-18-43 13061627
2022-09-19_22-18-43 13061627
2022-09-19_22-18-44 13060405
2022-09-19_22-18-44 13060405
2022-09-19_22-18-44 13063079
2022-09-19_22-18-44 13063079
2022-09-19_22-18-44 13061136
2022-09-19_22-18-44 13062460
2022-09-19_22-18-44 13062460
2022-09-19_22-18-44 13062577
2022-09-19_22-18-44 13062577
2022-09-19_22-18-44 13057021
2022-09-19_22-18-45 13060304
2022-09-19_22-18-45 13060304
2022-09-19_22-18-45 13061495
2022-09-19_22-18-45 13061495
2022-09-19_22-18-45 13061557
2022-09-19_22-18-45 13061557
2022-09-19_22-18-45 13063220
2022-09-19_22-18-45 13063064
2022-09-19_22-18-45 13063064
2022-09-19_22-18-45 13062423
2022-09-19_22-18-46 13062423
2022-09-19_22-18-46 13063835
2022-09-19_22-18-46 13063835
2022-09-19_22-18-46 13062558
2022-09-19_22-18-46 13063229
2022-09-19_22-18-46 13063229
2022-09-19_22-18-46 13061717
2022-09-19_22-18-46 13061717
2022-09-19_22-18-46 13060559
2022-09-19_22-18-46 13060559
2022-09-19_22-18-47 13066093
2022-09-19_22-18-47 13059705
2022-09-19_22-18-47 13059705
2022-09-19_22-18-47 13058577
